solid OpenSCAD_Model
  facet normal 1 -0 0
    outer loop
      vertex -40.5 -50 2
      vertex -40.5 -48 0
      vertex -40.5 -48 2
    endloop
  endfacet
  facet normal 1 0 0
    outer loop
      vertex -40.5 -48 0
      vertex -40.5 -50 2
      vertex -40.5 -50 0
    endloop
  endfacet
  facet normal -1 0 0
    outer loop
      vertex -39.5 -50 0
      vertex -39.5 -48 2
      vertex -39.5 -48 0
    endloop
  endfacet
  facet normal -1 -0 0
    outer loop
      vertex -39.5 -48 2
      vertex -39.5 -50 0
      vertex -39.5 -50 2
    endloop
  endfacet
  facet normal 0 -1 0
    outer loop
      vertex -40.5 -48 0
      vertex -39.5 -48 2
      vertex -40.5 -48 2
    endloop
  endfacet
  facet normal 0 -1 -0
    outer loop
      vertex -39.5 -48 2
      vertex -40.5 -48 0
      vertex -39.5 -48 0
    endloop
  endfacet
  facet normal 1 -0 0
    outer loop
      vertex -30.5 -50 2
      vertex -30.5 -48 0
      vertex -30.5 -48 2
    endloop
  endfacet
  facet normal 1 0 0
    outer loop
      vertex -30.5 -48 0
      vertex -30.5 -50 2
      vertex -30.5 -50 0
    endloop
  endfacet
  facet normal -1 0 0
    outer loop
      vertex -29.5 -50 0
      vertex -29.5 -48 2
      vertex -29.5 -48 0
    endloop
  endfacet
  facet normal -1 -0 0
    outer loop
      vertex -29.5 -48 2
      vertex -29.5 -50 0
      vertex -29.5 -50 2
    endloop
  endfacet
  facet normal 0 -1 0
    outer loop
      vertex -30.5 -48 0
      vertex -29.5 -48 2
      vertex -30.5 -48 2
    endloop
  endfacet
  facet normal 0 -1 -0
    outer loop
      vertex -29.5 -48 2
      vertex -30.5 -48 0
      vertex -29.5 -48 0
    endloop
  endfacet
  facet normal 1 -0 0
    outer loop
      vertex -20.5 -50 2
      vertex -20.5 -48 0
      vertex -20.5 -48 2
    endloop
  endfacet
  facet normal 1 0 0
    outer loop
      vertex -20.5 -48 0
      vertex -20.5 -50 2
      vertex -20.5 -50 0
    endloop
  endfacet
  facet normal -1 0 0
    outer loop
      vertex -19.5 -50 0
      vertex -19.5 -48 2
      vertex -19.5 -48 0
    endloop
  endfacet
  facet normal -1 -0 0
    outer loop
      vertex -19.5 -48 2
      vertex -19.5 -50 0
      vertex -19.5 -50 2
    endloop
  endfacet
  facet normal 0 -1 0
    outer loop
      vertex -20.5 -48 0
      vertex -19.5 -48 2
      vertex -20.5 -48 2
    endloop
  endfacet
  facet normal 0 -1 -0
    outer loop
      vertex -19.5 -48 2
      vertex -20.5 -48 0
      vertex -19.5 -48 0
    endloop
  endfacet
  facet normal 1 -0 0
    outer loop
      vertex -10.5 -50 2
      vertex -10.5 -48 0
      vertex -10.5 -48 2
    endloop
  endfacet
  facet normal 1 0 0
    outer loop
      vertex -10.5 -48 0
      vertex -10.5 -50 2
      vertex -10.5 -50 0
    endloop
  endfacet
  facet normal -1 0 0
    outer loop
      vertex -9.5 -50 0
      vertex -9.5 -48 2
      vertex -9.5 -48 0
    endloop
  endfacet
  facet normal -1 -0 0
    outer loop
      vertex -9.5 -48 2
      vertex -9.5 -50 0
      vertex -9.5 -50 2
    endloop
  endfacet
  facet normal 0 -1 0
    outer loop
      vertex -10.5 -48 0
      vertex -9.5 -48 2
      vertex -10.5 -48 2
    endloop
  endfacet
  facet normal 0 -1 -0
    outer loop
      vertex -9.5 -48 2
      vertex -10.5 -48 0
      vertex -9.5 -48 0
    endloop
  endfacet
  facet normal 1 -0 0
    outer loop
      vertex -0.5 -50 2
      vertex -0.5 -48 0
      vertex -0.5 -48 2
    endloop
  endfacet
  facet normal 1 0 0
    outer loop
      vertex -0.5 -48 0
      vertex -0.5 -50 2
      vertex -0.5 -50 0
    endloop
  endfacet
  facet normal -1 0 0
    outer loop
      vertex 0.5 -50 0
      vertex 0.5 -48 2
      vertex 0.5 -48 0
    endloop
  endfacet
  facet normal -1 -0 0
    outer loop
      vertex 0.5 -48 2
      vertex 0.5 -50 0
      vertex 0.5 -50 2
    endloop
  endfacet
  facet normal 0 -1 0
    outer loop
      vertex -0.5 -48 0
      vertex 0.5 -48 2
      vertex -0.5 -48 2
    endloop
  endfacet
  facet normal 0 -1 -0
    outer loop
      vertex 0.5 -48 2
      vertex -0.5 -48 0
      vertex 0.5 -48 0
    endloop
  endfacet
  facet normal 1 -0 0
    outer loop
      vertex 9.5 -50 2
      vertex 9.5 -48 0
      vertex 9.5 -48 2
    endloop
  endfacet
  facet normal 1 0 0
    outer loop
      vertex 9.5 -48 0
      vertex 9.5 -50 2
      vertex 9.5 -50 0
    endloop
  endfacet
  facet normal -1 0 0
    outer loop
      vertex 10.5 -50 0
      vertex 10.5 -48 2
      vertex 10.5 -48 0
    endloop
  endfacet
  facet normal -1 -0 0
    outer loop
      vertex 10.5 -48 2
      vertex 10.5 -50 0
      vertex 10.5 -50 2
    endloop
  endfacet
  facet normal 0 -1 0
    outer loop
      vertex 9.5 -48 0
      vertex 10.5 -48 2
      vertex 9.5 -48 2
    endloop
  endfacet
  facet normal 0 -1 -0
    outer loop
      vertex 10.5 -48 2
      vertex 9.5 -48 0
      vertex 10.5 -48 0
    endloop
  endfacet
  facet normal 1 -0 0
    outer loop
      vertex 19.5 -50 2
      vertex 19.5 -48 0
      vertex 19.5 -48 2
    endloop
  endfacet
  facet normal 1 0 0
    outer loop
      vertex 19.5 -48 0
      vertex 19.5 -50 2
      vertex 19.5 -50 0
    endloop
  endfacet
  facet normal -1 0 0
    outer loop
      vertex 20.5 -50 0
      vertex 20.5 -48 2
      vertex 20.5 -48 0
    endloop
  endfacet
  facet normal -1 -0 0
    outer loop
      vertex 20.5 -48 2
      vertex 20.5 -50 0
      vertex 20.5 -50 2
    endloop
  endfacet
  facet normal 0 -1 0
    outer loop
      vertex 19.5 -48 0
      vertex 20.5 -48 2
      vertex 19.5 -48 2
    endloop
  endfacet
  facet normal 0 -1 -0
    outer loop
      vertex 20.5 -48 2
      vertex 19.5 -48 0
      vertex 20.5 -48 0
    endloop
  endfacet
  facet normal 1 -0 0
    outer loop
      vertex 29.5 -50 2
      vertex 29.5 -48 0
      vertex 29.5 -48 2
    endloop
  endfacet
  facet normal 1 0 0
    outer loop
      vertex 29.5 -48 0
      vertex 29.5 -50 2
      vertex 29.5 -50 0
    endloop
  endfacet
  facet normal -1 0 0
    outer loop
      vertex 30.5 -50 0
      vertex 30.5 -48 2
      vertex 30.5 -48 0
    endloop
  endfacet
  facet normal -1 -0 0
    outer loop
      vertex 30.5 -48 2
      vertex 30.5 -50 0
      vertex 30.5 -50 2
    endloop
  endfacet
  facet normal 0 -1 0
    outer loop
      vertex 29.5 -48 0
      vertex 30.5 -48 2
      vertex 29.5 -48 2
    endloop
  endfacet
  facet normal 0 -1 -0
    outer loop
      vertex 30.5 -48 2
      vertex 29.5 -48 0
      vertex 30.5 -48 0
    endloop
  endfacet
  facet normal 1 -0 0
    outer loop
      vertex 39.5 -50 2
      vertex 39.5 -48 0
      vertex 39.5 -48 2
    endloop
  endfacet
  facet normal 1 0 0
    outer loop
      vertex 39.5 -48 0
      vertex 39.5 -50 2
      vertex 39.5 -50 0
    endloop
  endfacet
  facet normal -1 0 0
    outer loop
      vertex 40.5 -50 0
      vertex 40.5 -48 2
      vertex 40.5 -48 0
    endloop
  endfacet
  facet normal -1 -0 0
    outer loop
      vertex 40.5 -48 2
      vertex 40.5 -50 0
      vertex 40.5 -50 2
    endloop
  endfacet
  facet normal 0 -1 0
    outer loop
      vertex 39.5 -48 0
      vertex 40.5 -48 2
      vertex 39.5 -48 2
    endloop
  endfacet
  facet normal 0 -1 -0
    outer loop
      vertex 40.5 -48 2
      vertex 39.5 -48 0
      vertex 40.5 -48 0
    endloop
  endfacet
  facet normal -1 0 0
    outer loop
      vertex -49 -50 2
      vertex -49 -49 1.30762
      vertex -49 -50 0
    endloop
  endfacet
  facet normal -1 0 0
    outer loop
      vertex -49 -49 1.30762
      vertex -49 -50 2
      vertex -49 -49 2
    endloop
  endfacet
  facet normal 0 -1 0
    outer loop
      vertex -50 -49 2
      vertex -49 -49 1.30762
      vertex -49 -49 2
    endloop
  endfacet
  facet normal -0 -1 0
    outer loop
      vertex -49 -49 1.30762
      vertex -50 -49 2
      vertex -50 -49 0
    endloop
  endfacet
  facet normal 0 1 -0
    outer loop
      vertex 50 -40.5 0
      vertex 48 -40.5 2
      vertex 50 -40.5 2
    endloop
  endfacet
  facet normal 0 1 0
    outer loop
      vertex 48 -40.5 2
      vertex 50 -40.5 0
      vertex 48 -40.5 0
    endloop
  endfacet
  facet normal 0 -1 0
    outer loop
      vertex 48 -39.5 0
      vertex 50 -39.5 2
      vertex 48 -39.5 2
    endloop
  endfacet
  facet normal 0 -1 -0
    outer loop
      vertex 50 -39.5 2
      vertex 48 -39.5 0
      vertex 50 -39.5 0
    endloop
  endfacet
  facet normal 1 -0 0
    outer loop
      vertex 48 -40.5 2
      vertex 48 -39.5 0
      vertex 48 -39.5 2
    endloop
  endfacet
  facet normal 1 0 0
    outer loop
      vertex 48 -39.5 0
      vertex 48 -40.5 2
      vertex 48 -40.5 0
    endloop
  endfacet
  facet normal 0 1 -0
    outer loop
      vertex 50 -30.5 0
      vertex 48 -30.5 2
      vertex 50 -30.5 2
    endloop
  endfacet
  facet normal 0 1 0
    outer loop
      vertex 48 -30.5 2
      vertex 50 -30.5 0
      vertex 48 -30.5 0
    endloop
  endfacet
  facet normal 0 -1 0
    outer loop
      vertex 48 -29.5 0
      vertex 50 -29.5 2
      vertex 48 -29.5 2
    endloop
  endfacet
  facet normal 0 -1 -0
    outer loop
      vertex 50 -29.5 2
      vertex 48 -29.5 0
      vertex 50 -29.5 0
    endloop
  endfacet
  facet normal 1 -0 0
    outer loop
      vertex 48 -30.5 2
      vertex 48 -29.5 0
      vertex 48 -29.5 2
    endloop
  endfacet
  facet normal 1 0 0
    outer loop
      vertex 48 -29.5 0
      vertex 48 -30.5 2
      vertex 48 -30.5 0
    endloop
  endfacet
  facet normal 0 1 -0
    outer loop
      vertex 50 -20.5 0
      vertex 48 -20.5 2
      vertex 50 -20.5 2
    endloop
  endfacet
  facet normal 0 1 0
    outer loop
      vertex 48 -20.5 2
      vertex 50 -20.5 0
      vertex 48 -20.5 0
    endloop
  endfacet
  facet normal 0 -1 0
    outer loop
      vertex 48 -19.5 0
      vertex 50 -19.5 2
      vertex 48 -19.5 2
    endloop
  endfacet
  facet normal 0 -1 -0
    outer loop
      vertex 50 -19.5 2
      vertex 48 -19.5 0
      vertex 50 -19.5 0
    endloop
  endfacet
  facet normal 1 -0 0
    outer loop
      vertex 48 -20.5 2
      vertex 48 -19.5 0
      vertex 48 -19.5 2
    endloop
  endfacet
  facet normal 1 0 0
    outer loop
      vertex 48 -19.5 0
      vertex 48 -20.5 2
      vertex 48 -20.5 0
    endloop
  endfacet
  facet normal 0 1 -0
    outer loop
      vertex 50 -10.5 0
      vertex 48 -10.5 2
      vertex 50 -10.5 2
    endloop
  endfacet
  facet normal 0 1 0
    outer loop
      vertex 48 -10.5 2
      vertex 50 -10.5 0
      vertex 48 -10.5 0
    endloop
  endfacet
  facet normal 0 -1 0
    outer loop
      vertex 48 -9.5 0
      vertex 50 -9.5 2
      vertex 48 -9.5 2
    endloop
  endfacet
  facet normal 0 -1 -0
    outer loop
      vertex 50 -9.5 2
      vertex 48 -9.5 0
      vertex 50 -9.5 0
    endloop
  endfacet
  facet normal 1 -0 0
    outer loop
      vertex 48 -10.5 2
      vertex 48 -9.5 0
      vertex 48 -9.5 2
    endloop
  endfacet
  facet normal 1 0 0
    outer loop
      vertex 48 -9.5 0
      vertex 48 -10.5 2
      vertex 48 -10.5 0
    endloop
  endfacet
  facet normal 0 1 -0
    outer loop
      vertex 50 -0.5 0
      vertex 48 -0.5 2
      vertex 50 -0.5 2
    endloop
  endfacet
  facet normal 0 1 0
    outer loop
      vertex 48 -0.5 2
      vertex 50 -0.5 0
      vertex 48 -0.5 0
    endloop
  endfacet
  facet normal 0 -1 0
    outer loop
      vertex 48 0.5 0
      vertex 50 0.5 2
      vertex 48 0.5 2
    endloop
  endfacet
  facet normal 0 -1 -0
    outer loop
      vertex 50 0.5 2
      vertex 48 0.5 0
      vertex 50 0.5 0
    endloop
  endfacet
  facet normal 1 -0 0
    outer loop
      vertex 48 -0.5 2
      vertex 48 0.5 0
      vertex 48 0.5 2
    endloop
  endfacet
  facet normal 1 0 0
    outer loop
      vertex 48 0.5 0
      vertex 48 -0.5 2
      vertex 48 -0.5 0
    endloop
  endfacet
  facet normal 0 1 -0
    outer loop
      vertex 50 9.5 0
      vertex 48 9.5 2
      vertex 50 9.5 2
    endloop
  endfacet
  facet normal 0 1 0
    outer loop
      vertex 48 9.5 2
      vertex 50 9.5 0
      vertex 48 9.5 0
    endloop
  endfacet
  facet normal 0 -1 0
    outer loop
      vertex 48 10.5 0
      vertex 50 10.5 2
      vertex 48 10.5 2
    endloop
  endfacet
  facet normal 0 -1 -0
    outer loop
      vertex 50 10.5 2
      vertex 48 10.5 0
      vertex 50 10.5 0
    endloop
  endfacet
  facet normal 1 -0 0
    outer loop
      vertex 48 9.5 2
      vertex 48 10.5 0
      vertex 48 10.5 2
    endloop
  endfacet
  facet normal 1 0 0
    outer loop
      vertex 48 10.5 0
      vertex 48 9.5 2
      vertex 48 9.5 0
    endloop
  endfacet
  facet normal 0 1 -0
    outer loop
      vertex 50 19.5 0
      vertex 48 19.5 2
      vertex 50 19.5 2
    endloop
  endfacet
  facet normal 0 1 0
    outer loop
      vertex 48 19.5 2
      vertex 50 19.5 0
      vertex 48 19.5 0
    endloop
  endfacet
  facet normal 0 -1 0
    outer loop
      vertex 48 20.5 0
      vertex 50 20.5 2
      vertex 48 20.5 2
    endloop
  endfacet
  facet normal 0 -1 -0
    outer loop
      vertex 50 20.5 2
      vertex 48 20.5 0
      vertex 50 20.5 0
    endloop
  endfacet
  facet normal 1 -0 0
    outer loop
      vertex 48 19.5 2
      vertex 48 20.5 0
      vertex 48 20.5 2
    endloop
  endfacet
  facet normal 1 0 0
    outer loop
      vertex 48 20.5 0
      vertex 48 19.5 2
      vertex 48 19.5 0
    endloop
  endfacet
  facet normal 0 1 -0
    outer loop
      vertex 50 29.5 0
      vertex 48 29.5 2
      vertex 50 29.5 2
    endloop
  endfacet
  facet normal 0 1 0
    outer loop
      vertex 48 29.5 2
      vertex 50 29.5 0
      vertex 48 29.5 0
    endloop
  endfacet
  facet normal 0 -1 0
    outer loop
      vertex 48 30.5 0
      vertex 50 30.5 2
      vertex 48 30.5 2
    endloop
  endfacet
  facet normal 0 -1 -0
    outer loop
      vertex 50 30.5 2
      vertex 48 30.5 0
      vertex 50 30.5 0
    endloop
  endfacet
  facet normal 1 -0 0
    outer loop
      vertex 48 29.5 2
      vertex 48 30.5 0
      vertex 48 30.5 2
    endloop
  endfacet
  facet normal 1 0 0
    outer loop
      vertex 48 30.5 0
      vertex 48 29.5 2
      vertex 48 29.5 0
    endloop
  endfacet
  facet normal 0 1 -0
    outer loop
      vertex 50 39.5 0
      vertex 48 39.5 2
      vertex 50 39.5 2
    endloop
  endfacet
  facet normal 0 1 0
    outer loop
      vertex 48 39.5 2
      vertex 50 39.5 0
      vertex 48 39.5 0
    endloop
  endfacet
  facet normal 0 -1 0
    outer loop
      vertex 48 40.5 0
      vertex 50 40.5 2
      vertex 48 40.5 2
    endloop
  endfacet
  facet normal 0 -1 -0
    outer loop
      vertex 50 40.5 2
      vertex 48 40.5 0
      vertex 50 40.5 0
    endloop
  endfacet
  facet normal 1 -0 0
    outer loop
      vertex 48 39.5 2
      vertex 48 40.5 0
      vertex 48 40.5 2
    endloop
  endfacet
  facet normal 1 0 0
    outer loop
      vertex 48 40.5 0
      vertex 48 39.5 2
      vertex 48 39.5 0
    endloop
  endfacet
  facet normal 0 -1 0
    outer loop
      vertex 49 -49 1.30762
      vertex 50 -49 2
      vertex 49 -49 2
    endloop
  endfacet
  facet normal 0 -1 -0
    outer loop
      vertex 50 -49 2
      vertex 49 -49 1.30762
      vertex 50 -49 0
    endloop
  endfacet
  facet normal 1 -0 0
    outer loop
      vertex 49 -50 2
      vertex 49 -49 1.30762
      vertex 49 -49 2
    endloop
  endfacet
  facet normal 1 0 0
    outer loop
      vertex 49 -49 1.30762
      vertex 49 -50 2
      vertex 49 -50 0
    endloop
  endfacet
  facet normal -1 0 0
    outer loop
      vertex 40.5 48 0
      vertex 40.5 50 2
      vertex 40.5 50 0
    endloop
  endfacet
  facet normal -1 -0 0
    outer loop
      vertex 40.5 50 2
      vertex 40.5 48 0
      vertex 40.5 48 2
    endloop
  endfacet
  facet normal 1 -0 0
    outer loop
      vertex 39.5 48 2
      vertex 39.5 50 0
      vertex 39.5 50 2
    endloop
  endfacet
  facet normal 1 0 0
    outer loop
      vertex 39.5 50 0
      vertex 39.5 48 2
      vertex 39.5 48 0
    endloop
  endfacet
  facet normal 0 1 -0
    outer loop
      vertex 40.5 48 0
      vertex 39.5 48 2
      vertex 40.5 48 2
    endloop
  endfacet
  facet normal 0 1 0
    outer loop
      vertex 39.5 48 2
      vertex 40.5 48 0
      vertex 39.5 48 0
    endloop
  endfacet
  facet normal -1 0 0
    outer loop
      vertex 30.5 48 0
      vertex 30.5 50 2
      vertex 30.5 50 0
    endloop
  endfacet
  facet normal -1 -0 0
    outer loop
      vertex 30.5 50 2
      vertex 30.5 48 0
      vertex 30.5 48 2
    endloop
  endfacet
  facet normal 1 -0 0
    outer loop
      vertex 29.5 48 2
      vertex 29.5 50 0
      vertex 29.5 50 2
    endloop
  endfacet
  facet normal 1 0 0
    outer loop
      vertex 29.5 50 0
      vertex 29.5 48 2
      vertex 29.5 48 0
    endloop
  endfacet
  facet normal 0 1 -0
    outer loop
      vertex 30.5 48 0
      vertex 29.5 48 2
      vertex 30.5 48 2
    endloop
  endfacet
  facet normal 0 1 0
    outer loop
      vertex 29.5 48 2
      vertex 30.5 48 0
      vertex 29.5 48 0
    endloop
  endfacet
  facet normal -1 0 0
    outer loop
      vertex 20.5 48 0
      vertex 20.5 50 2
      vertex 20.5 50 0
    endloop
  endfacet
  facet normal -1 -0 0
    outer loop
      vertex 20.5 50 2
      vertex 20.5 48 0
      vertex 20.5 48 2
    endloop
  endfacet
  facet normal 1 -0 0
    outer loop
      vertex 19.5 48 2
      vertex 19.5 50 0
      vertex 19.5 50 2
    endloop
  endfacet
  facet normal 1 0 0
    outer loop
      vertex 19.5 50 0
      vertex 19.5 48 2
      vertex 19.5 48 0
    endloop
  endfacet
  facet normal 0 1 -0
    outer loop
      vertex 20.5 48 0
      vertex 19.5 48 2
      vertex 20.5 48 2
    endloop
  endfacet
  facet normal 0 1 0
    outer loop
      vertex 19.5 48 2
      vertex 20.5 48 0
      vertex 19.5 48 0
    endloop
  endfacet
  facet normal -1 0 0
    outer loop
      vertex 10.5 48 0
      vertex 10.5 50 2
      vertex 10.5 50 0
    endloop
  endfacet
  facet normal -1 -0 0
    outer loop
      vertex 10.5 50 2
      vertex 10.5 48 0
      vertex 10.5 48 2
    endloop
  endfacet
  facet normal 1 -0 0
    outer loop
      vertex 9.5 48 2
      vertex 9.5 50 0
      vertex 9.5 50 2
    endloop
  endfacet
  facet normal 1 0 0
    outer loop
      vertex 9.5 50 0
      vertex 9.5 48 2
      vertex 9.5 48 0
    endloop
  endfacet
  facet normal 0 1 -0
    outer loop
      vertex 10.5 48 0
      vertex 9.5 48 2
      vertex 10.5 48 2
    endloop
  endfacet
  facet normal 0 1 0
    outer loop
      vertex 9.5 48 2
      vertex 10.5 48 0
      vertex 9.5 48 0
    endloop
  endfacet
  facet normal -1 0 0
    outer loop
      vertex 0.5 48 0
      vertex 0.5 50 2
      vertex 0.5 50 0
    endloop
  endfacet
  facet normal -1 -0 0
    outer loop
      vertex 0.5 50 2
      vertex 0.5 48 0
      vertex 0.5 48 2
    endloop
  endfacet
  facet normal 1 -0 0
    outer loop
      vertex -0.5 48 2
      vertex -0.5 50 0
      vertex -0.5 50 2
    endloop
  endfacet
  facet normal 1 0 0
    outer loop
      vertex -0.5 50 0
      vertex -0.5 48 2
      vertex -0.5 48 0
    endloop
  endfacet
  facet normal 0 1 -0
    outer loop
      vertex 0.5 48 0
      vertex -0.5 48 2
      vertex 0.5 48 2
    endloop
  endfacet
  facet normal 0 1 0
    outer loop
      vertex -0.5 48 2
      vertex 0.5 48 0
      vertex -0.5 48 0
    endloop
  endfacet
  facet normal -1 0 0
    outer loop
      vertex -9.5 48 0
      vertex -9.5 50 2
      vertex -9.5 50 0
    endloop
  endfacet
  facet normal -1 -0 0
    outer loop
      vertex -9.5 50 2
      vertex -9.5 48 0
      vertex -9.5 48 2
    endloop
  endfacet
  facet normal 1 -0 0
    outer loop
      vertex -10.5 48 2
      vertex -10.5 50 0
      vertex -10.5 50 2
    endloop
  endfacet
  facet normal 1 0 0
    outer loop
      vertex -10.5 50 0
      vertex -10.5 48 2
      vertex -10.5 48 0
    endloop
  endfacet
  facet normal 0 1 -0
    outer loop
      vertex -9.5 48 0
      vertex -10.5 48 2
      vertex -9.5 48 2
    endloop
  endfacet
  facet normal 0 1 0
    outer loop
      vertex -10.5 48 2
      vertex -9.5 48 0
      vertex -10.5 48 0
    endloop
  endfacet
  facet normal -1 0 0
    outer loop
      vertex -19.5 48 0
      vertex -19.5 50 2
      vertex -19.5 50 0
    endloop
  endfacet
  facet normal -1 -0 0
    outer loop
      vertex -19.5 50 2
      vertex -19.5 48 0
      vertex -19.5 48 2
    endloop
  endfacet
  facet normal 1 -0 0
    outer loop
      vertex -20.5 48 2
      vertex -20.5 50 0
      vertex -20.5 50 2
    endloop
  endfacet
  facet normal 1 0 0
    outer loop
      vertex -20.5 50 0
      vertex -20.5 48 2
      vertex -20.5 48 0
    endloop
  endfacet
  facet normal 0 1 -0
    outer loop
      vertex -19.5 48 0
      vertex -20.5 48 2
      vertex -19.5 48 2
    endloop
  endfacet
  facet normal 0 1 0
    outer loop
      vertex -20.5 48 2
      vertex -19.5 48 0
      vertex -20.5 48 0
    endloop
  endfacet
  facet normal -1 0 0
    outer loop
      vertex -29.5 48 0
      vertex -29.5 50 2
      vertex -29.5 50 0
    endloop
  endfacet
  facet normal -1 -0 0
    outer loop
      vertex -29.5 50 2
      vertex -29.5 48 0
      vertex -29.5 48 2
    endloop
  endfacet
  facet normal 1 -0 0
    outer loop
      vertex -30.5 48 2
      vertex -30.5 50 0
      vertex -30.5 50 2
    endloop
  endfacet
  facet normal 1 0 0
    outer loop
      vertex -30.5 50 0
      vertex -30.5 48 2
      vertex -30.5 48 0
    endloop
  endfacet
  facet normal 0 1 -0
    outer loop
      vertex -29.5 48 0
      vertex -30.5 48 2
      vertex -29.5 48 2
    endloop
  endfacet
  facet normal 0 1 0
    outer loop
      vertex -30.5 48 2
      vertex -29.5 48 0
      vertex -30.5 48 0
    endloop
  endfacet
  facet normal -1 0 0
    outer loop
      vertex -39.5 48 0
      vertex -39.5 50 2
      vertex -39.5 50 0
    endloop
  endfacet
  facet normal -1 -0 0
    outer loop
      vertex -39.5 50 2
      vertex -39.5 48 0
      vertex -39.5 48 2
    endloop
  endfacet
  facet normal 1 -0 0
    outer loop
      vertex -40.5 48 2
      vertex -40.5 50 0
      vertex -40.5 50 2
    endloop
  endfacet
  facet normal 1 0 0
    outer loop
      vertex -40.5 50 0
      vertex -40.5 48 2
      vertex -40.5 48 0
    endloop
  endfacet
  facet normal 0 1 -0
    outer loop
      vertex -39.5 48 0
      vertex -40.5 48 2
      vertex -39.5 48 2
    endloop
  endfacet
  facet normal 0 1 0
    outer loop
      vertex -40.5 48 2
      vertex -39.5 48 0
      vertex -40.5 48 0
    endloop
  endfacet
  facet normal 1 0 0
    outer loop
      vertex 49 49 1.30762
      vertex 49 50 2
      vertex 49 49 2
    endloop
  endfacet
  facet normal 1 0 0
    outer loop
      vertex 49 50 2
      vertex 49 49 1.30762
      vertex 49 50 0
    endloop
  endfacet
  facet normal 0 1 0
    outer loop
      vertex 50 49 2
      vertex 49 49 1.30762
      vertex 49 49 2
    endloop
  endfacet
  facet normal -0 1 0
    outer loop
      vertex 49 49 1.30762
      vertex 50 49 2
      vertex 50 49 0
    endloop
  endfacet
  facet normal 0 -1 0
    outer loop
      vertex -50 40.5 0
      vertex -48 40.5 2
      vertex -50 40.5 2
    endloop
  endfacet
  facet normal 0 -1 -0
    outer loop
      vertex -48 40.5 2
      vertex -50 40.5 0
      vertex -48 40.5 0
    endloop
  endfacet
  facet normal 0 1 -0
    outer loop
      vertex -48 39.5 0
      vertex -50 39.5 2
      vertex -48 39.5 2
    endloop
  endfacet
  facet normal 0 1 0
    outer loop
      vertex -50 39.5 2
      vertex -48 39.5 0
      vertex -50 39.5 0
    endloop
  endfacet
  facet normal -1 0 0
    outer loop
      vertex -48 39.5 0
      vertex -48 40.5 2
      vertex -48 40.5 0
    endloop
  endfacet
  facet normal -1 -0 0
    outer loop
      vertex -48 40.5 2
      vertex -48 39.5 0
      vertex -48 39.5 2
    endloop
  endfacet
  facet normal 0 -1 0
    outer loop
      vertex -50 30.5 0
      vertex -48 30.5 2
      vertex -50 30.5 2
    endloop
  endfacet
  facet normal 0 -1 -0
    outer loop
      vertex -48 30.5 2
      vertex -50 30.5 0
      vertex -48 30.5 0
    endloop
  endfacet
  facet normal 0 1 -0
    outer loop
      vertex -48 29.5 0
      vertex -50 29.5 2
      vertex -48 29.5 2
    endloop
  endfacet
  facet normal 0 1 0
    outer loop
      vertex -50 29.5 2
      vertex -48 29.5 0
      vertex -50 29.5 0
    endloop
  endfacet
  facet normal -1 0 0
    outer loop
      vertex -48 29.5 0
      vertex -48 30.5 2
      vertex -48 30.5 0
    endloop
  endfacet
  facet normal -1 -0 0
    outer loop
      vertex -48 30.5 2
      vertex -48 29.5 0
      vertex -48 29.5 2
    endloop
  endfacet
  facet normal 0 -1 0
    outer loop
      vertex -50 20.5 0
      vertex -48 20.5 2
      vertex -50 20.5 2
    endloop
  endfacet
  facet normal 0 -1 -0
    outer loop
      vertex -48 20.5 2
      vertex -50 20.5 0
      vertex -48 20.5 0
    endloop
  endfacet
  facet normal 0 1 -0
    outer loop
      vertex -48 19.5 0
      vertex -50 19.5 2
      vertex -48 19.5 2
    endloop
  endfacet
  facet normal 0 1 0
    outer loop
      vertex -50 19.5 2
      vertex -48 19.5 0
      vertex -50 19.5 0
    endloop
  endfacet
  facet normal -1 0 0
    outer loop
      vertex -48 19.5 0
      vertex -48 20.5 2
      vertex -48 20.5 0
    endloop
  endfacet
  facet normal -1 -0 0
    outer loop
      vertex -48 20.5 2
      vertex -48 19.5 0
      vertex -48 19.5 2
    endloop
  endfacet
  facet normal 0 -1 0
    outer loop
      vertex -50 10.5 0
      vertex -48 10.5 2
      vertex -50 10.5 2
    endloop
  endfacet
  facet normal 0 -1 -0
    outer loop
      vertex -48 10.5 2
      vertex -50 10.5 0
      vertex -48 10.5 0
    endloop
  endfacet
  facet normal 0 1 -0
    outer loop
      vertex -48 9.5 0
      vertex -50 9.5 2
      vertex -48 9.5 2
    endloop
  endfacet
  facet normal 0 1 0
    outer loop
      vertex -50 9.5 2
      vertex -48 9.5 0
      vertex -50 9.5 0
    endloop
  endfacet
  facet normal -1 0 0
    outer loop
      vertex -48 9.5 0
      vertex -48 10.5 2
      vertex -48 10.5 0
    endloop
  endfacet
  facet normal -1 -0 0
    outer loop
      vertex -48 10.5 2
      vertex -48 9.5 0
      vertex -48 9.5 2
    endloop
  endfacet
  facet normal 0 -1 0
    outer loop
      vertex -50 0.5 0
      vertex -48 0.5 2
      vertex -50 0.5 2
    endloop
  endfacet
  facet normal 0 -1 -0
    outer loop
      vertex -48 0.5 2
      vertex -50 0.5 0
      vertex -48 0.5 0
    endloop
  endfacet
  facet normal 0 1 -0
    outer loop
      vertex -48 -0.5 0
      vertex -50 -0.5 2
      vertex -48 -0.5 2
    endloop
  endfacet
  facet normal 0 1 0
    outer loop
      vertex -50 -0.5 2
      vertex -48 -0.5 0
      vertex -50 -0.5 0
    endloop
  endfacet
  facet normal -1 0 0
    outer loop
      vertex -48 -0.5 0
      vertex -48 0.5 2
      vertex -48 0.5 0
    endloop
  endfacet
  facet normal -1 -0 0
    outer loop
      vertex -48 0.5 2
      vertex -48 -0.5 0
      vertex -48 -0.5 2
    endloop
  endfacet
  facet normal 0 -1 0
    outer loop
      vertex -50 -9.5 0
      vertex -48 -9.5 2
      vertex -50 -9.5 2
    endloop
  endfacet
  facet normal 0 -1 -0
    outer loop
      vertex -48 -9.5 2
      vertex -50 -9.5 0
      vertex -48 -9.5 0
    endloop
  endfacet
  facet normal 0 1 -0
    outer loop
      vertex -48 -10.5 0
      vertex -50 -10.5 2
      vertex -48 -10.5 2
    endloop
  endfacet
  facet normal 0 1 0
    outer loop
      vertex -50 -10.5 2
      vertex -48 -10.5 0
      vertex -50 -10.5 0
    endloop
  endfacet
  facet normal -1 0 0
    outer loop
      vertex -48 -10.5 0
      vertex -48 -9.5 2
      vertex -48 -9.5 0
    endloop
  endfacet
  facet normal -1 -0 0
    outer loop
      vertex -48 -9.5 2
      vertex -48 -10.5 0
      vertex -48 -10.5 2
    endloop
  endfacet
  facet normal 0 -1 0
    outer loop
      vertex -50 -19.5 0
      vertex -48 -19.5 2
      vertex -50 -19.5 2
    endloop
  endfacet
  facet normal 0 -1 -0
    outer loop
      vertex -48 -19.5 2
      vertex -50 -19.5 0
      vertex -48 -19.5 0
    endloop
  endfacet
  facet normal 0 1 -0
    outer loop
      vertex -48 -20.5 0
      vertex -50 -20.5 2
      vertex -48 -20.5 2
    endloop
  endfacet
  facet normal 0 1 0
    outer loop
      vertex -50 -20.5 2
      vertex -48 -20.5 0
      vertex -50 -20.5 0
    endloop
  endfacet
  facet normal -1 0 0
    outer loop
      vertex -48 -20.5 0
      vertex -48 -19.5 2
      vertex -48 -19.5 0
    endloop
  endfacet
  facet normal -1 -0 0
    outer loop
      vertex -48 -19.5 2
      vertex -48 -20.5 0
      vertex -48 -20.5 2
    endloop
  endfacet
  facet normal 0 -1 0
    outer loop
      vertex -50 -29.5 0
      vertex -48 -29.5 2
      vertex -50 -29.5 2
    endloop
  endfacet
  facet normal 0 -1 -0
    outer loop
      vertex -48 -29.5 2
      vertex -50 -29.5 0
      vertex -48 -29.5 0
    endloop
  endfacet
  facet normal 0 1 -0
    outer loop
      vertex -48 -30.5 0
      vertex -50 -30.5 2
      vertex -48 -30.5 2
    endloop
  endfacet
  facet normal 0 1 0
    outer loop
      vertex -50 -30.5 2
      vertex -48 -30.5 0
      vertex -50 -30.5 0
    endloop
  endfacet
  facet normal -1 0 0
    outer loop
      vertex -48 -30.5 0
      vertex -48 -29.5 2
      vertex -48 -29.5 0
    endloop
  endfacet
  facet normal -1 -0 0
    outer loop
      vertex -48 -29.5 2
      vertex -48 -30.5 0
      vertex -48 -30.5 2
    endloop
  endfacet
  facet normal 0 -1 0
    outer loop
      vertex -50 -39.5 0
      vertex -48 -39.5 2
      vertex -50 -39.5 2
    endloop
  endfacet
  facet normal 0 -1 -0
    outer loop
      vertex -48 -39.5 2
      vertex -50 -39.5 0
      vertex -48 -39.5 0
    endloop
  endfacet
  facet normal 0 1 -0
    outer loop
      vertex -48 -40.5 0
      vertex -50 -40.5 2
      vertex -48 -40.5 2
    endloop
  endfacet
  facet normal 0 1 0
    outer loop
      vertex -50 -40.5 2
      vertex -48 -40.5 0
      vertex -50 -40.5 0
    endloop
  endfacet
  facet normal -1 0 0
    outer loop
      vertex -48 -40.5 0
      vertex -48 -39.5 2
      vertex -48 -39.5 0
    endloop
  endfacet
  facet normal -1 -0 0
    outer loop
      vertex -48 -39.5 2
      vertex -48 -40.5 0
      vertex -48 -40.5 2
    endloop
  endfacet
  facet normal 0 1 -0
    outer loop
      vertex -49 49 1.30762
      vertex -50 49 2
      vertex -49 49 2
    endloop
  endfacet
  facet normal 0 1 0
    outer loop
      vertex -50 49 2
      vertex -49 49 1.30762
      vertex -50 49 0
    endloop
  endfacet
  facet normal -1 0 0
    outer loop
      vertex -49 49 1.30762
      vertex -49 50 2
      vertex -49 50 0
    endloop
  endfacet
  facet normal -1 -0 0
    outer loop
      vertex -49 50 2
      vertex -49 49 1.30762
      vertex -49 49 2
    endloop
  endfacet
  facet normal 1 -0 0
    outer loop
      vertex -45 -43.4705 2
      vertex -45 45 0
      vertex -45 43.4705 2
    endloop
  endfacet
  facet normal 1 0 0
    outer loop
      vertex -45 45 0
      vertex -45 -43.4705 2
      vertex -45 -45 0
    endloop
  endfacet
  facet normal -1 0 0
    outer loop
      vertex 45 45 0
      vertex 45 -43.4705 2
      vertex 45 43.4705 2
    endloop
  endfacet
  facet normal -1 0 -0
    outer loop
      vertex 45 -43.4705 2
      vertex 45 45 0
      vertex 45 -45 0
    endloop
  endfacet
  facet normal 0 1 0
    outer loop
      vertex 45 -45 0
      vertex -43.4705 -45 2
      vertex 43.4705 -45 2
    endloop
  endfacet
  facet normal 0 1 0
    outer loop
      vertex -43.4705 -45 2
      vertex 45 -45 0
      vertex -45 -45 0
    endloop
  endfacet
  facet normal 0 -1 0
    outer loop
      vertex -45 45 0
      vertex 43.4705 45 2
      vertex -43.4705 45 2
    endloop
  endfacet
  facet normal 0 -1 -0
    outer loop
      vertex 43.4705 45 2
      vertex -45 45 0
      vertex 45 45 0
    endloop
  endfacet
  facet normal -1 0 0
    outer loop
      vertex -50 40.5 0
      vertex -50 49 2
      vertex -50 49 0
    endloop
  endfacet
  facet normal -1 -0 0
    outer loop
      vertex -50 49 2
      vertex -50 40.5 0
      vertex -50 40.5 2
    endloop
  endfacet
  facet normal -1 0 0
    outer loop
      vertex -50 30.5 0
      vertex -50 39.5 2
      vertex -50 39.5 0
    endloop
  endfacet
  facet normal -1 -0 0
    outer loop
      vertex -50 39.5 2
      vertex -50 30.5 0
      vertex -50 30.5 2
    endloop
  endfacet
  facet normal -1 0 0
    outer loop
      vertex -50 20.5 0
      vertex -50 29.5 2
      vertex -50 29.5 0
    endloop
  endfacet
  facet normal -1 -0 0
    outer loop
      vertex -50 29.5 2
      vertex -50 20.5 0
      vertex -50 20.5 2
    endloop
  endfacet
  facet normal -1 0 0
    outer loop
      vertex -50 10.5 0
      vertex -50 19.5 2
      vertex -50 19.5 0
    endloop
  endfacet
  facet normal -1 -0 0
    outer loop
      vertex -50 19.5 2
      vertex -50 10.5 0
      vertex -50 10.5 2
    endloop
  endfacet
  facet normal -1 0 0
    outer loop
      vertex -50 0.5 0
      vertex -50 9.5 2
      vertex -50 9.5 0
    endloop
  endfacet
  facet normal -1 -0 0
    outer loop
      vertex -50 9.5 2
      vertex -50 0.5 0
      vertex -50 0.5 2
    endloop
  endfacet
  facet normal -1 0 0
    outer loop
      vertex -50 -9.5 0
      vertex -50 -0.5 2
      vertex -50 -0.5 0
    endloop
  endfacet
  facet normal -1 -0 0
    outer loop
      vertex -50 -0.5 2
      vertex -50 -9.5 0
      vertex -50 -9.5 2
    endloop
  endfacet
  facet normal -1 0 0
    outer loop
      vertex -50 -19.5 0
      vertex -50 -10.5 2
      vertex -50 -10.5 0
    endloop
  endfacet
  facet normal -1 -0 0
    outer loop
      vertex -50 -10.5 2
      vertex -50 -19.5 0
      vertex -50 -19.5 2
    endloop
  endfacet
  facet normal -1 0 0
    outer loop
      vertex -50 -29.5 0
      vertex -50 -20.5 2
      vertex -50 -20.5 0
    endloop
  endfacet
  facet normal -1 -0 0
    outer loop
      vertex -50 -20.5 2
      vertex -50 -29.5 0
      vertex -50 -29.5 2
    endloop
  endfacet
  facet normal -1 0 0
    outer loop
      vertex -50 -39.5 0
      vertex -50 -30.5 2
      vertex -50 -30.5 0
    endloop
  endfacet
  facet normal -1 -0 0
    outer loop
      vertex -50 -30.5 2
      vertex -50 -39.5 0
      vertex -50 -39.5 2
    endloop
  endfacet
  facet normal -1 0 0
    outer loop
      vertex -50 -49 0
      vertex -50 -40.5 2
      vertex -50 -40.5 0
    endloop
  endfacet
  facet normal -1 -0 0
    outer loop
      vertex -50 -40.5 2
      vertex -50 -49 0
      vertex -50 -49 2
    endloop
  endfacet
  facet normal 0 0 1
    outer loop
      vertex -40.5 50 2
      vertex -43.4705 48.4705 2
      vertex -40.5 48 2
    endloop
  endfacet
  facet normal -0 0 1
    outer loop
      vertex -49 50 2
      vertex -43.4705 48.4705 2
      vertex -40.5 50 2
    endloop
  endfacet
  facet normal -0 0 1
    outer loop
      vertex -49 49 2
      vertex -48.4705 48.4705 2
      vertex -49 50 2
    endloop
  endfacet
  facet normal 0 0 1
    outer loop
      vertex -43.4705 48.4705 2
      vertex -49 50 2
      vertex -48.4705 48.4705 2
    endloop
  endfacet
  facet normal 0 0 1
    outer loop
      vertex -30.5 50 2
      vertex -39.5 50 2
      vertex -30.5 48 2
    endloop
  endfacet
  facet normal 0 0 1
    outer loop
      vertex -20.5 50 2
      vertex -29.5 50 2
      vertex -20.5 48 2
    endloop
  endfacet
  facet normal 0 0 1
    outer loop
      vertex -10.5 50 2
      vertex -19.5 50 2
      vertex -10.5 48 2
    endloop
  endfacet
  facet normal 0 0 1
    outer loop
      vertex -0.5 50 2
      vertex -9.5 50 2
      vertex -0.5 48 2
    endloop
  endfacet
  facet normal 0 0 1
    outer loop
      vertex 9.5 50 2
      vertex 0.5 50 2
      vertex 9.5 48 2
    endloop
  endfacet
  facet normal 0 0 1
    outer loop
      vertex 19.5 50 2
      vertex 10.5 50 2
      vertex 19.5 48 2
    endloop
  endfacet
  facet normal 0 0 1
    outer loop
      vertex 29.5 50 2
      vertex 20.5 50 2
      vertex 29.5 48 2
    endloop
  endfacet
  facet normal 0 0 1
    outer loop
      vertex 39.5 50 2
      vertex 30.5 50 2
      vertex 39.5 48 2
    endloop
  endfacet
  facet normal 0 0 1
    outer loop
      vertex 49 50 2
      vertex 48.4705 48.4705 2
      vertex 49 49 2
    endloop
  endfacet
  facet normal 0 0 1
    outer loop
      vertex 49 50 2
      vertex 43.4705 48.4705 2
      vertex 48.4705 48.4705 2
    endloop
  endfacet
  facet normal -0 0 1
    outer loop
      vertex 40.5 50 2
      vertex 43.4705 48.4705 2
      vertex 49 50 2
    endloop
  endfacet
  facet normal 0 0 1
    outer loop
      vertex 40.5 48 2
      vertex 43.4705 48.4705 2
      vertex 40.5 50 2
    endloop
  endfacet
  facet normal 0 0 1
    outer loop
      vertex 43.4705 48.4705 2
      vertex 40.5 48 2
      vertex 43.4705 45 2
    endloop
  endfacet
  facet normal -0 0 1
    outer loop
      vertex 39.5 48 2
      vertex 43.4705 45 2
      vertex 40.5 48 2
    endloop
  endfacet
  facet normal 0 0 1
    outer loop
      vertex 30.5 48 2
      vertex 39.5 48 2
      vertex 30.5 50 2
    endloop
  endfacet
  facet normal 0 0 1
    outer loop
      vertex 39.5 48 2
      vertex 30.5 48 2
      vertex 43.4705 45 2
    endloop
  endfacet
  facet normal -0 0 1
    outer loop
      vertex 29.5 48 2
      vertex 43.4705 45 2
      vertex 30.5 48 2
    endloop
  endfacet
  facet normal 0 0 1
    outer loop
      vertex 20.5 48 2
      vertex 29.5 48 2
      vertex 20.5 50 2
    endloop
  endfacet
  facet normal -0 0 1
    outer loop
      vertex 20.5 48 2
      vertex 43.4705 45 2
      vertex 29.5 48 2
    endloop
  endfacet
  facet normal -0 0 1
    outer loop
      vertex 19.5 48 2
      vertex 43.4705 45 2
      vertex 20.5 48 2
    endloop
  endfacet
  facet normal 0 0 1
    outer loop
      vertex 10.5 48 2
      vertex 19.5 48 2
      vertex 10.5 50 2
    endloop
  endfacet
  facet normal -0 0 1
    outer loop
      vertex 10.5 48 2
      vertex 43.4705 45 2
      vertex 19.5 48 2
    endloop
  endfacet
  facet normal -0 0 1
    outer loop
      vertex 9.5 48 2
      vertex 43.4705 45 2
      vertex 10.5 48 2
    endloop
  endfacet
  facet normal 0 0 1
    outer loop
      vertex 0.5 48 2
      vertex 9.5 48 2
      vertex 0.5 50 2
    endloop
  endfacet
  facet normal -0 0 1
    outer loop
      vertex 0.5 48 2
      vertex 43.4705 45 2
      vertex 9.5 48 2
    endloop
  endfacet
  facet normal -0 0 1
    outer loop
      vertex -0.5 48 2
      vertex 43.4705 45 2
      vertex 0.5 48 2
    endloop
  endfacet
  facet normal 0 0 1
    outer loop
      vertex -9.5 48 2
      vertex -0.5 48 2
      vertex -9.5 50 2
    endloop
  endfacet
  facet normal 0 0 1
    outer loop
      vertex -43.4705 45 2
      vertex -0.5 48 2
      vertex -9.5 48 2
    endloop
  endfacet
  facet normal 0 0 1
    outer loop
      vertex -43.4705 45 2
      vertex -9.5 48 2
      vertex -10.5 48 2
    endloop
  endfacet
  facet normal 0 0 1
    outer loop
      vertex -19.5 48 2
      vertex -10.5 48 2
      vertex -19.5 50 2
    endloop
  endfacet
  facet normal 0 0 1
    outer loop
      vertex -43.4705 45 2
      vertex -10.5 48 2
      vertex -19.5 48 2
    endloop
  endfacet
  facet normal 0 0 1
    outer loop
      vertex -43.4705 45 2
      vertex -19.5 48 2
      vertex -20.5 48 2
    endloop
  endfacet
  facet normal 0 0 1
    outer loop
      vertex -29.5 48 2
      vertex -20.5 48 2
      vertex -29.5 50 2
    endloop
  endfacet
  facet normal 0 0 1
    outer loop
      vertex -43.4705 45 2
      vertex -20.5 48 2
      vertex -29.5 48 2
    endloop
  endfacet
  facet normal 0 0 1
    outer loop
      vertex -43.4705 45 2
      vertex -29.5 48 2
      vertex -30.5 48 2
    endloop
  endfacet
  facet normal 0 0 1
    outer loop
      vertex -39.5 48 2
      vertex -30.5 48 2
      vertex -39.5 50 2
    endloop
  endfacet
  facet normal 0 0 1
    outer loop
      vertex -43.4705 45 2
      vertex -30.5 48 2
      vertex -39.5 48 2
    endloop
  endfacet
  facet normal 0 0 1
    outer loop
      vertex -43.4705 45 2
      vertex -39.5 48 2
      vertex -40.5 48 2
    endloop
  endfacet
  facet normal 0 0 1
    outer loop
      vertex -0.5 48 2
      vertex -43.4705 45 2
      vertex 43.4705 45 2
    endloop
  endfacet
  facet normal 0 0 1
    outer loop
      vertex -43.4705 45 2
      vertex -40.5 48 2
      vertex -43.4705 48.4705 2
    endloop
  endfacet
  facet normal 0 0 1
    outer loop
      vertex 48.4705 48.4705 2
      vertex 50 49 2
      vertex 49 49 2
    endloop
  endfacet
  facet normal 0 0 1
    outer loop
      vertex 50 49 2
      vertex 48.4705 48.4705 2
      vertex 48.4705 43.4705 2
    endloop
  endfacet
  facet normal 0 0 1
    outer loop
      vertex 50 49 2
      vertex 48.4705 43.4705 2
      vertex 50 40.5 2
    endloop
  endfacet
  facet normal 0 0 1
    outer loop
      vertex 48.4705 43.4705 2
      vertex 48 40.5 2
      vertex 50 40.5 2
    endloop
  endfacet
  facet normal 0 0 1
    outer loop
      vertex 45 43.4705 2
      vertex 48 39.5 2
      vertex 48 40.5 2
    endloop
  endfacet
  facet normal 0 0 1
    outer loop
      vertex 48 39.5 2
      vertex 45 43.4705 2
      vertex 48 30.5 2
    endloop
  endfacet
  facet normal 0 0 1
    outer loop
      vertex 48 30.5 2
      vertex 45 43.4705 2
      vertex 48 29.5 2
    endloop
  endfacet
  facet normal 0 0 1
    outer loop
      vertex 48 29.5 2
      vertex 45 43.4705 2
      vertex 48 20.5 2
    endloop
  endfacet
  facet normal 0 0 1
    outer loop
      vertex 48 20.5 2
      vertex 45 43.4705 2
      vertex 48 19.5 2
    endloop
  endfacet
  facet normal 0 0 1
    outer loop
      vertex 48 19.5 2
      vertex 45 43.4705 2
      vertex 48 10.5 2
    endloop
  endfacet
  facet normal 0 0 1
    outer loop
      vertex 48 10.5 2
      vertex 45 43.4705 2
      vertex 48 9.5 2
    endloop
  endfacet
  facet normal 0 0 1
    outer loop
      vertex 48 9.5 2
      vertex 45 43.4705 2
      vertex 48 0.5 2
    endloop
  endfacet
  facet normal 0 0 1
    outer loop
      vertex 48 0.5 2
      vertex 45 43.4705 2
      vertex 48 -0.5 2
    endloop
  endfacet
  facet normal 0 0 1
    outer loop
      vertex 45 -43.4705 2
      vertex 48 -0.5 2
      vertex 45 43.4705 2
    endloop
  endfacet
  facet normal 0 0 1
    outer loop
      vertex 48 -0.5 2
      vertex 45 -43.4705 2
      vertex 48 -9.5 2
    endloop
  endfacet
  facet normal 0 0 1
    outer loop
      vertex 48 -9.5 2
      vertex 45 -43.4705 2
      vertex 48 -10.5 2
    endloop
  endfacet
  facet normal 0 0 1
    outer loop
      vertex 48 -10.5 2
      vertex 45 -43.4705 2
      vertex 48 -19.5 2
    endloop
  endfacet
  facet normal 0 0 1
    outer loop
      vertex 48 -19.5 2
      vertex 45 -43.4705 2
      vertex 48 -20.5 2
    endloop
  endfacet
  facet normal 0 0 1
    outer loop
      vertex 48 -20.5 2
      vertex 45 -43.4705 2
      vertex 48 -29.5 2
    endloop
  endfacet
  facet normal 0 0 1
    outer loop
      vertex 48 -29.5 2
      vertex 45 -43.4705 2
      vertex 48 -30.5 2
    endloop
  endfacet
  facet normal 0 0 1
    outer loop
      vertex 48 -30.5 2
      vertex 45 -43.4705 2
      vertex 48 -39.5 2
    endloop
  endfacet
  facet normal -0 0 1
    outer loop
      vertex 45 43.4705 2
      vertex 48 40.5 2
      vertex 48.4705 43.4705 2
    endloop
  endfacet
  facet normal -0 0 1
    outer loop
      vertex 48 39.5 2
      vertex 50 30.5 2
      vertex 50 39.5 2
    endloop
  endfacet
  facet normal 0 0 1
    outer loop
      vertex 50 30.5 2
      vertex 48 39.5 2
      vertex 48 30.5 2
    endloop
  endfacet
  facet normal -0 0 1
    outer loop
      vertex 48 29.5 2
      vertex 50 20.5 2
      vertex 50 29.5 2
    endloop
  endfacet
  facet normal 0 0 1
    outer loop
      vertex 50 20.5 2
      vertex 48 29.5 2
      vertex 48 20.5 2
    endloop
  endfacet
  facet normal -0 0 1
    outer loop
      vertex 48 19.5 2
      vertex 50 10.5 2
      vertex 50 19.5 2
    endloop
  endfacet
  facet normal 0 0 1
    outer loop
      vertex 50 10.5 2
      vertex 48 19.5 2
      vertex 48 10.5 2
    endloop
  endfacet
  facet normal -0 0 1
    outer loop
      vertex 48 9.5 2
      vertex 50 0.5 2
      vertex 50 9.5 2
    endloop
  endfacet
  facet normal 0 0 1
    outer loop
      vertex 50 0.5 2
      vertex 48 9.5 2
      vertex 48 0.5 2
    endloop
  endfacet
  facet normal -0 0 1
    outer loop
      vertex 48 -0.5 2
      vertex 50 -9.5 2
      vertex 50 -0.5 2
    endloop
  endfacet
  facet normal 0 0 1
    outer loop
      vertex 50 -9.5 2
      vertex 48 -0.5 2
      vertex 48 -9.5 2
    endloop
  endfacet
  facet normal -0 0 1
    outer loop
      vertex 48 -10.5 2
      vertex 50 -19.5 2
      vertex 50 -10.5 2
    endloop
  endfacet
  facet normal 0 0 1
    outer loop
      vertex 50 -19.5 2
      vertex 48 -10.5 2
      vertex 48 -19.5 2
    endloop
  endfacet
  facet normal -0 0 1
    outer loop
      vertex 48 -20.5 2
      vertex 50 -29.5 2
      vertex 50 -20.5 2
    endloop
  endfacet
  facet normal 0 0 1
    outer loop
      vertex 50 -29.5 2
      vertex 48 -20.5 2
      vertex 48 -29.5 2
    endloop
  endfacet
  facet normal -0 0 1
    outer loop
      vertex 48 -30.5 2
      vertex 50 -39.5 2
      vertex 50 -30.5 2
    endloop
  endfacet
  facet normal 0 0 1
    outer loop
      vertex 50 -39.5 2
      vertex 48 -30.5 2
      vertex 48 -39.5 2
    endloop
  endfacet
  facet normal -0 0 1
    outer loop
      vertex 48.4705 -43.4705 2
      vertex 50 -49 2
      vertex 50 -40.5 2
    endloop
  endfacet
  facet normal 0 0 1
    outer loop
      vertex 50 -49 2
      vertex 48.4705 -48.4705 2
      vertex 49 -49 2
    endloop
  endfacet
  facet normal -0 0 1
    outer loop
      vertex 48.4705 -48.4705 2
      vertex 50 -49 2
      vertex 48.4705 -43.4705 2
    endloop
  endfacet
  facet normal -0 0 1
    outer loop
      vertex 48 -40.5 2
      vertex 48.4705 -43.4705 2
      vertex 50 -40.5 2
    endloop
  endfacet
  facet normal 0 0 1
    outer loop
      vertex 48 -40.5 2
      vertex 45 -43.4705 2
      vertex 48.4705 -43.4705 2
    endloop
  endfacet
  facet normal 0 0 1
    outer loop
      vertex 48 -39.5 2
      vertex 45 -43.4705 2
      vertex 48 -40.5 2
    endloop
  endfacet
  facet normal 0 0 1
    outer loop
      vertex 49 -49 2
      vertex 48.4705 -48.4705 2
      vertex 49 -50 2
    endloop
  endfacet
  facet normal -0 0 1
    outer loop
      vertex 43.4705 -48.4705 2
      vertex 49 -50 2
      vertex 48.4705 -48.4705 2
    endloop
  endfacet
  facet normal 0 0 1
    outer loop
      vertex 40.5 -50 2
      vertex 43.4705 -48.4705 2
      vertex 40.5 -48 2
    endloop
  endfacet
  facet normal 0 0 1
    outer loop
      vertex 43.4705 -48.4705 2
      vertex 40.5 -50 2
      vertex 49 -50 2
    endloop
  endfacet
  facet normal 0 0 1
    outer loop
      vertex 43.4705 -45 2
      vertex 40.5 -48 2
      vertex 43.4705 -48.4705 2
    endloop
  endfacet
  facet normal 0 0 1
    outer loop
      vertex 43.4705 -45 2
      vertex 39.5 -48 2
      vertex 40.5 -48 2
    endloop
  endfacet
  facet normal 0 0 1
    outer loop
      vertex 39.5 -48 2
      vertex 30.5 -48 2
      vertex 39.5 -50 2
    endloop
  endfacet
  facet normal 0 0 1
    outer loop
      vertex 43.4705 -45 2
      vertex 30.5 -48 2
      vertex 39.5 -48 2
    endloop
  endfacet
  facet normal 0 0 1
    outer loop
      vertex 43.4705 -45 2
      vertex 29.5 -48 2
      vertex 30.5 -48 2
    endloop
  endfacet
  facet normal 0 0 1
    outer loop
      vertex 29.5 -48 2
      vertex 20.5 -48 2
      vertex 29.5 -50 2
    endloop
  endfacet
  facet normal 0 0 1
    outer loop
      vertex 43.4705 -45 2
      vertex 20.5 -48 2
      vertex 29.5 -48 2
    endloop
  endfacet
  facet normal 0 0 1
    outer loop
      vertex 43.4705 -45 2
      vertex 19.5 -48 2
      vertex 20.5 -48 2
    endloop
  endfacet
  facet normal 0 0 1
    outer loop
      vertex 19.5 -48 2
      vertex 10.5 -48 2
      vertex 19.5 -50 2
    endloop
  endfacet
  facet normal 0 0 1
    outer loop
      vertex 43.4705 -45 2
      vertex 10.5 -48 2
      vertex 19.5 -48 2
    endloop
  endfacet
  facet normal 0 0 1
    outer loop
      vertex 43.4705 -45 2
      vertex 9.5 -48 2
      vertex 10.5 -48 2
    endloop
  endfacet
  facet normal 0 0 1
    outer loop
      vertex 9.5 -48 2
      vertex 0.5 -48 2
      vertex 9.5 -50 2
    endloop
  endfacet
  facet normal 0 0 1
    outer loop
      vertex 43.4705 -45 2
      vertex 0.5 -48 2
      vertex 9.5 -48 2
    endloop
  endfacet
  facet normal 0 0 1
    outer loop
      vertex 43.4705 -45 2
      vertex -0.5 -48 2
      vertex 0.5 -48 2
    endloop
  endfacet
  facet normal 0 0 1
    outer loop
      vertex -0.5 -48 2
      vertex -9.5 -48 2
      vertex -0.5 -50 2
    endloop
  endfacet
  facet normal -0 0 1
    outer loop
      vertex -43.4705 -45 2
      vertex -0.5 -48 2
      vertex 43.4705 -45 2
    endloop
  endfacet
  facet normal 0 0 1
    outer loop
      vertex -0.5 -48 2
      vertex -43.4705 -45 2
      vertex -9.5 -48 2
    endloop
  endfacet
  facet normal 0 0 1
    outer loop
      vertex -10.5 -48 2
      vertex -19.5 -48 2
      vertex -10.5 -50 2
    endloop
  endfacet
  facet normal 0 0 1
    outer loop
      vertex -9.5 -48 2
      vertex -43.4705 -45 2
      vertex -10.5 -48 2
    endloop
  endfacet
  facet normal 0 0 1
    outer loop
      vertex -10.5 -48 2
      vertex -43.4705 -45 2
      vertex -19.5 -48 2
    endloop
  endfacet
  facet normal 0 0 1
    outer loop
      vertex -20.5 -48 2
      vertex -29.5 -48 2
      vertex -20.5 -50 2
    endloop
  endfacet
  facet normal 0 0 1
    outer loop
      vertex -19.5 -48 2
      vertex -43.4705 -45 2
      vertex -20.5 -48 2
    endloop
  endfacet
  facet normal 0 0 1
    outer loop
      vertex -20.5 -48 2
      vertex -43.4705 -45 2
      vertex -29.5 -48 2
    endloop
  endfacet
  facet normal 0 0 1
    outer loop
      vertex -30.5 -48 2
      vertex -39.5 -48 2
      vertex -30.5 -50 2
    endloop
  endfacet
  facet normal 0 0 1
    outer loop
      vertex -29.5 -48 2
      vertex -43.4705 -45 2
      vertex -30.5 -48 2
    endloop
  endfacet
  facet normal 0 0 1
    outer loop
      vertex -30.5 -48 2
      vertex -43.4705 -45 2
      vertex -39.5 -48 2
    endloop
  endfacet
  facet normal 0 0 1
    outer loop
      vertex -39.5 -48 2
      vertex -43.4705 -45 2
      vertex -40.5 -48 2
    endloop
  endfacet
  facet normal 0 0 1
    outer loop
      vertex -43.4705 -48.4705 2
      vertex -40.5 -48 2
      vertex -43.4705 -45 2
    endloop
  endfacet
  facet normal 0 0 1
    outer loop
      vertex -40.5 -48 2
      vertex -43.4705 -48.4705 2
      vertex -40.5 -50 2
    endloop
  endfacet
  facet normal 0 0 1
    outer loop
      vertex -49 -50 2
      vertex -43.4705 -48.4705 2
      vertex -48.4705 -48.4705 2
    endloop
  endfacet
  facet normal 0 0 1
    outer loop
      vertex -49 -50 2
      vertex -48.4705 -48.4705 2
      vertex -49 -49 2
    endloop
  endfacet
  facet normal 0 0 1
    outer loop
      vertex -43.4705 -48.4705 2
      vertex -49 -50 2
      vertex -40.5 -50 2
    endloop
  endfacet
  facet normal 0 0 1
    outer loop
      vertex 39.5 -50 2
      vertex 30.5 -48 2
      vertex 30.5 -50 2
    endloop
  endfacet
  facet normal 0 0 1
    outer loop
      vertex 29.5 -50 2
      vertex 20.5 -48 2
      vertex 20.5 -50 2
    endloop
  endfacet
  facet normal 0 0 1
    outer loop
      vertex 19.5 -50 2
      vertex 10.5 -48 2
      vertex 10.5 -50 2
    endloop
  endfacet
  facet normal 0 0 1
    outer loop
      vertex 9.5 -50 2
      vertex 0.5 -48 2
      vertex 0.5 -50 2
    endloop
  endfacet
  facet normal 0 0 1
    outer loop
      vertex -0.5 -50 2
      vertex -9.5 -48 2
      vertex -9.5 -50 2
    endloop
  endfacet
  facet normal 0 0 1
    outer loop
      vertex -10.5 -50 2
      vertex -19.5 -48 2
      vertex -19.5 -50 2
    endloop
  endfacet
  facet normal 0 0 1
    outer loop
      vertex -20.5 -50 2
      vertex -29.5 -48 2
      vertex -29.5 -50 2
    endloop
  endfacet
  facet normal 0 0 1
    outer loop
      vertex -30.5 -50 2
      vertex -39.5 -48 2
      vertex -39.5 -50 2
    endloop
  endfacet
  facet normal -0 0 1
    outer loop
      vertex -50 -30.5 2
      vertex -48 -39.5 2
      vertex -48 -30.5 2
    endloop
  endfacet
  facet normal 0 0 1
    outer loop
      vertex -48 -39.5 2
      vertex -50 -30.5 2
      vertex -50 -39.5 2
    endloop
  endfacet
  facet normal -0 0 1
    outer loop
      vertex -50 -20.5 2
      vertex -48 -29.5 2
      vertex -48 -20.5 2
    endloop
  endfacet
  facet normal 0 0 1
    outer loop
      vertex -48 -29.5 2
      vertex -50 -20.5 2
      vertex -50 -29.5 2
    endloop
  endfacet
  facet normal -0 0 1
    outer loop
      vertex -50 -10.5 2
      vertex -48 -19.5 2
      vertex -48 -10.5 2
    endloop
  endfacet
  facet normal 0 0 1
    outer loop
      vertex -48 -19.5 2
      vertex -50 -10.5 2
      vertex -50 -19.5 2
    endloop
  endfacet
  facet normal -0 0 1
    outer loop
      vertex -50 -0.5 2
      vertex -48 -9.5 2
      vertex -48 -0.5 2
    endloop
  endfacet
  facet normal 0 0 1
    outer loop
      vertex -48 -9.5 2
      vertex -50 -0.5 2
      vertex -50 -9.5 2
    endloop
  endfacet
  facet normal -0 0 1
    outer loop
      vertex -50 9.5 2
      vertex -48 0.5 2
      vertex -48 9.5 2
    endloop
  endfacet
  facet normal 0 0 1
    outer loop
      vertex -48 0.5 2
      vertex -50 9.5 2
      vertex -50 0.5 2
    endloop
  endfacet
  facet normal -0 0 1
    outer loop
      vertex -50 19.5 2
      vertex -48 10.5 2
      vertex -48 19.5 2
    endloop
  endfacet
  facet normal 0 0 1
    outer loop
      vertex -48 10.5 2
      vertex -50 19.5 2
      vertex -50 10.5 2
    endloop
  endfacet
  facet normal -0 0 1
    outer loop
      vertex -50 29.5 2
      vertex -48 20.5 2
      vertex -48 29.5 2
    endloop
  endfacet
  facet normal 0 0 1
    outer loop
      vertex -48 20.5 2
      vertex -50 29.5 2
      vertex -50 20.5 2
    endloop
  endfacet
  facet normal -0 0 1
    outer loop
      vertex -50 39.5 2
      vertex -48 30.5 2
      vertex -48 39.5 2
    endloop
  endfacet
  facet normal 0 0 1
    outer loop
      vertex -48 30.5 2
      vertex -50 39.5 2
      vertex -50 30.5 2
    endloop
  endfacet
  facet normal 0 0 1
    outer loop
      vertex -48 39.5 2
      vertex -45 43.4705 2
      vertex -48 40.5 2
    endloop
  endfacet
  facet normal -0 0 1
    outer loop
      vertex -48.4705 43.4705 2
      vertex -48 40.5 2
      vertex -45 43.4705 2
    endloop
  endfacet
  facet normal -0 0 1
    outer loop
      vertex -50 49 2
      vertex -48.4705 48.4705 2
      vertex -49 49 2
    endloop
  endfacet
  facet normal 0 0 1
    outer loop
      vertex -48.4705 48.4705 2
      vertex -50 49 2
      vertex -48.4705 43.4705 2
    endloop
  endfacet
  facet normal 0 0 1
    outer loop
      vertex -50 40.5 2
      vertex -48.4705 43.4705 2
      vertex -50 49 2
    endloop
  endfacet
  facet normal 0 0 1
    outer loop
      vertex -48.4705 43.4705 2
      vertex -50 40.5 2
      vertex -48 40.5 2
    endloop
  endfacet
  facet normal 0 0 1
    outer loop
      vertex -48 30.5 2
      vertex -45 43.4705 2
      vertex -48 39.5 2
    endloop
  endfacet
  facet normal 0 0 1
    outer loop
      vertex -48 29.5 2
      vertex -45 43.4705 2
      vertex -48 30.5 2
    endloop
  endfacet
  facet normal 0 0 1
    outer loop
      vertex -48 20.5 2
      vertex -45 43.4705 2
      vertex -48 29.5 2
    endloop
  endfacet
  facet normal 0 0 1
    outer loop
      vertex -48 19.5 2
      vertex -45 43.4705 2
      vertex -48 20.5 2
    endloop
  endfacet
  facet normal 0 0 1
    outer loop
      vertex -48 10.5 2
      vertex -45 43.4705 2
      vertex -48 19.5 2
    endloop
  endfacet
  facet normal 0 0 1
    outer loop
      vertex -48 9.5 2
      vertex -45 43.4705 2
      vertex -48 10.5 2
    endloop
  endfacet
  facet normal 0 0 1
    outer loop
      vertex -48 0.5 2
      vertex -45 43.4705 2
      vertex -48 9.5 2
    endloop
  endfacet
  facet normal 0 0 1
    outer loop
      vertex -45 43.4705 2
      vertex -48 0.5 2
      vertex -45 -43.4705 2
    endloop
  endfacet
  facet normal -0 0 1
    outer loop
      vertex -48 -0.5 2
      vertex -45 -43.4705 2
      vertex -48 0.5 2
    endloop
  endfacet
  facet normal -0 0 1
    outer loop
      vertex -48 -9.5 2
      vertex -45 -43.4705 2
      vertex -48 -0.5 2
    endloop
  endfacet
  facet normal -0 0 1
    outer loop
      vertex -48 -10.5 2
      vertex -45 -43.4705 2
      vertex -48 -9.5 2
    endloop
  endfacet
  facet normal -0 0 1
    outer loop
      vertex -48 -19.5 2
      vertex -45 -43.4705 2
      vertex -48 -10.5 2
    endloop
  endfacet
  facet normal -0 0 1
    outer loop
      vertex -48 -20.5 2
      vertex -45 -43.4705 2
      vertex -48 -19.5 2
    endloop
  endfacet
  facet normal -0 0 1
    outer loop
      vertex -48 -29.5 2
      vertex -45 -43.4705 2
      vertex -48 -20.5 2
    endloop
  endfacet
  facet normal -0 0 1
    outer loop
      vertex -48 -30.5 2
      vertex -45 -43.4705 2
      vertex -48 -29.5 2
    endloop
  endfacet
  facet normal -0 0 1
    outer loop
      vertex -48 -39.5 2
      vertex -45 -43.4705 2
      vertex -48 -30.5 2
    endloop
  endfacet
  facet normal -0 0 1
    outer loop
      vertex -48 -40.5 2
      vertex -45 -43.4705 2
      vertex -48 -39.5 2
    endloop
  endfacet
  facet normal 0 0 1
    outer loop
      vertex -48 -40.5 2
      vertex -48.4705 -43.4705 2
      vertex -45 -43.4705 2
    endloop
  endfacet
  facet normal 0 0 1
    outer loop
      vertex -50 -49 2
      vertex -48.4705 -48.4705 2
      vertex -48.4705 -43.4705 2
    endloop
  endfacet
  facet normal -0 0 1
    outer loop
      vertex -50 -40.5 2
      vertex -48.4705 -43.4705 2
      vertex -48 -40.5 2
    endloop
  endfacet
  facet normal 0 0 1
    outer loop
      vertex -50 -49 2
      vertex -48.4705 -43.4705 2
      vertex -50 -40.5 2
    endloop
  endfacet
  facet normal 0 0 1
    outer loop
      vertex -48.4705 -48.4705 2
      vertex -50 -49 2
      vertex -49 -49 2
    endloop
  endfacet
  facet normal 1 -0 0
    outer loop
      vertex 50 -49 2
      vertex 50 -40.5 0
      vertex 50 -40.5 2
    endloop
  endfacet
  facet normal 1 0 0
    outer loop
      vertex 50 -40.5 0
      vertex 50 -49 2
      vertex 50 -49 0
    endloop
  endfacet
  facet normal 1 -0 0
    outer loop
      vertex 50 -39.5 2
      vertex 50 -30.5 0
      vertex 50 -30.5 2
    endloop
  endfacet
  facet normal 1 0 0
    outer loop
      vertex 50 -30.5 0
      vertex 50 -39.5 2
      vertex 50 -39.5 0
    endloop
  endfacet
  facet normal 1 -0 0
    outer loop
      vertex 50 -29.5 2
      vertex 50 -20.5 0
      vertex 50 -20.5 2
    endloop
  endfacet
  facet normal 1 0 0
    outer loop
      vertex 50 -20.5 0
      vertex 50 -29.5 2
      vertex 50 -29.5 0
    endloop
  endfacet
  facet normal 1 -0 0
    outer loop
      vertex 50 -19.5 2
      vertex 50 -10.5 0
      vertex 50 -10.5 2
    endloop
  endfacet
  facet normal 1 0 0
    outer loop
      vertex 50 -10.5 0
      vertex 50 -19.5 2
      vertex 50 -19.5 0
    endloop
  endfacet
  facet normal 1 -0 0
    outer loop
      vertex 50 -9.5 2
      vertex 50 -0.5 0
      vertex 50 -0.5 2
    endloop
  endfacet
  facet normal 1 0 0
    outer loop
      vertex 50 -0.5 0
      vertex 50 -9.5 2
      vertex 50 -9.5 0
    endloop
  endfacet
  facet normal 1 -0 0
    outer loop
      vertex 50 0.5 2
      vertex 50 9.5 0
      vertex 50 9.5 2
    endloop
  endfacet
  facet normal 1 0 0
    outer loop
      vertex 50 9.5 0
      vertex 50 0.5 2
      vertex 50 0.5 0
    endloop
  endfacet
  facet normal 1 -0 0
    outer loop
      vertex 50 10.5 2
      vertex 50 19.5 0
      vertex 50 19.5 2
    endloop
  endfacet
  facet normal 1 0 0
    outer loop
      vertex 50 19.5 0
      vertex 50 10.5 2
      vertex 50 10.5 0
    endloop
  endfacet
  facet normal 1 -0 0
    outer loop
      vertex 50 20.5 2
      vertex 50 29.5 0
      vertex 50 29.5 2
    endloop
  endfacet
  facet normal 1 0 0
    outer loop
      vertex 50 29.5 0
      vertex 50 20.5 2
      vertex 50 20.5 0
    endloop
  endfacet
  facet normal 1 -0 0
    outer loop
      vertex 50 30.5 2
      vertex 50 39.5 0
      vertex 50 39.5 2
    endloop
  endfacet
  facet normal 1 0 0
    outer loop
      vertex 50 39.5 0
      vertex 50 30.5 2
      vertex 50 30.5 0
    endloop
  endfacet
  facet normal 1 -0 0
    outer loop
      vertex 50 40.5 2
      vertex 50 49 0
      vertex 50 49 2
    endloop
  endfacet
  facet normal 1 0 0
    outer loop
      vertex 50 49 0
      vertex 50 40.5 2
      vertex 50 40.5 0
    endloop
  endfacet
  facet normal 0 1 -0
    outer loop
      vertex -40.5 50 0
      vertex -49 50 2
      vertex -40.5 50 2
    endloop
  endfacet
  facet normal 0 1 0
    outer loop
      vertex -49 50 2
      vertex -40.5 50 0
      vertex -49 50 0
    endloop
  endfacet
  facet normal 0 1 -0
    outer loop
      vertex -30.5 50 0
      vertex -39.5 50 2
      vertex -30.5 50 2
    endloop
  endfacet
  facet normal 0 1 0
    outer loop
      vertex -39.5 50 2
      vertex -30.5 50 0
      vertex -39.5 50 0
    endloop
  endfacet
  facet normal 0 1 -0
    outer loop
      vertex -20.5 50 0
      vertex -29.5 50 2
      vertex -20.5 50 2
    endloop
  endfacet
  facet normal 0 1 0
    outer loop
      vertex -29.5 50 2
      vertex -20.5 50 0
      vertex -29.5 50 0
    endloop
  endfacet
  facet normal 0 1 -0
    outer loop
      vertex -10.5 50 0
      vertex -19.5 50 2
      vertex -10.5 50 2
    endloop
  endfacet
  facet normal 0 1 0
    outer loop
      vertex -19.5 50 2
      vertex -10.5 50 0
      vertex -19.5 50 0
    endloop
  endfacet
  facet normal 0 1 -0
    outer loop
      vertex -0.5 50 0
      vertex -9.5 50 2
      vertex -0.5 50 2
    endloop
  endfacet
  facet normal 0 1 0
    outer loop
      vertex -9.5 50 2
      vertex -0.5 50 0
      vertex -9.5 50 0
    endloop
  endfacet
  facet normal 0 1 -0
    outer loop
      vertex 9.5 50 0
      vertex 0.5 50 2
      vertex 9.5 50 2
    endloop
  endfacet
  facet normal 0 1 0
    outer loop
      vertex 0.5 50 2
      vertex 9.5 50 0
      vertex 0.5 50 0
    endloop
  endfacet
  facet normal 0 1 -0
    outer loop
      vertex 19.5 50 0
      vertex 10.5 50 2
      vertex 19.5 50 2
    endloop
  endfacet
  facet normal 0 1 0
    outer loop
      vertex 10.5 50 2
      vertex 19.5 50 0
      vertex 10.5 50 0
    endloop
  endfacet
  facet normal 0 1 -0
    outer loop
      vertex 29.5 50 0
      vertex 20.5 50 2
      vertex 29.5 50 2
    endloop
  endfacet
  facet normal 0 1 0
    outer loop
      vertex 20.5 50 2
      vertex 29.5 50 0
      vertex 20.5 50 0
    endloop
  endfacet
  facet normal 0 1 -0
    outer loop
      vertex 39.5 50 0
      vertex 30.5 50 2
      vertex 39.5 50 2
    endloop
  endfacet
  facet normal 0 1 0
    outer loop
      vertex 30.5 50 2
      vertex 39.5 50 0
      vertex 30.5 50 0
    endloop
  endfacet
  facet normal 0 1 -0
    outer loop
      vertex 49 50 0
      vertex 40.5 50 2
      vertex 49 50 2
    endloop
  endfacet
  facet normal 0 1 0
    outer loop
      vertex 40.5 50 2
      vertex 49 50 0
      vertex 40.5 50 0
    endloop
  endfacet
  facet normal 0 0 -1
    outer loop
      vertex -30.5 -50 0
      vertex -39.5 -50 0
      vertex -30.5 -48 0
    endloop
  endfacet
  facet normal 0 0 -1
    outer loop
      vertex -20.5 -50 0
      vertex -29.5 -50 0
      vertex -20.5 -48 0
    endloop
  endfacet
  facet normal 0 0 -1
    outer loop
      vertex -10.5 -50 0
      vertex -19.5 -50 0
      vertex -10.5 -48 0
    endloop
  endfacet
  facet normal 0 0 -1
    outer loop
      vertex -0.5 -50 0
      vertex -9.5 -50 0
      vertex -0.5 -48 0
    endloop
  endfacet
  facet normal 0 0 -1
    outer loop
      vertex 9.5 -50 0
      vertex 0.5 -50 0
      vertex 9.5 -48 0
    endloop
  endfacet
  facet normal 0 0 -1
    outer loop
      vertex 19.5 -50 0
      vertex 10.5 -50 0
      vertex 19.5 -48 0
    endloop
  endfacet
  facet normal 0 0 -1
    outer loop
      vertex 29.5 -50 0
      vertex 20.5 -50 0
      vertex 29.5 -48 0
    endloop
  endfacet
  facet normal 0 0 -1
    outer loop
      vertex 39.5 -50 0
      vertex 30.5 -50 0
      vertex 39.5 -48 0
    endloop
  endfacet
  facet normal 0 0 -1
    outer loop
      vertex 45 45 0
      vertex 39.5 48 0
      vertex 40.5 48 0
    endloop
  endfacet
  facet normal 0 0 -1
    outer loop
      vertex 39.5 48 0
      vertex 30.5 48 0
      vertex 39.5 50 0
    endloop
  endfacet
  facet normal 0 0 -1
    outer loop
      vertex 45 45 0
      vertex 30.5 48 0
      vertex 39.5 48 0
    endloop
  endfacet
  facet normal 0 0 -1
    outer loop
      vertex 45 45 0
      vertex 29.5 48 0
      vertex 30.5 48 0
    endloop
  endfacet
  facet normal 0 0 -1
    outer loop
      vertex 29.5 48 0
      vertex 20.5 48 0
      vertex 29.5 50 0
    endloop
  endfacet
  facet normal 0 0 -1
    outer loop
      vertex 45 45 0
      vertex 20.5 48 0
      vertex 29.5 48 0
    endloop
  endfacet
  facet normal 0 0 -1
    outer loop
      vertex 45 45 0
      vertex 19.5 48 0
      vertex 20.5 48 0
    endloop
  endfacet
  facet normal 0 0 -1
    outer loop
      vertex 19.5 48 0
      vertex 10.5 48 0
      vertex 19.5 50 0
    endloop
  endfacet
  facet normal 0 0 -1
    outer loop
      vertex 45 45 0
      vertex 10.5 48 0
      vertex 19.5 48 0
    endloop
  endfacet
  facet normal 0 0 -1
    outer loop
      vertex 45 45 0
      vertex 9.5 48 0
      vertex 10.5 48 0
    endloop
  endfacet
  facet normal 0 0 -1
    outer loop
      vertex 9.5 48 0
      vertex 0.5 48 0
      vertex 9.5 50 0
    endloop
  endfacet
  facet normal 0 0 -1
    outer loop
      vertex 45 45 0
      vertex 0.5 48 0
      vertex 9.5 48 0
    endloop
  endfacet
  facet normal 0 0 -1
    outer loop
      vertex 45 45 0
      vertex -0.5 48 0
      vertex 0.5 48 0
    endloop
  endfacet
  facet normal 0 0 -1
    outer loop
      vertex -0.5 48 0
      vertex -9.5 48 0
      vertex -0.5 50 0
    endloop
  endfacet
  facet normal 0 0 -1
    outer loop
      vertex -45 45 0
      vertex -0.5 48 0
      vertex 45 45 0
    endloop
  endfacet
  facet normal -0 0 -1
    outer loop
      vertex -0.5 48 0
      vertex -45 45 0
      vertex -9.5 48 0
    endloop
  endfacet
  facet normal 0 0 -1
    outer loop
      vertex -10.5 48 0
      vertex -19.5 48 0
      vertex -10.5 50 0
    endloop
  endfacet
  facet normal -0 0 -1
    outer loop
      vertex -9.5 48 0
      vertex -45 45 0
      vertex -10.5 48 0
    endloop
  endfacet
  facet normal -0 0 -1
    outer loop
      vertex -10.5 48 0
      vertex -45 45 0
      vertex -19.5 48 0
    endloop
  endfacet
  facet normal 0 0 -1
    outer loop
      vertex -20.5 48 0
      vertex -29.5 48 0
      vertex -20.5 50 0
    endloop
  endfacet
  facet normal -0 0 -1
    outer loop
      vertex -19.5 48 0
      vertex -45 45 0
      vertex -20.5 48 0
    endloop
  endfacet
  facet normal -0 0 -1
    outer loop
      vertex -20.5 48 0
      vertex -45 45 0
      vertex -29.5 48 0
    endloop
  endfacet
  facet normal 0 0 -1
    outer loop
      vertex -30.5 48 0
      vertex -39.5 48 0
      vertex -30.5 50 0
    endloop
  endfacet
  facet normal -0 0 -1
    outer loop
      vertex -29.5 48 0
      vertex -45 45 0
      vertex -30.5 48 0
    endloop
  endfacet
  facet normal -0 0 -1
    outer loop
      vertex -30.5 48 0
      vertex -45 45 0
      vertex -39.5 48 0
    endloop
  endfacet
  facet normal -0 0 -1
    outer loop
      vertex -39.5 48 0
      vertex -45 45 0
      vertex -40.5 48 0
    endloop
  endfacet
  facet normal 0 0 -1
    outer loop
      vertex -45 45 0
      vertex -40.5 50 0
      vertex -40.5 48 0
    endloop
  endfacet
  facet normal 0 0 -1
    outer loop
      vertex -48 -30.5 0
      vertex -45 -45 0
      vertex -48 -39.5 0
    endloop
  endfacet
  facet normal 0 0 -1
    outer loop
      vertex -48 -29.5 0
      vertex -45 -45 0
      vertex -48 -30.5 0
    endloop
  endfacet
  facet normal 0 0 -1
    outer loop
      vertex -48 -20.5 0
      vertex -45 -45 0
      vertex -48 -29.5 0
    endloop
  endfacet
  facet normal 0 0 -1
    outer loop
      vertex -48 -19.5 0
      vertex -45 -45 0
      vertex -48 -20.5 0
    endloop
  endfacet
  facet normal 0 0 -1
    outer loop
      vertex -48 -10.5 0
      vertex -45 -45 0
      vertex -48 -19.5 0
    endloop
  endfacet
  facet normal 0 0 -1
    outer loop
      vertex -48 -9.5 0
      vertex -45 -45 0
      vertex -48 -10.5 0
    endloop
  endfacet
  facet normal 0 0 -1
    outer loop
      vertex -48 -0.5 0
      vertex -45 -45 0
      vertex -48 -9.5 0
    endloop
  endfacet
  facet normal 0 0 -1
    outer loop
      vertex -45 -45 0
      vertex -48 -0.5 0
      vertex -45 45 0
    endloop
  endfacet
  facet normal 0 0 -1
    outer loop
      vertex -48 0.5 0
      vertex -45 45 0
      vertex -48 -0.5 0
    endloop
  endfacet
  facet normal 0 0 -1
    outer loop
      vertex -48 9.5 0
      vertex -45 45 0
      vertex -48 0.5 0
    endloop
  endfacet
  facet normal 0 0 -1
    outer loop
      vertex -48 10.5 0
      vertex -45 45 0
      vertex -48 9.5 0
    endloop
  endfacet
  facet normal 0 0 -1
    outer loop
      vertex -48 19.5 0
      vertex -45 45 0
      vertex -48 10.5 0
    endloop
  endfacet
  facet normal 0 0 -1
    outer loop
      vertex -48 20.5 0
      vertex -45 45 0
      vertex -48 19.5 0
    endloop
  endfacet
  facet normal 0 0 -1
    outer loop
      vertex -48 29.5 0
      vertex -45 45 0
      vertex -48 20.5 0
    endloop
  endfacet
  facet normal 0 0 -1
    outer loop
      vertex -48 30.5 0
      vertex -45 45 0
      vertex -48 29.5 0
    endloop
  endfacet
  facet normal 0 0 -1
    outer loop
      vertex -48 39.5 0
      vertex -45 45 0
      vertex -48 30.5 0
    endloop
  endfacet
  facet normal 0 0 -1
    outer loop
      vertex -48 40.5 0
      vertex -45 45 0
      vertex -48 39.5 0
    endloop
  endfacet
  facet normal 0 0 -1
    outer loop
      vertex -45 45 0
      vertex -49 50 0
      vertex -40.5 50 0
    endloop
  endfacet
  facet normal 0 0 -1
    outer loop
      vertex -50 40.5 0
      vertex -45 45 0
      vertex -48 40.5 0
    endloop
  endfacet
  facet normal -0 0 -1
    outer loop
      vertex -45 45 0
      vertex -50 40.5 0
      vertex -50 49 0
    endloop
  endfacet
  facet normal 0 0 -1
    outer loop
      vertex -45 45 0
      vertex -50 49 0
      vertex -49 50 0
    endloop
  endfacet
  facet normal -0 0 -1
    outer loop
      vertex -49 50 0
      vertex -50 49 0
      vertex -50 50 0
    endloop
  endfacet
  facet normal 0 0 -1
    outer loop
      vertex 49 -50 0
      vertex 50 -49 0
      vertex 50 -50 0
    endloop
  endfacet
  facet normal -0 0 -1
    outer loop
      vertex 50 -49 0
      vertex 49 -50 0
      vertex 45 -45 0
    endloop
  endfacet
  facet normal 0 0 -1
    outer loop
      vertex 50 -49 0
      vertex 45 -45 0
      vertex 50 -40.5 0
    endloop
  endfacet
  facet normal 0 0 -1
    outer loop
      vertex 45 -45 0
      vertex 48 -39.5 0
      vertex 48 -40.5 0
    endloop
  endfacet
  facet normal -0 0 -1
    outer loop
      vertex 48 -39.5 0
      vertex 45 -45 0
      vertex 48 -30.5 0
    endloop
  endfacet
  facet normal -0 0 -1
    outer loop
      vertex 48 -30.5 0
      vertex 45 -45 0
      vertex 48 -29.5 0
    endloop
  endfacet
  facet normal -0 0 -1
    outer loop
      vertex 48 -29.5 0
      vertex 45 -45 0
      vertex 48 -20.5 0
    endloop
  endfacet
  facet normal -0 0 -1
    outer loop
      vertex 48 -20.5 0
      vertex 45 -45 0
      vertex 48 -19.5 0
    endloop
  endfacet
  facet normal -0 0 -1
    outer loop
      vertex 48 -19.5 0
      vertex 45 -45 0
      vertex 48 -10.5 0
    endloop
  endfacet
  facet normal -0 0 -1
    outer loop
      vertex 48 -10.5 0
      vertex 45 -45 0
      vertex 48 -9.5 0
    endloop
  endfacet
  facet normal -0 0 -1
    outer loop
      vertex 48 -9.5 0
      vertex 45 -45 0
      vertex 48 -0.5 0
    endloop
  endfacet
  facet normal -0 0 -1
    outer loop
      vertex 48 -0.5 0
      vertex 45 -45 0
      vertex 48 0.5 0
    endloop
  endfacet
  facet normal 0 0 -1
    outer loop
      vertex 45 45 0
      vertex 48 0.5 0
      vertex 45 -45 0
    endloop
  endfacet
  facet normal 0 0 -1
    outer loop
      vertex 48 0.5 0
      vertex 45 45 0
      vertex 48 9.5 0
    endloop
  endfacet
  facet normal 0 0 -1
    outer loop
      vertex 48 9.5 0
      vertex 45 45 0
      vertex 48 10.5 0
    endloop
  endfacet
  facet normal 0 0 -1
    outer loop
      vertex 48 10.5 0
      vertex 45 45 0
      vertex 48 19.5 0
    endloop
  endfacet
  facet normal 0 0 -1
    outer loop
      vertex 48 19.5 0
      vertex 45 45 0
      vertex 48 20.5 0
    endloop
  endfacet
  facet normal 0 0 -1
    outer loop
      vertex 48 20.5 0
      vertex 45 45 0
      vertex 48 29.5 0
    endloop
  endfacet
  facet normal 0 0 -1
    outer loop
      vertex 48 29.5 0
      vertex 45 45 0
      vertex 48 30.5 0
    endloop
  endfacet
  facet normal 0 0 -1
    outer loop
      vertex 48 30.5 0
      vertex 45 45 0
      vertex 48 39.5 0
    endloop
  endfacet
  facet normal -0 0 -1
    outer loop
      vertex 50 -40.5 0
      vertex 45 -45 0
      vertex 48 -40.5 0
    endloop
  endfacet
  facet normal 0 0 -1
    outer loop
      vertex 40.5 -50 0
      vertex 45 -45 0
      vertex 49 -50 0
    endloop
  endfacet
  facet normal 0 0 -1
    outer loop
      vertex 40.5 -48 0
      vertex 45 -45 0
      vertex 40.5 -50 0
    endloop
  endfacet
  facet normal 0 0 -1
    outer loop
      vertex 39.5 -48 0
      vertex 45 -45 0
      vertex 40.5 -48 0
    endloop
  endfacet
  facet normal 0 0 -1
    outer loop
      vertex 30.5 -48 0
      vertex 39.5 -48 0
      vertex 30.5 -50 0
    endloop
  endfacet
  facet normal 0 0 -1
    outer loop
      vertex 39.5 -48 0
      vertex 30.5 -48 0
      vertex 45 -45 0
    endloop
  endfacet
  facet normal 0 0 -1
    outer loop
      vertex 29.5 -48 0
      vertex 45 -45 0
      vertex 30.5 -48 0
    endloop
  endfacet
  facet normal 0 0 -1
    outer loop
      vertex 20.5 -48 0
      vertex 29.5 -48 0
      vertex 20.5 -50 0
    endloop
  endfacet
  facet normal 0 0 -1
    outer loop
      vertex 20.5 -48 0
      vertex 45 -45 0
      vertex 29.5 -48 0
    endloop
  endfacet
  facet normal 0 0 -1
    outer loop
      vertex 19.5 -48 0
      vertex 45 -45 0
      vertex 20.5 -48 0
    endloop
  endfacet
  facet normal 0 0 -1
    outer loop
      vertex 10.5 -48 0
      vertex 19.5 -48 0
      vertex 10.5 -50 0
    endloop
  endfacet
  facet normal 0 0 -1
    outer loop
      vertex 10.5 -48 0
      vertex 45 -45 0
      vertex 19.5 -48 0
    endloop
  endfacet
  facet normal 0 0 -1
    outer loop
      vertex 9.5 -48 0
      vertex 45 -45 0
      vertex 10.5 -48 0
    endloop
  endfacet
  facet normal 0 0 -1
    outer loop
      vertex 0.5 -48 0
      vertex 9.5 -48 0
      vertex 0.5 -50 0
    endloop
  endfacet
  facet normal 0 0 -1
    outer loop
      vertex 0.5 -48 0
      vertex 45 -45 0
      vertex 9.5 -48 0
    endloop
  endfacet
  facet normal 0 0 -1
    outer loop
      vertex -0.5 -48 0
      vertex 45 -45 0
      vertex 0.5 -48 0
    endloop
  endfacet
  facet normal 0 0 -1
    outer loop
      vertex -9.5 -48 0
      vertex -0.5 -48 0
      vertex -9.5 -50 0
    endloop
  endfacet
  facet normal 0 0 -1
    outer loop
      vertex -45 -45 0
      vertex -0.5 -48 0
      vertex -9.5 -48 0
    endloop
  endfacet
  facet normal 0 0 -1
    outer loop
      vertex -45 -45 0
      vertex -9.5 -48 0
      vertex -10.5 -48 0
    endloop
  endfacet
  facet normal 0 0 -1
    outer loop
      vertex -19.5 -48 0
      vertex -10.5 -48 0
      vertex -19.5 -50 0
    endloop
  endfacet
  facet normal 0 0 -1
    outer loop
      vertex -45 -45 0
      vertex -10.5 -48 0
      vertex -19.5 -48 0
    endloop
  endfacet
  facet normal 0 0 -1
    outer loop
      vertex -45 -45 0
      vertex -19.5 -48 0
      vertex -20.5 -48 0
    endloop
  endfacet
  facet normal 0 0 -1
    outer loop
      vertex -29.5 -48 0
      vertex -20.5 -48 0
      vertex -29.5 -50 0
    endloop
  endfacet
  facet normal 0 0 -1
    outer loop
      vertex -45 -45 0
      vertex -20.5 -48 0
      vertex -29.5 -48 0
    endloop
  endfacet
  facet normal 0 0 -1
    outer loop
      vertex -45 -45 0
      vertex -29.5 -48 0
      vertex -30.5 -48 0
    endloop
  endfacet
  facet normal 0 0 -1
    outer loop
      vertex -39.5 -48 0
      vertex -30.5 -48 0
      vertex -39.5 -50 0
    endloop
  endfacet
  facet normal 0 0 -1
    outer loop
      vertex -45 -45 0
      vertex -30.5 -48 0
      vertex -39.5 -48 0
    endloop
  endfacet
  facet normal 0 0 -1
    outer loop
      vertex -45 -45 0
      vertex -39.5 -48 0
      vertex -40.5 -48 0
    endloop
  endfacet
  facet normal 0 0 -1
    outer loop
      vertex -0.5 -48 0
      vertex -45 -45 0
      vertex 45 -45 0
    endloop
  endfacet
  facet normal 0 0 -1
    outer loop
      vertex 48 -39.5 0
      vertex 50 -30.5 0
      vertex 50 -39.5 0
    endloop
  endfacet
  facet normal -0 0 -1
    outer loop
      vertex 50 -30.5 0
      vertex 48 -39.5 0
      vertex 48 -30.5 0
    endloop
  endfacet
  facet normal 0 0 -1
    outer loop
      vertex 48 -29.5 0
      vertex 50 -20.5 0
      vertex 50 -29.5 0
    endloop
  endfacet
  facet normal -0 0 -1
    outer loop
      vertex 50 -20.5 0
      vertex 48 -29.5 0
      vertex 48 -20.5 0
    endloop
  endfacet
  facet normal 0 0 -1
    outer loop
      vertex 48 -19.5 0
      vertex 50 -10.5 0
      vertex 50 -19.5 0
    endloop
  endfacet
  facet normal -0 0 -1
    outer loop
      vertex 50 -10.5 0
      vertex 48 -19.5 0
      vertex 48 -10.5 0
    endloop
  endfacet
  facet normal 0 0 -1
    outer loop
      vertex 48 -9.5 0
      vertex 50 -0.5 0
      vertex 50 -9.5 0
    endloop
  endfacet
  facet normal -0 0 -1
    outer loop
      vertex 50 -0.5 0
      vertex 48 -9.5 0
      vertex 48 -0.5 0
    endloop
  endfacet
  facet normal 0 0 -1
    outer loop
      vertex 48 0.5 0
      vertex 50 9.5 0
      vertex 50 0.5 0
    endloop
  endfacet
  facet normal -0 0 -1
    outer loop
      vertex 50 9.5 0
      vertex 48 0.5 0
      vertex 48 9.5 0
    endloop
  endfacet
  facet normal 0 0 -1
    outer loop
      vertex 48 10.5 0
      vertex 50 19.5 0
      vertex 50 10.5 0
    endloop
  endfacet
  facet normal -0 0 -1
    outer loop
      vertex 50 19.5 0
      vertex 48 10.5 0
      vertex 48 19.5 0
    endloop
  endfacet
  facet normal 0 0 -1
    outer loop
      vertex 48 20.5 0
      vertex 50 29.5 0
      vertex 50 20.5 0
    endloop
  endfacet
  facet normal -0 0 -1
    outer loop
      vertex 50 29.5 0
      vertex 48 20.5 0
      vertex 48 29.5 0
    endloop
  endfacet
  facet normal 0 0 -1
    outer loop
      vertex 48 30.5 0
      vertex 50 39.5 0
      vertex 50 30.5 0
    endloop
  endfacet
  facet normal -0 0 -1
    outer loop
      vertex 50 39.5 0
      vertex 48 30.5 0
      vertex 48 39.5 0
    endloop
  endfacet
  facet normal 0 0 -1
    outer loop
      vertex 45 45 0
      vertex 50 49 0
      vertex 50 40.5 0
    endloop
  endfacet
  facet normal 0 -0 -1
    outer loop
      vertex 49 50 0
      vertex 50 49 0
      vertex 45 45 0
    endloop
  endfacet
  facet normal 0 0 -1
    outer loop
      vertex 45 45 0
      vertex 50 40.5 0
      vertex 48 40.5 0
    endloop
  endfacet
  facet normal 0 0 -1
    outer loop
      vertex 48 39.5 0
      vertex 45 45 0
      vertex 48 40.5 0
    endloop
  endfacet
  facet normal 0 0 -1
    outer loop
      vertex 50 49 0
      vertex 49 50 0
      vertex 50 50 0
    endloop
  endfacet
  facet normal 0 0 -1
    outer loop
      vertex 40.5 50 0
      vertex 45 45 0
      vertex 40.5 48 0
    endloop
  endfacet
  facet normal 0 0 -1
    outer loop
      vertex 45 45 0
      vertex 40.5 50 0
      vertex 49 50 0
    endloop
  endfacet
  facet normal -0 0 -1
    outer loop
      vertex 39.5 50 0
      vertex 30.5 48 0
      vertex 30.5 50 0
    endloop
  endfacet
  facet normal -0 0 -1
    outer loop
      vertex 29.5 50 0
      vertex 20.5 48 0
      vertex 20.5 50 0
    endloop
  endfacet
  facet normal -0 0 -1
    outer loop
      vertex 19.5 50 0
      vertex 10.5 48 0
      vertex 10.5 50 0
    endloop
  endfacet
  facet normal -0 0 -1
    outer loop
      vertex 9.5 50 0
      vertex 0.5 48 0
      vertex 0.5 50 0
    endloop
  endfacet
  facet normal -0 0 -1
    outer loop
      vertex -0.5 50 0
      vertex -9.5 48 0
      vertex -9.5 50 0
    endloop
  endfacet
  facet normal -0 0 -1
    outer loop
      vertex -10.5 50 0
      vertex -19.5 48 0
      vertex -19.5 50 0
    endloop
  endfacet
  facet normal -0 0 -1
    outer loop
      vertex -20.5 50 0
      vertex -29.5 48 0
      vertex -29.5 50 0
    endloop
  endfacet
  facet normal 0 0 -1
    outer loop
      vertex -50 30.5 0
      vertex -48 39.5 0
      vertex -48 30.5 0
    endloop
  endfacet
  facet normal -0 0 -1
    outer loop
      vertex -48 39.5 0
      vertex -50 30.5 0
      vertex -50 39.5 0
    endloop
  endfacet
  facet normal 0 0 -1
    outer loop
      vertex -50 20.5 0
      vertex -48 29.5 0
      vertex -48 20.5 0
    endloop
  endfacet
  facet normal -0 0 -1
    outer loop
      vertex -48 29.5 0
      vertex -50 20.5 0
      vertex -50 29.5 0
    endloop
  endfacet
  facet normal 0 0 -1
    outer loop
      vertex -50 10.5 0
      vertex -48 19.5 0
      vertex -48 10.5 0
    endloop
  endfacet
  facet normal -0 0 -1
    outer loop
      vertex -48 19.5 0
      vertex -50 10.5 0
      vertex -50 19.5 0
    endloop
  endfacet
  facet normal 0 0 -1
    outer loop
      vertex -50 0.5 0
      vertex -48 9.5 0
      vertex -48 0.5 0
    endloop
  endfacet
  facet normal -0 0 -1
    outer loop
      vertex -48 9.5 0
      vertex -50 0.5 0
      vertex -50 9.5 0
    endloop
  endfacet
  facet normal 0 0 -1
    outer loop
      vertex -50 -9.5 0
      vertex -48 -0.5 0
      vertex -48 -9.5 0
    endloop
  endfacet
  facet normal -0 0 -1
    outer loop
      vertex -48 -0.5 0
      vertex -50 -9.5 0
      vertex -50 -0.5 0
    endloop
  endfacet
  facet normal 0 0 -1
    outer loop
      vertex -50 -19.5 0
      vertex -48 -10.5 0
      vertex -48 -19.5 0
    endloop
  endfacet
  facet normal -0 0 -1
    outer loop
      vertex -48 -10.5 0
      vertex -50 -19.5 0
      vertex -50 -10.5 0
    endloop
  endfacet
  facet normal 0 0 -1
    outer loop
      vertex -50 -29.5 0
      vertex -48 -20.5 0
      vertex -48 -29.5 0
    endloop
  endfacet
  facet normal -0 0 -1
    outer loop
      vertex -48 -20.5 0
      vertex -50 -29.5 0
      vertex -50 -20.5 0
    endloop
  endfacet
  facet normal 0 0 -1
    outer loop
      vertex -50 -39.5 0
      vertex -48 -30.5 0
      vertex -48 -39.5 0
    endloop
  endfacet
  facet normal -0 0 -1
    outer loop
      vertex -48 -30.5 0
      vertex -50 -39.5 0
      vertex -50 -30.5 0
    endloop
  endfacet
  facet normal 0 0 -1
    outer loop
      vertex -40.5 -50 0
      vertex -45 -45 0
      vertex -40.5 -48 0
    endloop
  endfacet
  facet normal 0 0 -1
    outer loop
      vertex -48 -39.5 0
      vertex -45 -45 0
      vertex -48 -40.5 0
    endloop
  endfacet
  facet normal 0 0 -1
    outer loop
      vertex -49 -50 0
      vertex -45 -45 0
      vertex -40.5 -50 0
    endloop
  endfacet
  facet normal 0 0 -1
    outer loop
      vertex -50 -49 0
      vertex -45 -45 0
      vertex -49 -50 0
    endloop
  endfacet
  facet normal 0 0 -1
    outer loop
      vertex -50 -49 0
      vertex -49 -50 0
      vertex -50 -50 0
    endloop
  endfacet
  facet normal 0 0 -1
    outer loop
      vertex -50 -40.5 0
      vertex -45 -45 0
      vertex -50 -49 0
    endloop
  endfacet
  facet normal 0 0 -1
    outer loop
      vertex -45 -45 0
      vertex -50 -40.5 0
      vertex -48 -40.5 0
    endloop
  endfacet
  facet normal -0 0 -1
    outer loop
      vertex -30.5 50 0
      vertex -39.5 48 0
      vertex -39.5 50 0
    endloop
  endfacet
  facet normal 0 -1 0
    outer loop
      vertex -49 -50 0
      vertex -40.5 -50 2
      vertex -49 -50 2
    endloop
  endfacet
  facet normal 0 -1 -0
    outer loop
      vertex -40.5 -50 2
      vertex -49 -50 0
      vertex -40.5 -50 0
    endloop
  endfacet
  facet normal 0 -1 0
    outer loop
      vertex -39.5 -50 0
      vertex -30.5 -50 2
      vertex -39.5 -50 2
    endloop
  endfacet
  facet normal 0 -1 -0
    outer loop
      vertex -30.5 -50 2
      vertex -39.5 -50 0
      vertex -30.5 -50 0
    endloop
  endfacet
  facet normal 0 -1 0
    outer loop
      vertex -29.5 -50 0
      vertex -20.5 -50 2
      vertex -29.5 -50 2
    endloop
  endfacet
  facet normal 0 -1 -0
    outer loop
      vertex -20.5 -50 2
      vertex -29.5 -50 0
      vertex -20.5 -50 0
    endloop
  endfacet
  facet normal 0 -1 0
    outer loop
      vertex -19.5 -50 0
      vertex -10.5 -50 2
      vertex -19.5 -50 2
    endloop
  endfacet
  facet normal 0 -1 -0
    outer loop
      vertex -10.5 -50 2
      vertex -19.5 -50 0
      vertex -10.5 -50 0
    endloop
  endfacet
  facet normal 0 -1 0
    outer loop
      vertex -9.5 -50 0
      vertex -0.5 -50 2
      vertex -9.5 -50 2
    endloop
  endfacet
  facet normal 0 -1 -0
    outer loop
      vertex -0.5 -50 2
      vertex -9.5 -50 0
      vertex -0.5 -50 0
    endloop
  endfacet
  facet normal 0 -1 0
    outer loop
      vertex 0.5 -50 0
      vertex 9.5 -50 2
      vertex 0.5 -50 2
    endloop
  endfacet
  facet normal 0 -1 -0
    outer loop
      vertex 9.5 -50 2
      vertex 0.5 -50 0
      vertex 9.5 -50 0
    endloop
  endfacet
  facet normal 0 -1 0
    outer loop
      vertex 10.5 -50 0
      vertex 19.5 -50 2
      vertex 10.5 -50 2
    endloop
  endfacet
  facet normal 0 -1 -0
    outer loop
      vertex 19.5 -50 2
      vertex 10.5 -50 0
      vertex 19.5 -50 0
    endloop
  endfacet
  facet normal 0 -1 0
    outer loop
      vertex 20.5 -50 0
      vertex 29.5 -50 2
      vertex 20.5 -50 2
    endloop
  endfacet
  facet normal 0 -1 -0
    outer loop
      vertex 29.5 -50 2
      vertex 20.5 -50 0
      vertex 29.5 -50 0
    endloop
  endfacet
  facet normal 0 -1 0
    outer loop
      vertex 30.5 -50 0
      vertex 39.5 -50 2
      vertex 30.5 -50 2
    endloop
  endfacet
  facet normal 0 -1 -0
    outer loop
      vertex 39.5 -50 2
      vertex 30.5 -50 0
      vertex 39.5 -50 0
    endloop
  endfacet
  facet normal 0 -1 0
    outer loop
      vertex 40.5 -50 0
      vertex 49 -50 2
      vertex 40.5 -50 2
    endloop
  endfacet
  facet normal 0 -1 -0
    outer loop
      vertex 49 -50 2
      vertex 40.5 -50 0
      vertex 49 -50 0
    endloop
  endfacet
  facet normal 0 -0.794341 -0.607472
    outer loop
      vertex 0 0 58.8428
      vertex 45 43.4705 2
      vertex 5 0 58.8428
    endloop
  endfacet
  facet normal -5.52508e-07 -0.794341 -0.607472
    outer loop
      vertex 45 43.4705 2
      vertex 0 0 58.8428
      vertex 45 45 0
    endloop
  endfacet
  facet normal 4.01028e-16 -0.794341 -0.607472
    outer loop
      vertex 5 0 58.8428
      vertex 45 43.4705 2
      vertex 48.4705 43.4705 2
    endloop
  endfacet
  facet normal -0 -0.794341 -0.607472
    outer loop
      vertex -45 43.4705 2
      vertex -5 0 58.8428
      vertex -48.4705 43.4705 2
    endloop
  endfacet
  facet normal 0 -0.794341 -0.607472
    outer loop
      vertex -5 0 58.8428
      vertex -45 43.4705 2
      vertex 0 0 58.8428
    endloop
  endfacet
  facet normal 5.52508e-07 -0.794341 -0.607472
    outer loop
      vertex 0 0 58.8428
      vertex -45 43.4705 2
      vertex -45 45 0
    endloop
  endfacet
  facet normal -0 0 1
    outer loop
      vertex -2.5 2.5 62.1118
      vertex 2.5 -2.5 62.1118
      vertex 2.5 2.5 62.1118
    endloop
  endfacet
  facet normal 0 0 1
    outer loop
      vertex 2.5 -2.5 62.1118
      vertex -2.5 2.5 62.1118
      vertex -2.5 -2.5 62.1118
    endloop
  endfacet
  facet normal -0.794341 -5.52508e-07 -0.607472
    outer loop
      vertex 0 0 58.8428
      vertex 43.4705 45 2
      vertex 45 45 0
    endloop
  endfacet
  facet normal -0.794341 2.78353e-16 -0.607472
    outer loop
      vertex 43.4705 45 2
      vertex 0 0 58.8428
      vertex 0 5 58.8428
    endloop
  endfacet
  facet normal -0.794341 -0 -0.607472
    outer loop
      vertex 43.4705 48.4705 2
      vertex 43.4705 45 2
      vertex 0 5 58.8428
    endloop
  endfacet
  facet normal 0.794342 0 0.607471
    outer loop
      vertex 50 50 0
      vertex 49 49 1.30762
      vertex 50 49 0
    endloop
  endfacet
  facet normal 0.794341 -6.20202e-17 0.607472
    outer loop
      vertex 2.5 2.5 62.1118
      vertex 48.4705 43.4705 2
      vertex 48.4705 48.4705 2
    endloop
  endfacet
  facet normal 0.794339 5.40949e-06 0.607475
    outer loop
      vertex 2.5 2.5 62.1118
      vertex 5 0 58.8428
      vertex 48.4705 43.4705 2
    endloop
  endfacet
  facet normal 0.794337 -0 0.607477
    outer loop
      vertex 2.5 -2.5 62.1118
      vertex 5 0 58.8428
      vertex 2.5 2.5 62.1118
    endloop
  endfacet
  facet normal 0.794339 -5.40949e-06 0.607475
    outer loop
      vertex 2.5 -2.5 62.1118
      vertex 48.4705 -43.4705 2
      vertex 5 0 58.8428
    endloop
  endfacet
  facet normal 0.794341 0 0.607472
    outer loop
      vertex 48.4705 -43.4705 2
      vertex 2.5 -2.5 62.1118
      vertex 48.4705 -48.4705 2
    endloop
  endfacet
  facet normal 0.794342 0 0.607471
    outer loop
      vertex 50 -49 0
      vertex 49 -49 1.30762
      vertex 50 -50 0
    endloop
  endfacet
  facet normal -0 0.794342 0.607471
    outer loop
      vertex 49 50 0
      vertex 49 49 1.30762
      vertex 50 50 0
    endloop
  endfacet
  facet normal 0 0.794337 0.607477
    outer loop
      vertex 2.5 2.5 62.1118
      vertex 0 5 58.8428
      vertex -2.5 2.5 62.1118
    endloop
  endfacet
  facet normal -0 0.794341 0.607472
    outer loop
      vertex 43.4705 48.4705 2
      vertex 2.5 2.5 62.1118
      vertex 48.4705 48.4705 2
    endloop
  endfacet
  facet normal 5.40949e-06 0.794339 0.607475
    outer loop
      vertex 2.5 2.5 62.1118
      vertex 43.4705 48.4705 2
      vertex 0 5 58.8428
    endloop
  endfacet
  facet normal -5.40949e-06 0.794339 0.607475
    outer loop
      vertex -43.4705 48.4705 2
      vertex -2.5 2.5 62.1118
      vertex 0 5 58.8428
    endloop
  endfacet
  facet normal -6.20202e-17 0.794341 0.607472
    outer loop
      vertex -2.5 2.5 62.1118
      vertex -43.4705 48.4705 2
      vertex -48.4705 48.4705 2
    endloop
  endfacet
  facet normal 0 0.794342 0.607471
    outer loop
      vertex -49 50 0
      vertex -50 50 0
      vertex -49 49 1.30762
    endloop
  endfacet
  facet normal 0.794341 -4.01028e-16 -0.607472
    outer loop
      vertex 0 5 58.8428
      vertex -43.4705 45 2
      vertex -43.4705 48.4705 2
    endloop
  endfacet
  facet normal 0.794341 0 -0.607472
    outer loop
      vertex 0 0 58.8428
      vertex -43.4705 45 2
      vertex 0 5 58.8428
    endloop
  endfacet
  facet normal 0.794341 -5.52508e-07 -0.607472
    outer loop
      vertex -43.4705 45 2
      vertex 0 0 58.8428
      vertex -45 45 0
    endloop
  endfacet
  facet normal -0.794341 0 0.607472
    outer loop
      vertex -48.4705 43.4705 2
      vertex -2.5 2.5 62.1118
      vertex -48.4705 48.4705 2
    endloop
  endfacet
  facet normal -0.794339 5.40949e-06 0.607475
    outer loop
      vertex -5 0 58.8428
      vertex -2.5 2.5 62.1118
      vertex -48.4705 43.4705 2
    endloop
  endfacet
  facet normal -0.794337 0 0.607477
    outer loop
      vertex -5 0 58.8428
      vertex -2.5 -2.5 62.1118
      vertex -2.5 2.5 62.1118
    endloop
  endfacet
  facet normal -0.794339 -5.40949e-06 0.607475
    outer loop
      vertex -48.4705 -43.4705 2
      vertex -2.5 -2.5 62.1118
      vertex -5 0 58.8428
    endloop
  endfacet
  facet normal -0.794341 6.20202e-17 0.607472
    outer loop
      vertex -2.5 -2.5 62.1118
      vertex -48.4705 -43.4705 2
      vertex -48.4705 -48.4705 2
    endloop
  endfacet
  facet normal -0.794342 0 0.607471
    outer loop
      vertex -50 50 0
      vertex -50 49 0
      vertex -49 49 1.30762
    endloop
  endfacet
  facet normal -0.794342 0 0.607471
    outer loop
      vertex -50 -49 0
      vertex -50 -50 0
      vertex -49 -49 1.30762
    endloop
  endfacet
  facet normal 0 0.794341 -0.607472
    outer loop
      vertex 45 -43.4705 2
      vertex 5 0 58.8428
      vertex 48.4705 -43.4705 2
    endloop
  endfacet
  facet normal 0 0.794341 -0.607472
    outer loop
      vertex 5 0 58.8428
      vertex 45 -43.4705 2
      vertex 0 0 58.8428
    endloop
  endfacet
  facet normal -5.52508e-07 0.794341 -0.607472
    outer loop
      vertex 0 0 58.8428
      vertex 45 -43.4705 2
      vertex 45 -45 0
    endloop
  endfacet
  facet normal 0 0.794341 -0.607472
    outer loop
      vertex 0 0 58.8428
      vertex -45 -43.4705 2
      vertex -5 0 58.8428
    endloop
  endfacet
  facet normal 5.52508e-07 0.794341 -0.607472
    outer loop
      vertex -45 -43.4705 2
      vertex 0 0 58.8428
      vertex -45 -45 0
    endloop
  endfacet
  facet normal -4.01028e-16 0.794341 -0.607472
    outer loop
      vertex -5 0 58.8428
      vertex -45 -43.4705 2
      vertex -48.4705 -43.4705 2
    endloop
  endfacet
  facet normal 0 -0.794337 0.607477
    outer loop
      vertex -2.5 -2.5 62.1118
      vertex 0 -5 58.8428
      vertex 2.5 -2.5 62.1118
    endloop
  endfacet
  facet normal 0 -0.794341 0.607472
    outer loop
      vertex -43.4705 -48.4705 2
      vertex -2.5 -2.5 62.1118
      vertex -48.4705 -48.4705 2
    endloop
  endfacet
  facet normal -5.40949e-06 -0.794339 0.607475
    outer loop
      vertex -2.5 -2.5 62.1118
      vertex -43.4705 -48.4705 2
      vertex 0 -5 58.8428
    endloop
  endfacet
  facet normal 5.40949e-06 -0.794339 0.607475
    outer loop
      vertex 43.4705 -48.4705 2
      vertex 2.5 -2.5 62.1118
      vertex 0 -5 58.8428
    endloop
  endfacet
  facet normal 6.20202e-17 -0.794341 0.607472
    outer loop
      vertex 2.5 -2.5 62.1118
      vertex 43.4705 -48.4705 2
      vertex 48.4705 -48.4705 2
    endloop
  endfacet
  facet normal 0 -0.794342 0.607471
    outer loop
      vertex -49 -49 1.30762
      vertex -50 -50 0
      vertex -49 -50 0
    endloop
  endfacet
  facet normal 0 -0.794342 0.607471
    outer loop
      vertex 49 -49 1.30762
      vertex 49 -50 0
      vertex 50 -50 0
    endloop
  endfacet
  facet normal 0.794341 -4.01028e-16 -0.607472
    outer loop
      vertex 0 -5 58.8428
      vertex -43.4705 -48.4705 2
      vertex -43.4705 -45 2
    endloop
  endfacet
  facet normal 0.794341 -2.78353e-16 -0.607472
    outer loop
      vertex -43.4705 -45 2
      vertex 0 0 58.8428
      vertex 0 -5 58.8428
    endloop
  endfacet
  facet normal 0.794341 5.52508e-07 -0.607472
    outer loop
      vertex 0 0 58.8428
      vertex -43.4705 -45 2
      vertex -45 -45 0
    endloop
  endfacet
  facet normal -0.794341 5.52508e-07 -0.607472
    outer loop
      vertex 43.4705 -45 2
      vertex 0 0 58.8428
      vertex 45 -45 0
    endloop
  endfacet
  facet normal -0.794341 -0 -0.607472
    outer loop
      vertex 0 0 58.8428
      vertex 43.4705 -45 2
      vertex 0 -5 58.8428
    endloop
  endfacet
  facet normal -0.794341 4.01028e-16 -0.607472
    outer loop
      vertex 0 -5 58.8428
      vertex 43.4705 -45 2
      vertex 43.4705 -48.4705 2
    endloop
  endfacet
endsolid OpenSCAD_Model
