solid OpenSCAD_Model
  facet normal 0.980785 0.195089 -5.03611e-19
    outer loop
      vertex 1.5 0 15
      vertex 1.38582 0.574025 0
      vertex 1.38582 0.574025 15
    endloop
  endfacet
  facet normal 0.980785 0.195089 -5.03611e-19
    outer loop
      vertex 1.38582 0.574025 0
      vertex 1.5 0 15
      vertex 1.5 0 0
    endloop
  endfacet
  facet normal 0.831469 0.555571 -1.23735e-18
    outer loop
      vertex 1.38582 0.574025 15
      vertex 1.06066 1.06066 0
      vertex 1.06066 1.06066 15
    endloop
  endfacet
  facet normal 0.831469 0.555571 -1.23735e-18
    outer loop
      vertex 1.06066 1.06066 0
      vertex 1.38582 0.574025 15
      vertex 1.38582 0.574025 0
    endloop
  endfacet
  facet normal 0.555571 0.831469 -0
    outer loop
      vertex 1.06066 1.06066 0
      vertex 0.574025 1.38582 15
      vertex 1.06066 1.06066 15
    endloop
  endfacet
  facet normal 0.555571 0.831469 0
    outer loop
      vertex 0.574025 1.38582 15
      vertex 1.06066 1.06066 0
      vertex 0.574025 1.38582 0
    endloop
  endfacet
  facet normal 0.195089 0.980785 -0
    outer loop
      vertex 0.574025 1.38582 0
      vertex 9.18485e-17 1.5 15
      vertex 0.574025 1.38582 15
    endloop
  endfacet
  facet normal 0.195089 0.980785 0
    outer loop
      vertex 9.18485e-17 1.5 15
      vertex 0.574025 1.38582 0
      vertex 9.18485e-17 1.5 0
    endloop
  endfacet
  facet normal -0.195089 0.980785 0
    outer loop
      vertex 9.18485e-17 1.5 0
      vertex -0.574025 1.38582 15
      vertex 9.18485e-17 1.5 15
    endloop
  endfacet
  facet normal -0.195089 0.980785 0
    outer loop
      vertex -0.574025 1.38582 15
      vertex 9.18485e-17 1.5 0
      vertex -0.574025 1.38582 0
    endloop
  endfacet
  facet normal -0.555571 0.831469 0
    outer loop
      vertex -0.574025 1.38582 0
      vertex -1.06066 1.06066 15
      vertex -0.574025 1.38582 15
    endloop
  endfacet
  facet normal -0.555571 0.831469 0
    outer loop
      vertex -1.06066 1.06066 15
      vertex -0.574025 1.38582 0
      vertex -1.06066 1.06066 0
    endloop
  endfacet
  facet normal -0.831469 0.555571 1.23735e-18
    outer loop
      vertex -1.38582 0.574025 0
      vertex -1.06066 1.06066 15
      vertex -1.06066 1.06066 0
    endloop
  endfacet
  facet normal -0.831469 0.555571 1.23735e-18
    outer loop
      vertex -1.06066 1.06066 15
      vertex -1.38582 0.574025 0
      vertex -1.38582 0.574025 15
    endloop
  endfacet
  facet normal -0.980785 0.195089 7.77276e-19
    outer loop
      vertex -1.5 1.83697e-16 0
      vertex -1.38582 0.574025 15
      vertex -1.38582 0.574025 0
    endloop
  endfacet
  facet normal -0.980785 0.195089 7.77276e-19
    outer loop
      vertex -1.38582 0.574025 15
      vertex -1.5 1.83697e-16 0
      vertex -1.5 1.83697e-16 15
    endloop
  endfacet
  facet normal -0.980785 -0.195089 -2.29946e-19
    outer loop
      vertex -1.38582 -0.574025 0
      vertex -1.5 1.83697e-16 15
      vertex -1.5 1.83697e-16 0
    endloop
  endfacet
  facet normal -0.980785 -0.195089 -2.29946e-19
    outer loop
      vertex -1.5 1.83697e-16 15
      vertex -1.38582 -0.574025 0
      vertex -1.38582 -0.574025 15
    endloop
  endfacet
  facet normal -0.831469 -0.555571 -1.23735e-18
    outer loop
      vertex -1.06066 -1.06066 0
      vertex -1.38582 -0.574025 15
      vertex -1.38582 -0.574025 0
    endloop
  endfacet
  facet normal -0.831469 -0.555571 -1.23735e-18
    outer loop
      vertex -1.38582 -0.574025 15
      vertex -1.06066 -1.06066 0
      vertex -1.06066 -1.06066 15
    endloop
  endfacet
  facet normal -0.555571 -0.831469 0
    outer loop
      vertex -1.06066 -1.06066 0
      vertex -0.574025 -1.38582 15
      vertex -1.06066 -1.06066 15
    endloop
  endfacet
  facet normal -0.555571 -0.831469 -0
    outer loop
      vertex -0.574025 -1.38582 15
      vertex -1.06066 -1.06066 0
      vertex -0.574025 -1.38582 0
    endloop
  endfacet
  facet normal -0.195089 -0.980785 0
    outer loop
      vertex -0.574025 -1.38582 0
      vertex -2.75546e-16 -1.5 15
      vertex -0.574025 -1.38582 15
    endloop
  endfacet
  facet normal -0.195089 -0.980785 -0
    outer loop
      vertex -2.75546e-16 -1.5 15
      vertex -0.574025 -1.38582 0
      vertex -2.75546e-16 -1.5 0
    endloop
  endfacet
  facet normal 0.195089 -0.980785 0
    outer loop
      vertex -2.75546e-16 -1.5 0
      vertex 0.574025 -1.38582 15
      vertex -2.75546e-16 -1.5 15
    endloop
  endfacet
  facet normal 0.195089 -0.980785 0
    outer loop
      vertex 0.574025 -1.38582 15
      vertex -2.75546e-16 -1.5 0
      vertex 0.574025 -1.38582 0
    endloop
  endfacet
  facet normal 0.555571 -0.831469 0
    outer loop
      vertex 0.574025 -1.38582 0
      vertex 1.06066 -1.06066 15
      vertex 0.574025 -1.38582 15
    endloop
  endfacet
  facet normal 0.555571 -0.831469 0
    outer loop
      vertex 1.06066 -1.06066 15
      vertex 0.574025 -1.38582 0
      vertex 1.06066 -1.06066 0
    endloop
  endfacet
  facet normal 0.831469 -0.555571 1.23735e-18
    outer loop
      vertex 1.06066 -1.06066 15
      vertex 1.38582 -0.574025 0
      vertex 1.38582 -0.574025 15
    endloop
  endfacet
  facet normal 0.831469 -0.555571 1.23735e-18
    outer loop
      vertex 1.38582 -0.574025 0
      vertex 1.06066 -1.06066 15
      vertex 1.06066 -1.06066 0
    endloop
  endfacet
  facet normal 0.980785 -0.195089 5.03611e-19
    outer loop
      vertex 1.38582 -0.574025 15
      vertex 1.5 0 0
      vertex 1.5 0 15
    endloop
  endfacet
  facet normal 0.980785 -0.195089 5.03611e-19
    outer loop
      vertex 1.5 0 0
      vertex 1.38582 -0.574025 15
      vertex 1.38582 -0.574025 0
    endloop
  endfacet
  facet normal 0 0 -1
    outer loop
      vertex 1.38582 -0.574025 0
      vertex 1.38582 0.574025 0
      vertex 1.5 0 0
    endloop
  endfacet
  facet normal 0 0 -1
    outer loop
      vertex 1.06066 -1.06066 0
      vertex 1.38582 0.574025 0
      vertex 1.38582 -0.574025 0
    endloop
  endfacet
  facet normal 0 0 -1
    outer loop
      vertex 1.06066 -1.06066 0
      vertex 1.06066 1.06066 0
      vertex 1.38582 0.574025 0
    endloop
  endfacet
  facet normal 0 0 -1
    outer loop
      vertex 0.574025 -1.38582 0
      vertex 1.06066 1.06066 0
      vertex 1.06066 -1.06066 0
    endloop
  endfacet
  facet normal 0 0 -1
    outer loop
      vertex 0.574025 -1.38582 0
      vertex 0.574025 1.38582 0
      vertex 1.06066 1.06066 0
    endloop
  endfacet
  facet normal 0 0 -1
    outer loop
      vertex 0.574025 -1.38582 0
      vertex 9.18485e-17 1.5 0
      vertex 0.574025 1.38582 0
    endloop
  endfacet
  facet normal 0 0 -1
    outer loop
      vertex -2.75546e-16 -1.5 0
      vertex 9.18485e-17 1.5 0
      vertex 0.574025 -1.38582 0
    endloop
  endfacet
  facet normal 0 0 -1
    outer loop
      vertex -0.574025 -1.38582 0
      vertex 9.18485e-17 1.5 0
      vertex -2.75546e-16 -1.5 0
    endloop
  endfacet
  facet normal 0 0 -1
    outer loop
      vertex -0.574025 -1.38582 0
      vertex -0.574025 1.38582 0
      vertex 9.18485e-17 1.5 0
    endloop
  endfacet
  facet normal 0 0 -1
    outer loop
      vertex -1.06066 -1.06066 0
      vertex -0.574025 1.38582 0
      vertex -0.574025 -1.38582 0
    endloop
  endfacet
  facet normal 0 0 -1
    outer loop
      vertex -1.06066 -1.06066 0
      vertex -1.06066 1.06066 0
      vertex -0.574025 1.38582 0
    endloop
  endfacet
  facet normal 0 0 -1
    outer loop
      vertex -1.38582 -0.574025 0
      vertex -1.06066 1.06066 0
      vertex -1.06066 -1.06066 0
    endloop
  endfacet
  facet normal 0 0 -1
    outer loop
      vertex -1.38582 -0.574025 0
      vertex -1.38582 0.574025 0
      vertex -1.06066 1.06066 0
    endloop
  endfacet
  facet normal 0 -0 -1
    outer loop
      vertex -1.38582 0.574025 0
      vertex -1.38582 -0.574025 0
      vertex -1.5 1.83697e-16 0
    endloop
  endfacet
  facet normal 0 0 1
    outer loop
      vertex 1.38582 0.574025 15
      vertex 1.38582 -0.574025 15
      vertex 1.5 0 15
    endloop
  endfacet
  facet normal 0 0 1
    outer loop
      vertex 1.06066 1.06066 15
      vertex 1.38582 -0.574025 15
      vertex 1.38582 0.574025 15
    endloop
  endfacet
  facet normal 0 0 1
    outer loop
      vertex 1.06066 1.06066 15
      vertex 1.06066 -1.06066 15
      vertex 1.38582 -0.574025 15
    endloop
  endfacet
  facet normal 0 0 1
    outer loop
      vertex 0.574025 1.38582 15
      vertex 1.06066 -1.06066 15
      vertex 1.06066 1.06066 15
    endloop
  endfacet
  facet normal 0 0 1
    outer loop
      vertex 0.574025 1.38582 15
      vertex 0.574025 -1.38582 15
      vertex 1.06066 -1.06066 15
    endloop
  endfacet
  facet normal 0 0 1
    outer loop
      vertex 9.18485e-17 1.5 15
      vertex 0.574025 -1.38582 15
      vertex 0.574025 1.38582 15
    endloop
  endfacet
  facet normal 0 0 1
    outer loop
      vertex 9.18485e-17 1.5 15
      vertex -2.75546e-16 -1.5 15
      vertex 0.574025 -1.38582 15
    endloop
  endfacet
  facet normal -0 0 1
    outer loop
      vertex -0.574025 1.38582 15
      vertex -2.75546e-16 -1.5 15
      vertex 9.18485e-17 1.5 15
    endloop
  endfacet
  facet normal 0 0 1
    outer loop
      vertex -0.574025 1.38582 15
      vertex -0.574025 -1.38582 15
      vertex -2.75546e-16 -1.5 15
    endloop
  endfacet
  facet normal -0 0 1
    outer loop
      vertex -1.06066 1.06066 15
      vertex -0.574025 -1.38582 15
      vertex -0.574025 1.38582 15
    endloop
  endfacet
  facet normal 0 0 1
    outer loop
      vertex -1.06066 1.06066 15
      vertex -1.06066 -1.06066 15
      vertex -0.574025 -1.38582 15
    endloop
  endfacet
  facet normal -0 0 1
    outer loop
      vertex -1.38582 0.574025 15
      vertex -1.06066 -1.06066 15
      vertex -1.06066 1.06066 15
    endloop
  endfacet
  facet normal 0 0 1
    outer loop
      vertex -1.38582 0.574025 15
      vertex -1.38582 -0.574025 15
      vertex -1.06066 -1.06066 15
    endloop
  endfacet
  facet normal 0 -0 1
    outer loop
      vertex -1.38582 -0.574025 15
      vertex -1.38582 0.574025 15
      vertex -1.5 1.83697e-16 15
    endloop
  endfacet
endsolid OpenSCAD_Model
