solid OpenSCAD_Model
  facet normal 0 -0 1
    outer loop
      vertex 0 -107.5 1.5
      vertex 2 -20 1.5
      vertex -2 -20 1.5
    endloop
  endfacet
  facet normal 0 -1 0
    outer loop
      vertex 5 -20 0
      vertex 26.5 -20 1.5
      vertex 2 -20 1.5
    endloop
  endfacet
  facet normal 0 -1 0
    outer loop
      vertex 26.5 -20 -1.5
      vertex 5 -20 0
      vertex 2 -20 -1.5
    endloop
  endfacet
  facet normal 0 -1 0
    outer loop
      vertex 5 -20 0
      vertex 26.5 -20 -1.5
      vertex 26.5 -20 1.5
    endloop
  endfacet
  facet normal 0 0 0
    outer loop
      vertex -26.5 -20 1.5
      vertex -2 -20 1.5
      vertex 2 -20 1.5
    endloop
  endfacet
  facet normal 0 -1 0
    outer loop
      vertex -26.5 -20 1.5
      vertex -5 -20 0
      vertex -2 -20 1.5
    endloop
  endfacet
  facet normal 0 -1 0
    outer loop
      vertex -26.5 -20 -1.5
      vertex -5 -20 0
      vertex -26.5 -20 1.5
    endloop
  endfacet
  facet normal 0 -1 -0
    outer loop
      vertex -5 -20 0
      vertex -26.5 -20 -1.5
      vertex -2 -20 -1.5
    endloop
  endfacet
  facet normal 0.44719 -0.0102215 0.89438
    outer loop
      vertex 5 -20 0
      vertex 2 -20 1.5
      vertex 0 -107.5 1.5
    endloop
  endfacet
  facet normal 0.998371 -0.0570498 0
    outer loop
      vertex 5 -20 0
      vertex 0 -107.5 1.5
      vertex 0 -107.5 0
    endloop
  endfacet
  facet normal -0.999739 -0.0228512 0
    outer loop
      vertex 0 -107.5 0
      vertex 0 -107.5 1.5
      vertex -2 -20 1.5
    endloop
  endfacet
  facet normal -0.447068 -0.0255467 0.894135
    outer loop
      vertex 0 -107.5 0
      vertex -2 -20 1.5
      vertex -5 -20 0
    endloop
  endfacet
  facet normal 0 0 -1
    outer loop
      vertex 26.5 -20 -1.5
      vertex 23.5 -15.5 -1.5
      vertex 26.5 20 -1.5
    endloop
  endfacet
  facet normal 0 0 -1
    outer loop
      vertex 2 -20 -1.5
      vertex 23.5 -15.5 -1.5
      vertex 26.5 -20 -1.5
    endloop
  endfacet
  facet normal 0 0 -1
    outer loop
      vertex -2 -20 -1.5
      vertex 2 -20 -1.5
      vertex 0 -107.5 -1.5
    endloop
  endfacet
  facet normal 0 0 -1
    outer loop
      vertex -2 -20 -1.5
      vertex 23.5 -15.5 -1.5
      vertex 2 -20 -1.5
    endloop
  endfacet
  facet normal 0 0 -1
    outer loop
      vertex -2 -20 -1.5
      vertex -23.5 -15.5 -1.5
      vertex 23.5 -15.5 -1.5
    endloop
  endfacet
  facet normal 0 0 -1
    outer loop
      vertex -26.5 -20 -1.5
      vertex -23.5 -15.5 -1.5
      vertex -2 -20 -1.5
    endloop
  endfacet
  facet normal 0 0 -1
    outer loop
      vertex -26.5 20 -1.5
      vertex -23.5 -15.5 -1.5
      vertex -26.5 -20 -1.5
    endloop
  endfacet
  facet normal 0 0 -1
    outer loop
      vertex -23.5 -15.5 -1.5
      vertex -26.5 20 -1.5
      vertex -23.5 20 -1.5
    endloop
  endfacet
  facet normal -0 0 -1
    outer loop
      vertex 26.5 20 -1.5
      vertex 23.5 -15.5 -1.5
      vertex 23.5 20 -1.5
    endloop
  endfacet
  facet normal -0.44719 -0.0102215 -0.89438
    outer loop
      vertex -2 -20 -1.5
      vertex 0 -107.5 -1.5
      vertex -5 -20 0
    endloop
  endfacet
  facet normal -0.998371 -0.0570498 0
    outer loop
      vertex 0 -107.5 -1.5
      vertex 0 -107.5 0
      vertex -5 -20 0
    endloop
  endfacet
  facet normal 0.999739 -0.0228512 0
    outer loop
      vertex 2 -20 -1.5
      vertex 0 -107.5 0
      vertex 0 -107.5 -1.5
    endloop
  endfacet
  facet normal 0.447068 -0.0255467 -0.894135
    outer loop
      vertex 2 -20 -1.5
      vertex 5 -20 0
      vertex 0 -107.5 0
    endloop
  endfacet
  facet normal 0 0 1
    outer loop
      vertex -23.5 20 1.5
      vertex -26.5 20 1.5
      vertex -23.5 -15.5 1.5
    endloop
  endfacet
  facet normal 0 0 1
    outer loop
      vertex 23.5 -15.5 1.5
      vertex 26.5 20 1.5
      vertex 23.5 20 1.5
    endloop
  endfacet
  facet normal 0 0 1
    outer loop
      vertex 26.5 20 1.5
      vertex 23.5 -15.5 1.5
      vertex 26.5 -20 1.5
    endloop
  endfacet
  facet normal 0 0 1
    outer loop
      vertex 23.5 -15.5 1.5
      vertex 2 -20 1.5
      vertex 26.5 -20 1.5
    endloop
  endfacet
  facet normal -0 0 1
    outer loop
      vertex -23.5 -15.5 1.5
      vertex 2 -20 1.5
      vertex 23.5 -15.5 1.5
    endloop
  endfacet
  facet normal 0 0 1
    outer loop
      vertex -23.5 -15.5 1.5
      vertex -26.5 -20 1.5
      vertex 2 -20 1.5
    endloop
  endfacet
  facet normal 0 0 1
    outer loop
      vertex -26.5 -20 1.5
      vertex -23.5 -15.5 1.5
      vertex -26.5 20 1.5
    endloop
  endfacet
  facet normal 0 1 0
    outer loop
      vertex 26.5 20 1.5
      vertex 25 20 0
      vertex 23.5 20 1.5
    endloop
  endfacet
  facet normal 0 1 -0
    outer loop
      vertex 26.5 20 -1.5
      vertex 25 20 0
      vertex 26.5 20 1.5
    endloop
  endfacet
  facet normal 0 1 0
    outer loop
      vertex 26.5 20 -1.5
      vertex 23.5 20 -1.5
      vertex 25 20 0
    endloop
  endfacet
  facet normal 0 1 -0
    outer loop
      vertex -25 20 0
      vertex -26.5 20 1.5
      vertex -23.5 20 1.5
    endloop
  endfacet
  facet normal 0 1 0
    outer loop
      vertex -26.5 20 -1.5
      vertex -25 20 0
      vertex -23.5 20 -1.5
    endloop
  endfacet
  facet normal 0 1 0
    outer loop
      vertex -25 20 0
      vertex -26.5 20 -1.5
      vertex -26.5 20 1.5
    endloop
  endfacet
  facet normal -1 0 0
    outer loop
      vertex -26.5 -20 -1.5
      vertex -26.5 20 1.5
      vertex -26.5 20 -1.5
    endloop
  endfacet
  facet normal -1 -0 0
    outer loop
      vertex -26.5 20 1.5
      vertex -26.5 -20 -1.5
      vertex -26.5 -20 1.5
    endloop
  endfacet
  facet normal 1 -0 0
    outer loop
      vertex 26.5 -20 1.5
      vertex 26.5 20 -1.5
      vertex 26.5 20 1.5
    endloop
  endfacet
  facet normal 1 0 0
    outer loop
      vertex 26.5 20 -1.5
      vertex 26.5 -20 1.5
      vertex 26.5 -20 -1.5
    endloop
  endfacet
  facet normal 0 0.707107 -0.707107
    outer loop
      vertex -22 -17 0
      vertex 23.5 -15.5 1.5
      vertex 22 -17 0
    endloop
  endfacet
  facet normal 0 0.707107 -0.707107
    outer loop
      vertex 23.5 -15.5 1.5
      vertex -22 -17 0
      vertex -23.5 -15.5 1.5
    endloop
  endfacet
  facet normal 0 0.707107 0.707107
    outer loop
      vertex 23.5 -15.5 -1.5
      vertex -22 -17 0
      vertex 22 -17 0
    endloop
  endfacet
  facet normal 0 0.707107 0.707107
    outer loop
      vertex -22 -17 0
      vertex 23.5 -15.5 -1.5
      vertex -23.5 -15.5 -1.5
    endloop
  endfacet
  facet normal -0.707107 -0 -0.707107
    outer loop
      vertex 25 -14 0
      vertex 25 -17 0
      vertex 23.5 -15.5 1.5
    endloop
  endfacet
  facet normal 0 0.707107 0.707107
    outer loop
      vertex 25 -17 0
      vertex 23.5 -15.5 -1.5
      vertex 22 -17 0
    endloop
  endfacet
  facet normal 0 0.707107 -0.707107
    outer loop
      vertex 23.5 -15.5 1.5
      vertex 25 -17 0
      vertex 22 -17 0
    endloop
  endfacet
  facet normal -0.707107 0 0.707107
    outer loop
      vertex 25 -17 0
      vertex 25 -14 0
      vertex 23.5 -15.5 -1.5
    endloop
  endfacet
  facet normal 0 0.707107 0.707107
    outer loop
      vertex -22 -17 0
      vertex -23.5 -15.5 -1.5
      vertex -25 -17 0
    endloop
  endfacet
  facet normal 0 0.707107 -0.707107
    outer loop
      vertex -23.5 -15.5 1.5
      vertex -22 -17 0
      vertex -25 -17 0
    endloop
  endfacet
  facet normal 0.707107 0 0.707107
    outer loop
      vertex -23.5 -15.5 -1.5
      vertex -25 -14 0
      vertex -25 -17 0
    endloop
  endfacet
  facet normal 0.707107 0 -0.707107
    outer loop
      vertex -25 -14 0
      vertex -23.5 -15.5 1.5
      vertex -25 -17 0
    endloop
  endfacet
  facet normal 0.707107 0 -0.707107
    outer loop
      vertex -25 -14 0
      vertex -23.5 20 1.5
      vertex -23.5 -15.5 1.5
    endloop
  endfacet
  facet normal 0.707107 0 -0.707107
    outer loop
      vertex -23.5 20 1.5
      vertex -25 -14 0
      vertex -25 20 0
    endloop
  endfacet
  facet normal -0.707107 -0 -0.707107
    outer loop
      vertex 23.5 20 1.5
      vertex 25 -14 0
      vertex 23.5 -15.5 1.5
    endloop
  endfacet
  facet normal -0.707107 0 -0.707107
    outer loop
      vertex 25 -14 0
      vertex 23.5 20 1.5
      vertex 25 20 0
    endloop
  endfacet
  facet normal -0.707107 0 0.707107
    outer loop
      vertex 23.5 20 -1.5
      vertex 25 -14 0
      vertex 25 20 0
    endloop
  endfacet
  facet normal -0.707107 0 0.707107
    outer loop
      vertex 25 -14 0
      vertex 23.5 20 -1.5
      vertex 23.5 -15.5 -1.5
    endloop
  endfacet
  facet normal 0.707107 -0 0.707107
    outer loop
      vertex -25 -14 0
      vertex -23.5 20 -1.5
      vertex -25 20 0
    endloop
  endfacet
  facet normal 0.707107 0 0.707107
    outer loop
      vertex -23.5 20 -1.5
      vertex -25 -14 0
      vertex -23.5 -15.5 -1.5
    endloop
  endfacet
endsolid OpenSCAD_Model
