solid OpenSCAD_Model
  facet normal 0 1 0
    outer loop
      vertex 11.5385 57 0
      vertex -3.46154 57 0
      vertex 0 57 3
    endloop
  endfacet
  facet normal 0 0 -1
    outer loop
      vertex 5.73718 -4.06292 0
      vertex 51.0942 -25.5022 0
      vertex 43.5942 -38.4926 0
    endloop
  endfacet
  facet normal 0 0 -1
    outer loop
      vertex 51.0942 -25.5022 0
      vertex 6.38718 -2.93708 0
      vertex 7.79295 -0.50222 0
    endloop
  endfacet
  facet normal 0 0 -1
    outer loop
      vertex 51.0942 -25.5022 0
      vertex 5.73718 -4.06292 0
      vertex 6.38718 -2.93708 0
    endloop
  endfacet
  facet normal 0 -0 -1
    outer loop
      vertex 5.73718 -4.06292 0
      vertex 43.5942 -38.4926 0
      vertex 0.292947 -13.4926 0
    endloop
  endfacet
  facet normal 0 0 -1
    outer loop
      vertex 5.73718 -4.06292 0
      vertex 0.65 0.375277 0
      vertex 6.38718 -2.93708 0
    endloop
  endfacet
  facet normal 0 0 -1
    outer loop
      vertex -0.65 0.375277 0
      vertex 0.65 0.375277 0
      vertex -1.22001e-16 -0.750555 0
    endloop
  endfacet
  facet normal 0 0 -1
    outer loop
      vertex -1.22001e-16 -0.750555 0
      vertex 0.65 0.375277 0
      vertex 5.73718 -4.06292 0
    endloop
  endfacet
  facet normal 0 0 -1
    outer loop
      vertex 0.65 7 0
      vertex 11.5385 57 0
      vertex 11.5385 7 0
    endloop
  endfacet
  facet normal 0 0 -1
    outer loop
      vertex 0.65 0.375277 0
      vertex -0.65 0.375277 0
      vertex 0.65 7 0
    endloop
  endfacet
  facet normal 0 0 -1
    outer loop
      vertex -0.65 7 0
      vertex 0.65 7 0
      vertex -0.65 0.375277 0
    endloop
  endfacet
  facet normal 0 0 -1
    outer loop
      vertex -3.46154 57 0
      vertex 0.65 7 0
      vertex -0.65 7 0
    endloop
  endfacet
  facet normal 0 0 -1
    outer loop
      vertex -3.46154 57 0
      vertex -0.65 7 0
      vertex -3.46154 7 0
    endloop
  endfacet
  facet normal 0 0 -1
    outer loop
      vertex 0.65 7 0
      vertex -3.46154 57 0
      vertex 11.5385 57 0
    endloop
  endfacet
  facet normal 0 0 -1
    outer loop
      vertex -47.6327 -31.4978 0
      vertex -6.38718 -2.93708 0
      vertex -5.73718 -4.06292 0
    endloop
  endfacet
  facet normal 0 0 -1
    outer loop
      vertex -47.6327 -31.4978 0
      vertex -5.73718 -4.06292 0
      vertex -4.33141 -6.49778 0
    endloop
  endfacet
  facet normal 0 0 -1
    outer loop
      vertex -6.38718 -2.93708 0
      vertex -47.6327 -31.4978 0
      vertex -55.1327 -18.5074 0
    endloop
  endfacet
  facet normal -0 0 -1
    outer loop
      vertex -6.38718 -2.93708 0
      vertex -55.1327 -18.5074 0
      vertex -11.8314 6.4926 0
    endloop
  endfacet
  facet normal 0 0 -1
    outer loop
      vertex -5.73718 -4.06292 0
      vertex -0.65 0.375277 0
      vertex -1.22001e-16 -0.750555 0
    endloop
  endfacet
  facet normal 0 0 -1
    outer loop
      vertex -0.65 0.375277 0
      vertex -5.73718 -4.06292 0
      vertex -6.38718 -2.93708 0
    endloop
  endfacet
  facet normal 0.251633 0 0.967823
    outer loop
      vertex 11.5385 57 0
      vertex 0.65 7 2.831
      vertex 11.5385 7 0
    endloop
  endfacet
  facet normal 0.251633 -1.09041e-08 0.967823
    outer loop
      vertex 0 57 3
      vertex 0.65 7 2.831
      vertex 11.5385 57 0
    endloop
  endfacet
  facet normal 0.251634 5.35596e-20 0.967823
    outer loop
      vertex 0.65 7 2.831
      vertex 0 57 3
      vertex 0 7 3
    endloop
  endfacet
  facet normal 0 1 0
    outer loop
      vertex 0.65 7 3
      vertex 0.65 7 2.831
      vertex 0 7 3
    endloop
  endfacet
  facet normal 0 -1 -0
    outer loop
      vertex -0.65 7 2.43667
      vertex -3.46154 7 0
      vertex -0.65 7 0
    endloop
  endfacet
  facet normal 0 -1 0
    outer loop
      vertex 0.65 7 2.831
      vertex 0.65 7 0
      vertex 11.5385 7 0
    endloop
  endfacet
  facet normal -0 1 0
    outer loop
      vertex -0.65 7 3
      vertex 0 7 3
      vertex -0.65 7 2.43667
    endloop
  endfacet
  facet normal -0.654928 0 0.755691
    outer loop
      vertex 0 57 3
      vertex -0.65 7 2.43667
      vertex 0 7 3
    endloop
  endfacet
  facet normal -0.65493 4.65952e-08 0.755689
    outer loop
      vertex -3.46154 57 0
      vertex -0.65 7 2.43667
      vertex 0 57 3
    endloop
  endfacet
  facet normal -0.654931 -1.23594e-18 0.755689
    outer loop
      vertex -0.65 7 2.43667
      vertex -3.46154 57 0
      vertex -3.46154 7 0
    endloop
  endfacet
  facet normal -1 0 0
    outer loop
      vertex -0.65 0.375277 0
      vertex -0.65 7 2.43667
      vertex -0.65 7 0
    endloop
  endfacet
  facet normal -1 0 0
    outer loop
      vertex -0.65 0.375277 3
      vertex -0.65 7 2.43667
      vertex -0.65 0.375277 0
    endloop
  endfacet
  facet normal -1 0 0
    outer loop
      vertex -0.65 7 2.43667
      vertex -0.65 0.375277 3
      vertex -0.65 7 3
    endloop
  endfacet
  facet normal 0 0 1
    outer loop
      vertex 0.65 7 3
      vertex 0 7 3
      vertex 0.65 0.375277 3
    endloop
  endfacet
  facet normal 0 0 1
    outer loop
      vertex 0.65 0.375277 3
      vertex 6.06218 -3.5 3
      vertex 6.38718 -2.93708 3
    endloop
  endfacet
  facet normal -0 0 1
    outer loop
      vertex -1.22001e-16 -0.750555 3
      vertex 6.06218 -3.5 3
      vertex 0.65 0.375277 3
    endloop
  endfacet
  facet normal 0 0 1
    outer loop
      vertex 6.06218 -3.5 3
      vertex -1.22001e-16 -0.750555 3
      vertex 5.73718 -4.06292 3
    endloop
  endfacet
  facet normal 0 0 1
    outer loop
      vertex -0.65 0.375277 3
      vertex 0.65 0.375277 3
      vertex 0 7 3
    endloop
  endfacet
  facet normal 0 0 1
    outer loop
      vertex -0.65 0.375277 3
      vertex 0 7 3
      vertex -0.65 7 3
    endloop
  endfacet
  facet normal 0 0 1
    outer loop
      vertex 0.65 0.375277 3
      vertex -0.65 0.375277 3
      vertex -1.22001e-16 -0.750555 3
    endloop
  endfacet
  facet normal 0 0 1
    outer loop
      vertex -6.06218 -3.5 3
      vertex -1.22001e-16 -0.750555 3
      vertex -0.65 0.375277 3
    endloop
  endfacet
  facet normal 0 0 1
    outer loop
      vertex -1.22001e-16 -0.750555 3
      vertex -6.06218 -3.5 3
      vertex -5.73718 -4.06292 3
    endloop
  endfacet
  facet normal 0 -0 1
    outer loop
      vertex -6.06218 -3.5 3
      vertex -0.65 0.375277 3
      vertex -6.38718 -2.93708 3
    endloop
  endfacet
  facet normal 1 -0 0
    outer loop
      vertex 0.65 0.375277 3
      vertex 0.65 7 2.831
      vertex 0.65 7 3
    endloop
  endfacet
  facet normal 1 0 0
    outer loop
      vertex 0.65 0.375277 0
      vertex 0.65 7 2.831
      vertex 0.65 0.375277 3
    endloop
  endfacet
  facet normal 1 0 0
    outer loop
      vertex 0.65 7 2.831
      vertex 0.65 0.375277 0
      vertex 0.65 7 0
    endloop
  endfacet
  facet normal -0.866026 -0.499999 2.25493e-05
    outer loop
      vertex -49.3634 -28.5 3
      vertex -55.1327 -18.5074 0
      vertex -47.6327 -31.4978 0
    endloop
  endfacet
  facet normal -0.125817 0.217922 0.967822
    outer loop
      vertex -55.1327 -18.5074 0
      vertex -6.38718 -2.93708 2.831
      vertex -11.8314 6.4926 0
    endloop
  endfacet
  facet normal -0.125816 0.21792 0.967823
    outer loop
      vertex -6.38718 -2.93708 2.831
      vertex -49.3634 -28.5 3
      vertex -6.06218 -3.5 3
    endloop
  endfacet
  facet normal -0.125817 0.217921 0.967823
    outer loop
      vertex -6.38718 -2.93708 2.831
      vertex -55.1327 -18.5074 0
      vertex -49.3634 -28.5 3
    endloop
  endfacet
  facet normal -0.866027 -0.499998 1.00388e-16
    outer loop
      vertex -6.06218 -3.5 3
      vertex -6.38718 -2.93708 3
      vertex -6.38718 -2.93708 2.831
    endloop
  endfacet
  facet normal 0.866025 0.500001 2.67412e-17
    outer loop
      vertex -4.33141 -6.49778 0
      vertex -5.73718 -4.06292 0
      vertex -5.73718 -4.06292 2.43667
    endloop
  endfacet
  facet normal 0.866026 0.499999 -0
    outer loop
      vertex -6.38718 -2.93708 0
      vertex -11.8314 6.4926 0
      vertex -6.38718 -2.93708 2.831
    endloop
  endfacet
  facet normal -0.866027 -0.499998 0
    outer loop
      vertex -5.73718 -4.06292 2.43667
      vertex -5.73718 -4.06292 3
      vertex -6.06218 -3.5 3
    endloop
  endfacet
  facet normal 0.327466 -0.567187 0.755688
    outer loop
      vertex -5.73718 -4.06292 2.43667
      vertex -47.6327 -31.4978 0
      vertex -4.33141 -6.49778 0
    endloop
  endfacet
  facet normal 0.327464 -0.567183 0.755693
    outer loop
      vertex -49.3634 -28.5 3
      vertex -5.73718 -4.06292 2.43667
      vertex -6.06218 -3.5 3
    endloop
  endfacet
  facet normal 0.327466 -0.567188 0.755687
    outer loop
      vertex -5.73718 -4.06292 2.43667
      vertex -49.3634 -28.5 3
      vertex -47.6327 -31.4978 0
    endloop
  endfacet
  facet normal 0.5 -0.866025 0
    outer loop
      vertex -5.73718 -4.06292 2.43667
      vertex -1.22001e-16 -0.750555 3
      vertex -5.73718 -4.06292 3
    endloop
  endfacet
  facet normal 0.5 -0.866025 8.35899e-17
    outer loop
      vertex -1.22001e-16 -0.750555 0
      vertex -5.73718 -4.06292 2.43667
      vertex -5.73718 -4.06292 0
    endloop
  endfacet
  facet normal 0.5 -0.866025 6.78936e-17
    outer loop
      vertex -5.73718 -4.06292 2.43667
      vertex -1.22001e-16 -0.750555 0
      vertex -1.22001e-16 -0.750555 3
    endloop
  endfacet
  facet normal -0.499999 0.866026 3.22046e-16
    outer loop
      vertex -0.65 0.375277 3
      vertex -6.38718 -2.93708 2.831
      vertex -6.38718 -2.93708 3
    endloop
  endfacet
  facet normal -0.499999 0.866026 0
    outer loop
      vertex -0.65 0.375277 0
      vertex -6.38718 -2.93708 2.831
      vertex -0.65 0.375277 3
    endloop
  endfacet
  facet normal -0.499999 0.866026 0
    outer loop
      vertex -6.38718 -2.93708 2.831
      vertex -0.65 0.375277 0
      vertex -6.38718 -2.93708 0
    endloop
  endfacet
  facet normal 0.866026 -0.499999 6.31822e-06
    outer loop
      vertex 49.3634 -28.5 3
      vertex 43.5942 -38.4926 0
      vertex 51.0942 -25.5022 0
    endloop
  endfacet
  facet normal -0.125816 -0.21792 0.967823
    outer loop
      vertex 5.73718 -4.06292 2.831
      vertex 49.3634 -28.5 3
      vertex 6.06218 -3.5 3
    endloop
  endfacet
  facet normal -0.125817 -0.217922 0.967822
    outer loop
      vertex 49.3634 -28.5 3
      vertex 5.73718 -4.06292 2.831
      vertex 43.5942 -38.4926 0
    endloop
  endfacet
  facet normal -0.125817 -0.217921 0.967822
    outer loop
      vertex 43.5942 -38.4926 0
      vertex 5.73718 -4.06292 2.831
      vertex 0.292947 -13.4926 0
    endloop
  endfacet
  facet normal 0.866027 -0.499998 -1.03783e-16
    outer loop
      vertex 6.06218 -3.5 3
      vertex 5.73718 -4.06292 3
      vertex 5.73718 -4.06292 2.831
    endloop
  endfacet
  facet normal -0.866025 0.500001 -4.37962e-19
    outer loop
      vertex 7.79295 -0.50222 0
      vertex 6.38718 -2.93708 0
      vertex 6.38718 -2.93708 2.43667
    endloop
  endfacet
  facet normal -0.866025 0.5 0
    outer loop
      vertex 5.73718 -4.06292 0
      vertex 0.292947 -13.4926 0
      vertex 5.73718 -4.06292 2.831
    endloop
  endfacet
  facet normal 0.866027 -0.499998 0
    outer loop
      vertex 6.38718 -2.93708 2.43667
      vertex 6.38718 -2.93708 3
      vertex 6.06218 -3.5 3
    endloop
  endfacet
  facet normal 0.327466 0.567187 0.755688
    outer loop
      vertex 6.38718 -2.93708 2.43667
      vertex 51.0942 -25.5022 0
      vertex 7.79295 -0.50222 0
    endloop
  endfacet
  facet normal 0.327464 0.567183 0.755692
    outer loop
      vertex 51.0942 -25.5022 0
      vertex 6.38718 -2.93708 2.43667
      vertex 49.3634 -28.5 3
    endloop
  endfacet
  facet normal 0.327464 0.567183 0.755693
    outer loop
      vertex 49.3634 -28.5 3
      vertex 6.38718 -2.93708 2.43667
      vertex 6.06218 -3.5 3
    endloop
  endfacet
  facet normal 0.499999 0.866026 -0
    outer loop
      vertex 6.38718 -2.93708 2.43667
      vertex 0.65 0.375277 3
      vertex 6.38718 -2.93708 3
    endloop
  endfacet
  facet normal 0.499999 0.866026 -2.23362e-17
    outer loop
      vertex 0.65 0.375277 0
      vertex 6.38718 -2.93708 2.43667
      vertex 6.38718 -2.93708 0
    endloop
  endfacet
  facet normal 0.499999 0.866026 -1.8142e-17
    outer loop
      vertex 6.38718 -2.93708 2.43667
      vertex 0.65 0.375277 0
      vertex 0.65 0.375277 3
    endloop
  endfacet
  facet normal -0.5 -0.866025 -1.20521e-15
    outer loop
      vertex -1.22001e-16 -0.750555 3
      vertex 5.73718 -4.06292 2.831
      vertex 5.73718 -4.06292 3
    endloop
  endfacet
  facet normal -0.5 -0.866025 0
    outer loop
      vertex -1.22001e-16 -0.750555 0
      vertex 5.73718 -4.06292 2.831
      vertex -1.22001e-16 -0.750555 3
    endloop
  endfacet
  facet normal -0.5 -0.866025 -0
    outer loop
      vertex 5.73718 -4.06292 2.831
      vertex -1.22001e-16 -0.750555 0
      vertex 5.73718 -4.06292 0
    endloop
  endfacet
endsolid OpenSCAD_Model
