solid OpenSCAD_Model
  facet normal -1 0 0
    outer loop
      vertex 0 0 0
      vertex 0 30 4
      vertex 0 30 0
    endloop
  endfacet
  facet normal -1 -0 0
    outer loop
      vertex 0 30 4
      vertex 0 0 0
      vertex 0 0 4
    endloop
  endfacet
  facet normal 0 0 1
    outer loop
      vertex 30 30 4
      vertex 29 29 4
      vertex 30 0 4
    endloop
  endfacet
  facet normal 0 0 1
    outer loop
      vertex 30 30 4
      vertex 1 29 4
      vertex 29 29 4
    endloop
  endfacet
  facet normal 0 0 1
    outer loop
      vertex 1 29 4
      vertex 0 30 4
      vertex 1 1 4
    endloop
  endfacet
  facet normal -0 0 1
    outer loop
      vertex 0 30 4
      vertex 1 29 4
      vertex 30 30 4
    endloop
  endfacet
  facet normal -0 0 1
    outer loop
      vertex 29 1 4
      vertex 30 0 4
      vertex 29 29 4
    endloop
  endfacet
  facet normal -0 0 1
    outer loop
      vertex 1 1 4
      vertex 30 0 4
      vertex 29 1 4
    endloop
  endfacet
  facet normal 0 0 1
    outer loop
      vertex 1 1 4
      vertex 0 0 4
      vertex 30 0 4
    endloop
  endfacet
  facet normal 0 0 1
    outer loop
      vertex 0 0 4
      vertex 1 1 4
      vertex 0 30 4
    endloop
  endfacet
  facet normal 1 -0 0
    outer loop
      vertex 30 0 4
      vertex 30 30 0
      vertex 30 30 4
    endloop
  endfacet
  facet normal 1 0 0
    outer loop
      vertex 30 30 0
      vertex 30 0 4
      vertex 30 0 0
    endloop
  endfacet
  facet normal 0 1 -0
    outer loop
      vertex 30 30 0
      vertex 0 30 4
      vertex 30 30 4
    endloop
  endfacet
  facet normal 0 1 0
    outer loop
      vertex 0 30 4
      vertex 30 30 0
      vertex 0 30 0
    endloop
  endfacet
  facet normal 0 0 -1
    outer loop
      vertex 30 0 0
      vertex 29 1 0
      vertex 30 30 0
    endloop
  endfacet
  facet normal 0 0 -1
    outer loop
      vertex 30 0 0
      vertex 1 1 0
      vertex 29 1 0
    endloop
  endfacet
  facet normal -0 0 -1
    outer loop
      vertex 1 1 0
      vertex 0 0 0
      vertex 1 29 0
    endloop
  endfacet
  facet normal 0 0 -1
    outer loop
      vertex 0 0 0
      vertex 1 1 0
      vertex 30 0 0
    endloop
  endfacet
  facet normal 0 0 -1
    outer loop
      vertex 29 29 0
      vertex 30 30 0
      vertex 29 1 0
    endloop
  endfacet
  facet normal 0 0 -1
    outer loop
      vertex 1 29 0
      vertex 30 30 0
      vertex 29 29 0
    endloop
  endfacet
  facet normal 0 0 -1
    outer loop
      vertex 1 29 0
      vertex 0 30 0
      vertex 30 30 0
    endloop
  endfacet
  facet normal 0 0 -1
    outer loop
      vertex 0 30 0
      vertex 1 29 0
      vertex 0 0 0
    endloop
  endfacet
  facet normal 0 -1 0
    outer loop
      vertex 0 0 0
      vertex 30 0 4
      vertex 0 0 4
    endloop
  endfacet
  facet normal 0 -1 -0
    outer loop
      vertex 30 0 4
      vertex 0 0 0
      vertex 30 0 0
    endloop
  endfacet
  facet normal 1 -0 0
    outer loop
      vertex 1 1 4
      vertex 1 29 0
      vertex 1 29 4
    endloop
  endfacet
  facet normal 1 0 0
    outer loop
      vertex 1 29 0
      vertex 1 1 4
      vertex 1 1 0
    endloop
  endfacet
  facet normal -1 0 0
    outer loop
      vertex 29 1 0
      vertex 29 29 4
      vertex 29 29 0
    endloop
  endfacet
  facet normal -1 -0 0
    outer loop
      vertex 29 29 4
      vertex 29 1 0
      vertex 29 1 4
    endloop
  endfacet
  facet normal 0 -1 0
    outer loop
      vertex 1 29 0
      vertex 29 29 4
      vertex 1 29 4
    endloop
  endfacet
  facet normal 0 -1 -0
    outer loop
      vertex 29 29 4
      vertex 1 29 0
      vertex 29 29 0
    endloop
  endfacet
  facet normal 0 1 -0
    outer loop
      vertex 29 1 0
      vertex 1 1 4
      vertex 29 1 4
    endloop
  endfacet
  facet normal 0 1 0
    outer loop
      vertex 1 1 4
      vertex 29 1 0
      vertex 1 1 0
    endloop
  endfacet
endsolid OpenSCAD_Model
