solid OpenSCAD_Model
  facet normal 0.139958 -0.613186 -0.777441
    outer loop
      vertex 9.32304 -11.6907 2
      vertex -2.71677 -11.903 0
      vertex 7.61224 -9.54544 0
    endloop
  endfacet
  facet normal 0.566668 -0.272894 -0.777442
    outer loop
      vertex 9.32304 -11.6907 2
      vertex 7.61224 -9.54544 0
      vertex 12.2091 0 0
    endloop
  endfacet
  facet normal -0 0 -1
    outer loop
      vertex 12.2091 0 0
      vertex 9.98993 -0.448647 0
      vertex 10 0 0
    endloop
  endfacet
  facet normal 0 0 -1
    outer loop
      vertex 12.2091 0 0
      vertex 9.95974 -0.896393 0
      vertex 9.98993 -0.448647 0
    endloop
  endfacet
  facet normal 0 0 -1
    outer loop
      vertex 12.2091 0 0
      vertex 9.9095 -1.34233 0
      vertex 9.95974 -0.896393 0
    endloop
  endfacet
  facet normal 0 0 -1
    outer loop
      vertex 12.2091 0 0
      vertex 9.8393 -1.78557 0
      vertex 9.9095 -1.34233 0
    endloop
  endfacet
  facet normal 0 0 -1
    outer loop
      vertex 12.2091 0 0
      vertex 9.74928 -2.22521 0
      vertex 9.8393 -1.78557 0
    endloop
  endfacet
  facet normal 0 0 -1
    outer loop
      vertex 12.2091 0 0
      vertex 9.63963 -2.66037 0
      vertex 9.74928 -2.22521 0
    endloop
  endfacet
  facet normal 0 0 -1
    outer loop
      vertex 12.2091 0 0
      vertex 9.51056 -3.09017 0
      vertex 9.63963 -2.66037 0
    endloop
  endfacet
  facet normal 0 0 -1
    outer loop
      vertex 12.2091 0 0
      vertex 9.36235 -3.51375 0
      vertex 9.51056 -3.09017 0
    endloop
  endfacet
  facet normal 0 0 -1
    outer loop
      vertex 12.2091 0 0
      vertex 9.19528 -3.93025 0
      vertex 9.36235 -3.51375 0
    endloop
  endfacet
  facet normal 0 0 -1
    outer loop
      vertex 12.2091 0 0
      vertex 9.00969 -4.33884 0
      vertex 9.19528 -3.93025 0
    endloop
  endfacet
  facet normal 0 0 -1
    outer loop
      vertex 7.61224 -9.54544 0
      vertex 9.00969 -4.33884 0
      vertex 12.2091 0 0
    endloop
  endfacet
  facet normal 0 0 -1
    outer loop
      vertex 9.00969 -4.33884 0
      vertex 7.61224 -9.54544 0
      vertex 8.80595 -4.73869 0
    endloop
  endfacet
  facet normal 0 0 -1
    outer loop
      vertex 8.80595 -4.73869 0
      vertex 7.61224 -9.54544 0
      vertex 8.58449 -5.12899 0
    endloop
  endfacet
  facet normal 0 0 -1
    outer loop
      vertex 8.58449 -5.12899 0
      vertex 7.61224 -9.54544 0
      vertex 8.34573 -5.50897 0
    endloop
  endfacet
  facet normal 0 0 -1
    outer loop
      vertex 8.34573 -5.50897 0
      vertex 7.61224 -9.54544 0
      vertex 8.09017 -5.87785 0
    endloop
  endfacet
  facet normal 0 0 -1
    outer loop
      vertex 7.61224 -9.54544 0
      vertex 7.81831 -6.2349 0
      vertex 8.09017 -5.87785 0
    endloop
  endfacet
  facet normal 0 0 -1
    outer loop
      vertex 7.61224 -9.54544 0
      vertex 7.53071 -6.57939 0
      vertex 7.81831 -6.2349 0
    endloop
  endfacet
  facet normal 0 0 -1
    outer loop
      vertex 7.61224 -9.54544 0
      vertex 7.22795 -6.91063 0
      vertex 7.53071 -6.57939 0
    endloop
  endfacet
  facet normal 0 0 -1
    outer loop
      vertex 7.61224 -9.54544 0
      vertex 6.91063 -7.22795 0
      vertex 7.22795 -6.91063 0
    endloop
  endfacet
  facet normal 0 0 -1
    outer loop
      vertex 7.61224 -9.54544 0
      vertex 6.57939 -7.53071 0
      vertex 6.91063 -7.22795 0
    endloop
  endfacet
  facet normal 0 0 -1
    outer loop
      vertex 7.61224 -9.54544 0
      vertex 6.2349 -7.81831 0
      vertex 6.57939 -7.53071 0
    endloop
  endfacet
  facet normal 0 0 -1
    outer loop
      vertex 7.61224 -9.54544 0
      vertex 5.87785 -8.09017 0
      vertex 6.2349 -7.81831 0
    endloop
  endfacet
  facet normal 0 0 -1
    outer loop
      vertex 7.61224 -9.54544 0
      vertex 5.50897 -8.34573 0
      vertex 5.87785 -8.09017 0
    endloop
  endfacet
  facet normal 0 0 -1
    outer loop
      vertex 7.61224 -9.54544 0
      vertex 5.12899 -8.58449 0
      vertex 5.50897 -8.34573 0
    endloop
  endfacet
  facet normal 0 0 -1
    outer loop
      vertex 7.61224 -9.54544 0
      vertex 4.73869 -8.80595 0
      vertex 5.12899 -8.58449 0
    endloop
  endfacet
  facet normal 0 0 -1
    outer loop
      vertex 7.61224 -9.54544 0
      vertex 4.33884 -9.00969 0
      vertex 4.73869 -8.80595 0
    endloop
  endfacet
  facet normal 0 0 -1
    outer loop
      vertex 7.61224 -9.54544 0
      vertex 3.93025 -9.19528 0
      vertex 4.33884 -9.00969 0
    endloop
  endfacet
  facet normal 0 0 -1
    outer loop
      vertex 7.61224 -9.54544 0
      vertex 3.51375 -9.36235 0
      vertex 3.93025 -9.19528 0
    endloop
  endfacet
  facet normal 0 0 -1
    outer loop
      vertex 7.61224 -9.54544 0
      vertex 3.09017 -9.51056 0
      vertex 3.51375 -9.36235 0
    endloop
  endfacet
  facet normal -0 0 -1
    outer loop
      vertex 7.61224 -9.54544 0
      vertex 2.66037 -9.63963 0
      vertex 3.09017 -9.51056 0
    endloop
  endfacet
  facet normal 0 0 -1
    outer loop
      vertex 7.61224 -9.54544 0
      vertex 2.22521 -9.74928 0
      vertex 2.66037 -9.63963 0
    endloop
  endfacet
  facet normal 0 0 -1
    outer loop
      vertex -2.71677 -11.903 0
      vertex 2.22521 -9.74928 0
      vertex 7.61224 -9.54544 0
    endloop
  endfacet
  facet normal 0 0 -1
    outer loop
      vertex 2.22521 -9.74928 0
      vertex -2.71677 -11.903 0
      vertex 1.78557 -9.8393 0
    endloop
  endfacet
  facet normal 0 0 -1
    outer loop
      vertex 1.78557 -9.8393 0
      vertex -2.71677 -11.903 0
      vertex 1.34233 -9.9095 0
    endloop
  endfacet
  facet normal 0 0 -1
    outer loop
      vertex 1.34233 -9.9095 0
      vertex -2.71677 -11.903 0
      vertex 0.896393 -9.95974 0
    endloop
  endfacet
  facet normal 0 0 -1
    outer loop
      vertex 0.896393 -9.95974 0
      vertex -2.71677 -11.903 0
      vertex 0.448647 -9.98993 0
    endloop
  endfacet
  facet normal 0 0 -1
    outer loop
      vertex -2.71677 -11.903 0
      vertex 0 -10 0
      vertex 0.448647 -9.98993 0
    endloop
  endfacet
  facet normal 0 0 -1
    outer loop
      vertex -2.71677 -11.903 0
      vertex -0.448647 -9.98993 0
      vertex 0 -10 0
    endloop
  endfacet
  facet normal 0 0 -1
    outer loop
      vertex -2.71677 -11.903 0
      vertex -0.896393 -9.95974 0
      vertex -0.448647 -9.98993 0
    endloop
  endfacet
  facet normal 0 0 -1
    outer loop
      vertex -2.71677 -11.903 0
      vertex -1.34233 -9.9095 0
      vertex -0.896393 -9.95974 0
    endloop
  endfacet
  facet normal 0 0 -1
    outer loop
      vertex -2.71677 -11.903 0
      vertex -1.78557 -9.8393 0
      vertex -1.34233 -9.9095 0
    endloop
  endfacet
  facet normal 0 0 -1
    outer loop
      vertex -2.71677 -11.903 0
      vertex -2.22521 -9.74928 0
      vertex -1.78557 -9.8393 0
    endloop
  endfacet
  facet normal 0 0 -1
    outer loop
      vertex -2.71677 -11.903 0
      vertex -2.66037 -9.63963 0
      vertex -2.22521 -9.74928 0
    endloop
  endfacet
  facet normal 0 0 -1
    outer loop
      vertex -2.71677 -11.903 0
      vertex -3.09017 -9.51056 0
      vertex -2.66037 -9.63963 0
    endloop
  endfacet
  facet normal 0 0 -1
    outer loop
      vertex -2.71677 -11.903 0
      vertex -3.51375 -9.36235 0
      vertex -3.09017 -9.51056 0
    endloop
  endfacet
  facet normal 0 0 -1
    outer loop
      vertex -2.71677 -11.903 0
      vertex -3.93025 -9.19528 0
      vertex -3.51375 -9.36235 0
    endloop
  endfacet
  facet normal 0 0 -1
    outer loop
      vertex -2.71677 -11.903 0
      vertex -4.33884 -9.00969 0
      vertex -3.93025 -9.19528 0
    endloop
  endfacet
  facet normal 0 0 -1
    outer loop
      vertex -2.71677 -11.903 0
      vertex -4.73869 -8.80595 0
      vertex -4.33884 -9.00969 0
    endloop
  endfacet
  facet normal 0 0 -1
    outer loop
      vertex -2.71677 -11.903 0
      vertex -5.12899 -8.58449 0
      vertex -4.73869 -8.80595 0
    endloop
  endfacet
  facet normal 0 0 -1
    outer loop
      vertex -2.71677 -11.903 0
      vertex -5.50897 -8.34573 0
      vertex -5.12899 -8.58449 0
    endloop
  endfacet
  facet normal 0 0 -1
    outer loop
      vertex -2.71677 -11.903 0
      vertex -5.87785 -8.09017 0
      vertex -5.50897 -8.34573 0
    endloop
  endfacet
  facet normal 0 0 -1
    outer loop
      vertex -2.71677 -11.903 0
      vertex -6.2349 -7.81831 0
      vertex -5.87785 -8.09017 0
    endloop
  endfacet
  facet normal 0 0 -1
    outer loop
      vertex -11 -5.29732 0
      vertex -6.2349 -7.81831 0
      vertex -2.71677 -11.903 0
    endloop
  endfacet
  facet normal 0 0 -1
    outer loop
      vertex -6.2349 -7.81831 0
      vertex -11 -5.29732 0
      vertex -6.57939 -7.53071 0
    endloop
  endfacet
  facet normal 0 0 -1
    outer loop
      vertex -6.57939 -7.53071 0
      vertex -11 -5.29732 0
      vertex -6.91063 -7.22795 0
    endloop
  endfacet
  facet normal 0 0 -1
    outer loop
      vertex -6.91063 -7.22795 0
      vertex -11 -5.29732 0
      vertex -7.22795 -6.91063 0
    endloop
  endfacet
  facet normal -0 0 -1
    outer loop
      vertex -9.98993 -0.448647 0
      vertex -11 -5.29732 0
      vertex -10 0 0
    endloop
  endfacet
  facet normal -0 0 -1
    outer loop
      vertex -9.95974 -0.896393 0
      vertex -11 -5.29732 0
      vertex -9.98993 -0.448647 0
    endloop
  endfacet
  facet normal -0 0 -1
    outer loop
      vertex -9.9095 -1.34233 0
      vertex -11 -5.29732 0
      vertex -9.95974 -0.896393 0
    endloop
  endfacet
  facet normal -0 0 -1
    outer loop
      vertex -9.8393 -1.78557 0
      vertex -11 -5.29732 0
      vertex -9.9095 -1.34233 0
    endloop
  endfacet
  facet normal -0 0 -1
    outer loop
      vertex -9.74928 -2.22521 0
      vertex -11 -5.29732 0
      vertex -9.8393 -1.78557 0
    endloop
  endfacet
  facet normal -0 0 -1
    outer loop
      vertex -9.63963 -2.66037 0
      vertex -11 -5.29732 0
      vertex -9.74928 -2.22521 0
    endloop
  endfacet
  facet normal -0 0 -1
    outer loop
      vertex -9.51056 -3.09017 0
      vertex -11 -5.29732 0
      vertex -9.63963 -2.66037 0
    endloop
  endfacet
  facet normal -0 0 -1
    outer loop
      vertex -9.36235 -3.51375 0
      vertex -11 -5.29732 0
      vertex -9.51056 -3.09017 0
    endloop
  endfacet
  facet normal -0 0 -1
    outer loop
      vertex -9.19528 -3.93025 0
      vertex -11 -5.29732 0
      vertex -9.36235 -3.51375 0
    endloop
  endfacet
  facet normal -0 0 -1
    outer loop
      vertex -9.00969 -4.33884 0
      vertex -11 -5.29732 0
      vertex -9.19528 -3.93025 0
    endloop
  endfacet
  facet normal -0 0 -1
    outer loop
      vertex -8.80595 -4.73869 0
      vertex -11 -5.29732 0
      vertex -9.00969 -4.33884 0
    endloop
  endfacet
  facet normal -0 0 -1
    outer loop
      vertex -8.58449 -5.12899 0
      vertex -11 -5.29732 0
      vertex -8.80595 -4.73869 0
    endloop
  endfacet
  facet normal 0 0 -1
    outer loop
      vertex -8.34573 -5.50897 0
      vertex -11 -5.29732 0
      vertex -8.58449 -5.12899 0
    endloop
  endfacet
  facet normal 0 0 -1
    outer loop
      vertex -8.09017 -5.87785 0
      vertex -11 -5.29732 0
      vertex -8.34573 -5.50897 0
    endloop
  endfacet
  facet normal 0 0 -1
    outer loop
      vertex -7.81831 -6.2349 0
      vertex -11 -5.29732 0
      vertex -8.09017 -5.87785 0
    endloop
  endfacet
  facet normal 0 0 -1
    outer loop
      vertex -7.53071 -6.57939 0
      vertex -11 -5.29732 0
      vertex -7.81831 -6.2349 0
    endloop
  endfacet
  facet normal 0 0 -1
    outer loop
      vertex -7.22795 -6.91063 0
      vertex -11 -5.29732 0
      vertex -7.53071 -6.57939 0
    endloop
  endfacet
  facet normal 0 0 -1
    outer loop
      vertex 9.98993 0.448647 0
      vertex 12.2091 0 0
      vertex 10 0 0
    endloop
  endfacet
  facet normal 0 0 -1
    outer loop
      vertex 9.95974 0.896393 0
      vertex 12.2091 0 0
      vertex 9.98993 0.448647 0
    endloop
  endfacet
  facet normal 0 0 -1
    outer loop
      vertex 9.9095 1.34233 0
      vertex 12.2091 0 0
      vertex 9.95974 0.896393 0
    endloop
  endfacet
  facet normal 0 0 -1
    outer loop
      vertex 9.8393 1.78557 0
      vertex 12.2091 0 0
      vertex 9.9095 1.34233 0
    endloop
  endfacet
  facet normal 0 0 -1
    outer loop
      vertex 9.74928 2.22521 0
      vertex 12.2091 0 0
      vertex 9.8393 1.78557 0
    endloop
  endfacet
  facet normal 0 0 -1
    outer loop
      vertex 9.63963 2.66037 0
      vertex 12.2091 0 0
      vertex 9.74928 2.22521 0
    endloop
  endfacet
  facet normal 0 0 -1
    outer loop
      vertex 9.51056 3.09017 0
      vertex 12.2091 0 0
      vertex 9.63963 2.66037 0
    endloop
  endfacet
  facet normal 0 0 -1
    outer loop
      vertex 9.36235 3.51375 0
      vertex 12.2091 0 0
      vertex 9.51056 3.09017 0
    endloop
  endfacet
  facet normal 0 0 -1
    outer loop
      vertex 9.19528 3.93025 0
      vertex 12.2091 0 0
      vertex 9.36235 3.51375 0
    endloop
  endfacet
  facet normal 0 0 -1
    outer loop
      vertex 9.00969 4.33884 0
      vertex 12.2091 0 0
      vertex 9.19528 3.93025 0
    endloop
  endfacet
  facet normal 0 0 -1
    outer loop
      vertex 7.61224 9.54544 0
      vertex 9.00969 4.33884 0
      vertex 8.80595 4.73869 0
    endloop
  endfacet
  facet normal 0 0 -1
    outer loop
      vertex 7.61224 9.54544 0
      vertex 8.80595 4.73869 0
      vertex 8.58449 5.12899 0
    endloop
  endfacet
  facet normal 0 0 -1
    outer loop
      vertex 7.61224 9.54544 0
      vertex 8.58449 5.12899 0
      vertex 8.34573 5.50897 0
    endloop
  endfacet
  facet normal 0 0 -1
    outer loop
      vertex 7.61224 9.54544 0
      vertex 8.34573 5.50897 0
      vertex 8.09017 5.87785 0
    endloop
  endfacet
  facet normal 0 0 -1
    outer loop
      vertex 9.00969 4.33884 0
      vertex 7.61224 9.54544 0
      vertex 12.2091 0 0
    endloop
  endfacet
  facet normal 0 0 -1
    outer loop
      vertex 7.81831 6.2349 0
      vertex 7.61224 9.54544 0
      vertex 8.09017 5.87785 0
    endloop
  endfacet
  facet normal 0 0 -1
    outer loop
      vertex 7.53071 6.57939 0
      vertex 7.61224 9.54544 0
      vertex 7.81831 6.2349 0
    endloop
  endfacet
  facet normal 0 0 -1
    outer loop
      vertex 7.22795 6.91063 0
      vertex 7.61224 9.54544 0
      vertex 7.53071 6.57939 0
    endloop
  endfacet
  facet normal 0 0 -1
    outer loop
      vertex 6.91063 7.22795 0
      vertex 7.61224 9.54544 0
      vertex 7.22795 6.91063 0
    endloop
  endfacet
  facet normal 0 0 -1
    outer loop
      vertex 6.57939 7.53071 0
      vertex 7.61224 9.54544 0
      vertex 6.91063 7.22795 0
    endloop
  endfacet
  facet normal 0 0 -1
    outer loop
      vertex 6.2349 7.81831 0
      vertex 7.61224 9.54544 0
      vertex 6.57939 7.53071 0
    endloop
  endfacet
  facet normal 0 0 -1
    outer loop
      vertex 5.87785 8.09017 0
      vertex 7.61224 9.54544 0
      vertex 6.2349 7.81831 0
    endloop
  endfacet
  facet normal 0 0 -1
    outer loop
      vertex 5.50897 8.34573 0
      vertex 7.61224 9.54544 0
      vertex 5.87785 8.09017 0
    endloop
  endfacet
  facet normal 0 0 -1
    outer loop
      vertex 5.12899 8.58449 0
      vertex 7.61224 9.54544 0
      vertex 5.50897 8.34573 0
    endloop
  endfacet
  facet normal 0 0 -1
    outer loop
      vertex 4.73869 8.80595 0
      vertex 7.61224 9.54544 0
      vertex 5.12899 8.58449 0
    endloop
  endfacet
  facet normal 0 0 -1
    outer loop
      vertex 4.33884 9.00969 0
      vertex 7.61224 9.54544 0
      vertex 4.73869 8.80595 0
    endloop
  endfacet
  facet normal 0 0 -1
    outer loop
      vertex 3.93025 9.19528 0
      vertex 7.61224 9.54544 0
      vertex 4.33884 9.00969 0
    endloop
  endfacet
  facet normal 0 0 -1
    outer loop
      vertex 3.51375 9.36235 0
      vertex 7.61224 9.54544 0
      vertex 3.93025 9.19528 0
    endloop
  endfacet
  facet normal 0 0 -1
    outer loop
      vertex 3.09017 9.51056 0
      vertex 7.61224 9.54544 0
      vertex 3.51375 9.36235 0
    endloop
  endfacet
  facet normal 0 0 -1
    outer loop
      vertex 2.66037 9.63963 0
      vertex 7.61224 9.54544 0
      vertex 3.09017 9.51056 0
    endloop
  endfacet
  facet normal 0 0 -1
    outer loop
      vertex 2.22521 9.74928 0
      vertex 7.61224 9.54544 0
      vertex 2.66037 9.63963 0
    endloop
  endfacet
  facet normal 0 0 -1
    outer loop
      vertex -2.71677 11.903 0
      vertex 2.22521 9.74928 0
      vertex 1.78557 9.8393 0
    endloop
  endfacet
  facet normal 0 0 -1
    outer loop
      vertex -2.71677 11.903 0
      vertex 1.78557 9.8393 0
      vertex 1.34233 9.9095 0
    endloop
  endfacet
  facet normal 0 0 -1
    outer loop
      vertex -2.71677 11.903 0
      vertex 1.34233 9.9095 0
      vertex 0.896393 9.95974 0
    endloop
  endfacet
  facet normal 0 0 -1
    outer loop
      vertex -2.71677 11.903 0
      vertex 0.896393 9.95974 0
      vertex 0.448647 9.98993 0
    endloop
  endfacet
  facet normal 0 0 -1
    outer loop
      vertex 2.22521 9.74928 0
      vertex -2.71677 11.903 0
      vertex 7.61224 9.54544 0
    endloop
  endfacet
  facet normal 0 0 -1
    outer loop
      vertex 0 10 0
      vertex -2.71677 11.903 0
      vertex 0.448647 9.98993 0
    endloop
  endfacet
  facet normal 0 0 -1
    outer loop
      vertex -0.448647 9.98993 0
      vertex -2.71677 11.903 0
      vertex 0 10 0
    endloop
  endfacet
  facet normal 0 0 -1
    outer loop
      vertex -0.896393 9.95974 0
      vertex -2.71677 11.903 0
      vertex -0.448647 9.98993 0
    endloop
  endfacet
  facet normal 0 0 -1
    outer loop
      vertex -1.34233 9.9095 0
      vertex -2.71677 11.903 0
      vertex -0.896393 9.95974 0
    endloop
  endfacet
  facet normal 0 0 -1
    outer loop
      vertex -1.78557 9.8393 0
      vertex -2.71677 11.903 0
      vertex -1.34233 9.9095 0
    endloop
  endfacet
  facet normal 0 0 -1
    outer loop
      vertex -2.22521 9.74928 0
      vertex -2.71677 11.903 0
      vertex -1.78557 9.8393 0
    endloop
  endfacet
  facet normal 0 0 -1
    outer loop
      vertex -2.66037 9.63963 0
      vertex -2.71677 11.903 0
      vertex -2.22521 9.74928 0
    endloop
  endfacet
  facet normal 0 0 -1
    outer loop
      vertex -3.09017 9.51056 0
      vertex -2.71677 11.903 0
      vertex -2.66037 9.63963 0
    endloop
  endfacet
  facet normal 0 0 -1
    outer loop
      vertex -3.51375 9.36235 0
      vertex -2.71677 11.903 0
      vertex -3.09017 9.51056 0
    endloop
  endfacet
  facet normal 0 0 -1
    outer loop
      vertex -3.93025 9.19528 0
      vertex -2.71677 11.903 0
      vertex -3.51375 9.36235 0
    endloop
  endfacet
  facet normal 0 0 -1
    outer loop
      vertex -4.33884 9.00969 0
      vertex -2.71677 11.903 0
      vertex -3.93025 9.19528 0
    endloop
  endfacet
  facet normal 0 0 -1
    outer loop
      vertex -4.73869 8.80595 0
      vertex -2.71677 11.903 0
      vertex -4.33884 9.00969 0
    endloop
  endfacet
  facet normal 0 0 -1
    outer loop
      vertex -5.12899 8.58449 0
      vertex -2.71677 11.903 0
      vertex -4.73869 8.80595 0
    endloop
  endfacet
  facet normal 0 0 -1
    outer loop
      vertex -5.50897 8.34573 0
      vertex -2.71677 11.903 0
      vertex -5.12899 8.58449 0
    endloop
  endfacet
  facet normal 0 0 -1
    outer loop
      vertex -5.87785 8.09017 0
      vertex -2.71677 11.903 0
      vertex -5.50897 8.34573 0
    endloop
  endfacet
  facet normal 0 0 -1
    outer loop
      vertex -6.2349 7.81831 0
      vertex -2.71677 11.903 0
      vertex -5.87785 8.09017 0
    endloop
  endfacet
  facet normal 0 0 -1
    outer loop
      vertex -11 5.29732 0
      vertex -6.2349 7.81831 0
      vertex -6.57939 7.53071 0
    endloop
  endfacet
  facet normal 0 0 -1
    outer loop
      vertex -11 5.29732 0
      vertex -6.57939 7.53071 0
      vertex -6.91063 7.22795 0
    endloop
  endfacet
  facet normal 0 0 -1
    outer loop
      vertex -11 5.29732 0
      vertex -6.91063 7.22795 0
      vertex -7.22795 6.91063 0
    endloop
  endfacet
  facet normal 0 0 -1
    outer loop
      vertex -11 5.29732 0
      vertex -7.22795 6.91063 0
      vertex -7.53071 6.57939 0
    endloop
  endfacet
  facet normal 0 0 -1
    outer loop
      vertex -11 5.29732 0
      vertex -10 0 0
      vertex -11 -5.29732 0
    endloop
  endfacet
  facet normal 0 0 -1
    outer loop
      vertex -10 0 0
      vertex -11 5.29732 0
      vertex -9.98993 0.448647 0
    endloop
  endfacet
  facet normal 0 0 -1
    outer loop
      vertex -9.98993 0.448647 0
      vertex -11 5.29732 0
      vertex -9.95974 0.896393 0
    endloop
  endfacet
  facet normal 0 0 -1
    outer loop
      vertex -9.95974 0.896393 0
      vertex -11 5.29732 0
      vertex -9.9095 1.34233 0
    endloop
  endfacet
  facet normal -0 0 -1
    outer loop
      vertex -6.2349 7.81831 0
      vertex -11 5.29732 0
      vertex -2.71677 11.903 0
    endloop
  endfacet
  facet normal -0 0 -1
    outer loop
      vertex -7.81831 6.2349 0
      vertex -11 5.29732 0
      vertex -7.53071 6.57939 0
    endloop
  endfacet
  facet normal -0 0 -1
    outer loop
      vertex -8.09017 5.87785 0
      vertex -11 5.29732 0
      vertex -7.81831 6.2349 0
    endloop
  endfacet
  facet normal -0 0 -1
    outer loop
      vertex -8.34573 5.50897 0
      vertex -11 5.29732 0
      vertex -8.09017 5.87785 0
    endloop
  endfacet
  facet normal 0 0 -1
    outer loop
      vertex -8.58449 5.12899 0
      vertex -11 5.29732 0
      vertex -8.34573 5.50897 0
    endloop
  endfacet
  facet normal 0 0 -1
    outer loop
      vertex -8.80595 4.73869 0
      vertex -11 5.29732 0
      vertex -8.58449 5.12899 0
    endloop
  endfacet
  facet normal 0 0 -1
    outer loop
      vertex -9.00969 4.33884 0
      vertex -11 5.29732 0
      vertex -8.80595 4.73869 0
    endloop
  endfacet
  facet normal 0 0 -1
    outer loop
      vertex -9.19528 3.93025 0
      vertex -11 5.29732 0
      vertex -9.00969 4.33884 0
    endloop
  endfacet
  facet normal 0 0 -1
    outer loop
      vertex -9.36235 3.51375 0
      vertex -11 5.29732 0
      vertex -9.19528 3.93025 0
    endloop
  endfacet
  facet normal 0 0 -1
    outer loop
      vertex -9.51056 3.09017 0
      vertex -11 5.29732 0
      vertex -9.36235 3.51375 0
    endloop
  endfacet
  facet normal 0 0 -1
    outer loop
      vertex -9.63963 2.66037 0
      vertex -11 5.29732 0
      vertex -9.51056 3.09017 0
    endloop
  endfacet
  facet normal 0 0 -1
    outer loop
      vertex -9.74928 2.22521 0
      vertex -11 5.29732 0
      vertex -9.63963 2.66037 0
    endloop
  endfacet
  facet normal 0 0 -1
    outer loop
      vertex -9.8393 1.78557 0
      vertex -11 5.29732 0
      vertex -9.74928 2.22521 0
    endloop
  endfacet
  facet normal 0 0 -1
    outer loop
      vertex -9.9095 1.34233 0
      vertex -11 5.29732 0
      vertex -9.8393 1.78557 0
    endloop
  endfacet
  facet normal 0.566669 0.272894 -0.777441
    outer loop
      vertex 12.2091 0 0
      vertex 9.32304 11.6907 2
      vertex 14.953 0 2
    endloop
  endfacet
  facet normal 0.566668 0.272894 -0.777442
    outer loop
      vertex 12.2091 0 0
      vertex 7.61224 9.54544 0
      vertex 9.32304 11.6907 2
    endloop
  endfacet
  facet normal 0.566669 -0.272894 -0.777441
    outer loop
      vertex 14.953 0 2
      vertex 9.32304 -11.6907 2
      vertex 12.2091 0 0
    endloop
  endfacet
  facet normal -0.392145 0.491734 -0.777445
    outer loop
      vertex -11 5.29732 0
      vertex -13.4722 6.48786 2
      vertex -3.32736 14.5781 2
    endloop
  endfacet
  facet normal -0.392148 0.491736 -0.777442
    outer loop
      vertex -2.71677 11.903 0
      vertex -11 5.29732 0
      vertex -3.32736 14.5781 2
    endloop
  endfacet
  facet normal -0.62895 0 -0.777445
    outer loop
      vertex -13.4722 -6.48786 2
      vertex -11 5.29732 0
      vertex -11 -5.29732 0
    endloop
  endfacet
  facet normal -0.62895 0 -0.777445
    outer loop
      vertex -11 5.29732 0
      vertex -13.4722 -6.48786 2
      vertex -13.4722 6.48786 2
    endloop
  endfacet
  facet normal 0.139957 -0.613187 -0.77744
    outer loop
      vertex 9.32304 -11.6907 2
      vertex -3.32736 -14.5781 2
      vertex -2.71677 -11.903 0
    endloop
  endfacet
  facet normal 0.139957 0.613187 -0.77744
    outer loop
      vertex -2.71677 11.903 0
      vertex -3.32736 14.5781 2
      vertex 9.32304 11.6907 2
    endloop
  endfacet
  facet normal 0.139958 0.613186 -0.777441
    outer loop
      vertex 7.61224 9.54544 0
      vertex -2.71677 11.903 0
      vertex 9.32304 11.6907 2
    endloop
  endfacet
  facet normal -0.392148 -0.491736 -0.777442
    outer loop
      vertex -3.32736 -14.5781 2
      vertex -11 -5.29732 0
      vertex -2.71677 -11.903 0
    endloop
  endfacet
  facet normal -0.392145 -0.491734 -0.777445
    outer loop
      vertex -3.32736 -14.5781 2
      vertex -13.4722 -6.48786 2
      vertex -11 -5.29732 0
    endloop
  endfacet
  facet normal -0.999748 -0.0224396 9.95082e-21
    outer loop
      vertex 10 0 0
      vertex 9.98993 0.448647 4
      vertex 9.98993 0.448647 0
    endloop
  endfacet
  facet normal -0.999748 -0.0224396 9.95082e-21
    outer loop
      vertex 9.98993 0.448647 4
      vertex 10 0 0
      vertex 10 0 4
    endloop
  endfacet
  facet normal 0.999748 -0.0224396 -9.95082e-21
    outer loop
      vertex -10 0 4
      vertex -9.98993 0.448647 0
      vertex -9.98993 0.448647 4
    endloop
  endfacet
  facet normal 0.999748 -0.0224396 -9.95082e-21
    outer loop
      vertex -9.98993 0.448647 0
      vertex -10 0 4
      vertex -10 0 0
    endloop
  endfacet
  facet normal -0.0224396 -0.999748 0
    outer loop
      vertex 0 10 0
      vertex 0.448647 9.98993 4
      vertex 0 10 4
    endloop
  endfacet
  facet normal -0.0224396 -0.999748 -0
    outer loop
      vertex 0.448647 9.98993 4
      vertex 0 10 0
      vertex 0.448647 9.98993 0
    endloop
  endfacet
  facet normal -0.707107 -0.707107 -3.71701e-18
    outer loop
      vertex 7.22795 6.91063 0
      vertex 6.91063 7.22795 4
      vertex 6.91063 7.22795 0
    endloop
  endfacet
  facet normal -0.707107 -0.707107 -3.71701e-18
    outer loop
      vertex 6.91063 7.22795 4
      vertex 7.22795 6.91063 0
      vertex 7.22795 6.91063 4
    endloop
  endfacet
  facet normal 0.674662 -0.738126 0
    outer loop
      vertex -6.91063 7.22795 0
      vertex -6.57939 7.53071 4
      vertex -6.91063 7.22795 4
    endloop
  endfacet
  facet normal 0.674662 -0.738126 0
    outer loop
      vertex -6.57939 7.53071 4
      vertex -6.91063 7.22795 0
      vertex -6.57939 7.53071 0
    endloop
  endfacet
  facet normal 0.330265 -0.943888 0
    outer loop
      vertex -3.51375 9.36235 0
      vertex -3.09017 9.51056 4
      vertex -3.51375 9.36235 4
    endloop
  endfacet
  facet normal 0.330265 -0.943888 0
    outer loop
      vertex -3.09017 9.51056 4
      vertex -3.51375 9.36235 0
      vertex -3.09017 9.51056 0
    endloop
  endfacet
  facet normal -0.928115 -0.372293 2.412e-18
    outer loop
      vertex 9.36235 3.51375 0
      vertex 9.19528 3.93025 4
      vertex 9.19528 3.93025 0
    endloop
  endfacet
  facet normal -0.928115 -0.372293 2.412e-18
    outer loop
      vertex 9.19528 3.93025 4
      vertex 9.36235 3.51375 0
      vertex 9.36235 3.51375 4
    endloop
  endfacet
  facet normal -0.372293 -0.928115 0
    outer loop
      vertex 3.51375 9.36235 0
      vertex 3.93025 9.19528 4
      vertex 3.51375 9.36235 4
    endloop
  endfacet
  facet normal -0.372293 -0.928115 -0
    outer loop
      vertex 3.93025 9.19528 4
      vertex 3.51375 9.36235 0
      vertex 3.93025 9.19528 0
    endloop
  endfacet
  facet normal -0.532036 -0.846721 0
    outer loop
      vertex 5.12899 8.58449 0
      vertex 5.50897 8.34573 4
      vertex 5.12899 8.58449 4
    endloop
  endfacet
  facet normal -0.532036 -0.846721 -0
    outer loop
      vertex 5.50897 8.34573 4
      vertex 5.12899 8.58449 0
      vertex 5.50897 8.34573 0
    endloop
  endfacet
  facet normal 0.910478 -0.413558 -1.81652e-18
    outer loop
      vertex -9.19528 3.93025 4
      vertex -9.00969 4.33884 0
      vertex -9.00969 4.33884 4
    endloop
  endfacet
  facet normal 0.910478 -0.413558 -1.81652e-18
    outer loop
      vertex -9.00969 4.33884 0
      vertex -9.19528 3.93025 4
      vertex -9.19528 3.93025 0
    endloop
  endfacet
  facet normal 0.156429 -0.987689 0
    outer loop
      vertex -1.78557 9.8393 0
      vertex -1.34233 9.9095 4
      vertex -1.78557 9.8393 4
    endloop
  endfacet
  facet normal 0.156429 -0.987689 0
    outer loop
      vertex -1.34233 9.9095 4
      vertex -1.78557 9.8393 0
      vertex -1.34233 9.9095 0
    endloop
  endfacet
  facet normal -0.979674 -0.200597 1.50997e-18
    outer loop
      vertex 9.8393 1.78557 0
      vertex 9.74928 2.22521 4
      vertex 9.74928 2.22521 0
    endloop
  endfacet
  facet normal -0.979674 -0.200597 1.50997e-18
    outer loop
      vertex 9.74928 2.22521 4
      vertex 9.8393 1.78557 0
      vertex 9.8393 1.78557 4
    endloop
  endfacet
  facet normal -0.822003 -0.569483 3.41227e-19
    outer loop
      vertex 8.34573 5.50897 0
      vertex 8.09017 5.87785 4
      vertex 8.09017 5.87785 0
    endloop
  endfacet
  facet normal -0.822003 -0.569483 3.41227e-19
    outer loop
      vertex 8.09017 5.87785 4
      vertex 8.34573 5.50897 0
      vertex 8.34573 5.50897 4
    endloop
  endfacet
  facet normal -0.891001 -0.454002 1.86504e-19
    outer loop
      vertex 9.00969 4.33884 0
      vertex 8.80595 4.73869 4
      vertex 8.80595 4.73869 0
    endloop
  endfacet
  facet normal -0.891001 -0.454002 1.86504e-19
    outer loop
      vertex 8.80595 4.73869 4
      vertex 9.00969 4.33884 0
      vertex 9.00969 4.33884 4
    endloop
  endfacet
  facet normal -0.200597 -0.979674 0
    outer loop
      vertex 1.78557 9.8393 0
      vertex 2.22521 9.74928 4
      vertex 1.78557 9.8393 4
    endloop
  endfacet
  facet normal -0.200597 -0.979674 -0
    outer loop
      vertex 2.22521 9.74928 4
      vertex 1.78557 9.8393 0
      vertex 2.22521 9.74928 0
    endloop
  endfacet
  facet normal -0.605792 -0.795623 0
    outer loop
      vertex 5.87785 8.09017 0
      vertex 6.2349 7.81831 4
      vertex 5.87785 8.09017 4
    endloop
  endfacet
  facet normal -0.605792 -0.795623 -0
    outer loop
      vertex 6.2349 7.81831 4
      vertex 5.87785 8.09017 0
      vertex 6.2349 7.81831 0
    endloop
  endfacet
  facet normal 0.96969 -0.244339 3.6419e-19
    outer loop
      vertex -9.74928 2.22521 4
      vertex -9.63963 2.66037 0
      vertex -9.63963 2.66037 4
    endloop
  endfacet
  facet normal 0.96969 -0.244339 3.6419e-19
    outer loop
      vertex -9.63963 2.66037 0
      vertex -9.74928 2.22521 4
      vertex -9.74928 2.22521 0
    endloop
  endfacet
  facet normal 0.795623 -0.605792 3.37865e-18
    outer loop
      vertex -8.09017 5.87785 4
      vertex -7.81831 6.2349 0
      vertex -7.81831 6.2349 4
    endloop
  endfacet
  facet normal 0.795623 -0.605792 3.37865e-18
    outer loop
      vertex -7.81831 6.2349 0
      vertex -8.09017 5.87785 4
      vertex -8.09017 5.87785 0
    endloop
  endfacet
  facet normal 0.493502 -0.869745 0
    outer loop
      vertex -5.12899 8.58449 0
      vertex -4.73869 8.80595 4
      vertex -5.12899 8.58449 4
    endloop
  endfacet
  facet normal 0.493502 -0.869745 0
    outer loop
      vertex -4.73869 8.80595 4
      vertex -5.12899 8.58449 0
      vertex -4.73869 8.80595 0
    endloop
  endfacet
  facet normal 0.0672739 -0.997735 0
    outer loop
      vertex -0.896393 9.95974 0
      vertex -0.448647 9.98993 4
      vertex -0.896393 9.95974 4
    endloop
  endfacet
  facet normal 0.0672739 -0.997735 0
    outer loop
      vertex -0.448647 9.98993 4
      vertex -0.896393 9.95974 0
      vertex -0.448647 9.98993 0
    endloop
  endfacet
  facet normal -0.993713 0.111953 6.0235e-19
    outer loop
      vertex 9.9095 -1.34233 0
      vertex 9.95974 -0.896393 4
      vertex 9.95974 -0.896393 0
    endloop
  endfacet
  facet normal -0.993713 0.111953 6.0235e-19
    outer loop
      vertex 9.95974 -0.896393 4
      vertex 9.9095 -1.34233 0
      vertex 9.9095 -1.34233 4
    endloop
  endfacet
  facet normal -0.993713 -0.111953 -6.0235e-19
    outer loop
      vertex 9.95974 0.896393 0
      vertex 9.9095 1.34233 4
      vertex 9.9095 1.34233 0
    endloop
  endfacet
  facet normal -0.993713 -0.111953 -6.0235e-19
    outer loop
      vertex 9.9095 1.34233 4
      vertex 9.95974 0.896393 0
      vertex 9.95974 0.896393 4
    endloop
  endfacet
  facet normal -0.997735 -0.0672739 2.0291e-19
    outer loop
      vertex 9.98993 0.448647 0
      vertex 9.95974 0.896393 4
      vertex 9.95974 0.896393 0
    endloop
  endfacet
  facet normal -0.997735 -0.0672739 2.0291e-19
    outer loop
      vertex 9.95974 0.896393 4
      vertex 9.98993 0.448647 0
      vertex 9.98993 0.448647 4
    endloop
  endfacet
  facet normal -0.987689 -0.156429 -4.41946e-19
    outer loop
      vertex 9.9095 1.34233 0
      vertex 9.8393 1.78557 4
      vertex 9.8393 1.78557 0
    endloop
  endfacet
  facet normal -0.987689 -0.156429 -4.41946e-19
    outer loop
      vertex 9.8393 1.78557 4
      vertex 9.9095 1.34233 0
      vertex 9.9095 1.34233 4
    endloop
  endfacet
  facet normal -0.957747 -0.287614 -1.34017e-18
    outer loop
      vertex 9.63963 2.66037 0
      vertex 9.51056 3.09017 4
      vertex 9.51056 3.09017 0
    endloop
  endfacet
  facet normal -0.957747 -0.287614 -1.34017e-18
    outer loop
      vertex 9.51056 3.09017 4
      vertex 9.63963 2.66037 0
      vertex 9.63963 2.66037 4
    endloop
  endfacet
  facet normal -0.943888 -0.330265 -3.41573e-18
    outer loop
      vertex 9.51056 3.09017 0
      vertex 9.36235 3.51375 4
      vertex 9.36235 3.51375 0
    endloop
  endfacet
  facet normal -0.943888 -0.330265 -3.41573e-18
    outer loop
      vertex 9.36235 3.51375 4
      vertex 9.51056 3.09017 0
      vertex 9.51056 3.09017 4
    endloop
  endfacet
  facet normal -0.96969 -0.244339 -3.6419e-19
    outer loop
      vertex 9.74928 2.22521 0
      vertex 9.63963 2.66037 4
      vertex 9.63963 2.66037 0
    endloop
  endfacet
  facet normal -0.96969 -0.244339 -3.6419e-19
    outer loop
      vertex 9.63963 2.66037 4
      vertex 9.74928 2.22521 0
      vertex 9.74928 2.22521 4
    endloop
  endfacet
  facet normal -0.767646 -0.640875 -3.29029e-18
    outer loop
      vertex 7.81831 6.2349 0
      vertex 7.53071 6.57939 4
      vertex 7.53071 6.57939 0
    endloop
  endfacet
  facet normal -0.767646 -0.640875 -3.29029e-18
    outer loop
      vertex 7.53071 6.57939 4
      vertex 7.81831 6.2349 0
      vertex 7.81831 6.2349 4
    endloop
  endfacet
  facet normal -0.795623 -0.605792 -3.37865e-18
    outer loop
      vertex 8.09017 5.87785 0
      vertex 7.81831 6.2349 4
      vertex 7.81831 6.2349 0
    endloop
  endfacet
  facet normal -0.795623 -0.605792 -3.37865e-18
    outer loop
      vertex 7.81831 6.2349 4
      vertex 8.09017 5.87785 0
      vertex 8.09017 5.87785 4
    endloop
  endfacet
  facet normal -0.738126 -0.674662 1.90922e-18
    outer loop
      vertex 7.53071 6.57939 0
      vertex 7.22795 6.91063 4
      vertex 7.22795 6.91063 0
    endloop
  endfacet
  facet normal -0.738126 -0.674662 1.90922e-18
    outer loop
      vertex 7.22795 6.91063 4
      vertex 7.53071 6.57939 0
      vertex 7.53071 6.57939 4
    endloop
  endfacet
  facet normal -0.869745 -0.493502 -7.79855e-19
    outer loop
      vertex 8.80595 4.73869 0
      vertex 8.58449 5.12899 4
      vertex 8.58449 5.12899 0
    endloop
  endfacet
  facet normal -0.869745 -0.493502 -7.79855e-19
    outer loop
      vertex 8.58449 5.12899 4
      vertex 8.80595 4.73869 0
      vertex 8.80595 4.73869 4
    endloop
  endfacet
  facet normal -0.910478 -0.413558 1.81652e-18
    outer loop
      vertex 9.19528 3.93025 0
      vertex 9.00969 4.33884 4
      vertex 9.00969 4.33884 0
    endloop
  endfacet
  facet normal -0.910478 -0.413558 1.81652e-18
    outer loop
      vertex 9.00969 4.33884 4
      vertex 9.19528 3.93025 0
      vertex 9.19528 3.93025 4
    endloop
  endfacet
  facet normal -0.111953 -0.993713 0
    outer loop
      vertex 0.896393 9.95974 0
      vertex 1.34233 9.9095 4
      vertex 0.896393 9.95974 4
    endloop
  endfacet
  facet normal -0.111953 -0.993713 -0
    outer loop
      vertex 1.34233 9.9095 4
      vertex 0.896393 9.95974 0
      vertex 1.34233 9.9095 0
    endloop
  endfacet
  facet normal -0.287614 -0.957747 0
    outer loop
      vertex 2.66037 9.63963 0
      vertex 3.09017 9.51056 4
      vertex 2.66037 9.63963 4
    endloop
  endfacet
  facet normal -0.287614 -0.957747 -0
    outer loop
      vertex 3.09017 9.51056 4
      vertex 2.66037 9.63963 0
      vertex 3.09017 9.51056 0
    endloop
  endfacet
  facet normal -0.330265 -0.943888 0
    outer loop
      vertex 3.09017 9.51056 0
      vertex 3.51375 9.36235 4
      vertex 3.09017 9.51056 4
    endloop
  endfacet
  facet normal -0.330265 -0.943888 -0
    outer loop
      vertex 3.51375 9.36235 4
      vertex 3.09017 9.51056 0
      vertex 3.51375 9.36235 0
    endloop
  endfacet
  facet normal -0.244339 -0.96969 0
    outer loop
      vertex 2.22521 9.74928 0
      vertex 2.66037 9.63963 4
      vertex 2.22521 9.74928 4
    endloop
  endfacet
  facet normal -0.244339 -0.96969 -0
    outer loop
      vertex 2.66037 9.63963 4
      vertex 2.22521 9.74928 0
      vertex 2.66037 9.63963 0
    endloop
  endfacet
  facet normal -0.156429 -0.987689 0
    outer loop
      vertex 1.34233 9.9095 0
      vertex 1.78557 9.8393 4
      vertex 1.34233 9.9095 4
    endloop
  endfacet
  facet normal -0.156429 -0.987689 -0
    outer loop
      vertex 1.78557 9.8393 4
      vertex 1.34233 9.9095 0
      vertex 1.78557 9.8393 0
    endloop
  endfacet
  facet normal -0.0672739 -0.997735 0
    outer loop
      vertex 0.448647 9.98993 0
      vertex 0.896393 9.95974 4
      vertex 0.448647 9.98993 4
    endloop
  endfacet
  facet normal -0.0672739 -0.997735 -0
    outer loop
      vertex 0.896393 9.95974 4
      vertex 0.448647 9.98993 0
      vertex 0.896393 9.95974 0
    endloop
  endfacet
  facet normal -0.454002 -0.891001 0
    outer loop
      vertex 4.33884 9.00969 0
      vertex 4.73869 8.80595 4
      vertex 4.33884 9.00969 4
    endloop
  endfacet
  facet normal -0.454002 -0.891001 -0
    outer loop
      vertex 4.73869 8.80595 4
      vertex 4.33884 9.00969 0
      vertex 4.73869 8.80595 0
    endloop
  endfacet
  facet normal -0.493502 -0.869745 0
    outer loop
      vertex 4.73869 8.80595 0
      vertex 5.12899 8.58449 4
      vertex 4.73869 8.80595 4
    endloop
  endfacet
  facet normal -0.493502 -0.869745 -0
    outer loop
      vertex 5.12899 8.58449 4
      vertex 4.73869 8.80595 0
      vertex 5.12899 8.58449 0
    endloop
  endfacet
  facet normal -0.413558 -0.910478 0
    outer loop
      vertex 3.93025 9.19528 0
      vertex 4.33884 9.00969 4
      vertex 3.93025 9.19528 4
    endloop
  endfacet
  facet normal -0.413558 -0.910478 -0
    outer loop
      vertex 4.33884 9.00969 4
      vertex 3.93025 9.19528 0
      vertex 4.33884 9.00969 0
    endloop
  endfacet
  facet normal -0.569483 -0.822003 0
    outer loop
      vertex 5.50897 8.34573 0
      vertex 5.87785 8.09017 4
      vertex 5.50897 8.34573 4
    endloop
  endfacet
  facet normal -0.569483 -0.822003 -0
    outer loop
      vertex 5.87785 8.09017 4
      vertex 5.50897 8.34573 0
      vertex 5.87785 8.09017 0
    endloop
  endfacet
  facet normal -0.640875 -0.767646 0
    outer loop
      vertex 6.2349 7.81831 0
      vertex 6.57939 7.53071 4
      vertex 6.2349 7.81831 4
    endloop
  endfacet
  facet normal -0.640875 -0.767646 -0
    outer loop
      vertex 6.57939 7.53071 4
      vertex 6.2349 7.81831 0
      vertex 6.57939 7.53071 0
    endloop
  endfacet
  facet normal 0.987689 -0.156429 4.41946e-19
    outer loop
      vertex -9.9095 1.34233 4
      vertex -9.8393 1.78557 0
      vertex -9.8393 1.78557 4
    endloop
  endfacet
  facet normal 0.987689 -0.156429 4.41946e-19
    outer loop
      vertex -9.8393 1.78557 0
      vertex -9.9095 1.34233 4
      vertex -9.9095 1.34233 0
    endloop
  endfacet
  facet normal 0.738126 -0.674662 -1.90922e-18
    outer loop
      vertex -7.53071 6.57939 4
      vertex -7.22795 6.91063 0
      vertex -7.22795 6.91063 4
    endloop
  endfacet
  facet normal 0.738126 -0.674662 -1.90922e-18
    outer loop
      vertex -7.22795 6.91063 0
      vertex -7.53071 6.57939 4
      vertex -7.53071 6.57939 0
    endloop
  endfacet
  facet normal 0.707107 -0.707107 3.71701e-18
    outer loop
      vertex -7.22795 6.91063 4
      vertex -6.91063 7.22795 0
      vertex -6.91063 7.22795 4
    endloop
  endfacet
  facet normal 0.707107 -0.707107 3.71701e-18
    outer loop
      vertex -6.91063 7.22795 0
      vertex -7.22795 6.91063 4
      vertex -7.22795 6.91063 0
    endloop
  endfacet
  facet normal 0.767646 -0.640875 3.29029e-18
    outer loop
      vertex -7.81831 6.2349 4
      vertex -7.53071 6.57939 0
      vertex -7.53071 6.57939 4
    endloop
  endfacet
  facet normal 0.767646 -0.640875 3.29029e-18
    outer loop
      vertex -7.53071 6.57939 0
      vertex -7.81831 6.2349 4
      vertex -7.81831 6.2349 0
    endloop
  endfacet
  facet normal 0.869745 -0.493502 7.79855e-19
    outer loop
      vertex -8.80595 4.73869 4
      vertex -8.58449 5.12899 0
      vertex -8.58449 5.12899 4
    endloop
  endfacet
  facet normal 0.869745 -0.493502 7.79855e-19
    outer loop
      vertex -8.58449 5.12899 0
      vertex -8.80595 4.73869 4
      vertex -8.80595 4.73869 0
    endloop
  endfacet
  facet normal 0.891001 -0.454002 -1.86504e-19
    outer loop
      vertex -9.00969 4.33884 4
      vertex -8.80595 4.73869 0
      vertex -8.80595 4.73869 4
    endloop
  endfacet
  facet normal 0.891001 -0.454002 -1.86504e-19
    outer loop
      vertex -8.80595 4.73869 0
      vertex -9.00969 4.33884 4
      vertex -9.00969 4.33884 0
    endloop
  endfacet
  facet normal 0.846721 -0.532036 -2.18602e-18
    outer loop
      vertex -8.58449 5.12899 4
      vertex -8.34573 5.50897 0
      vertex -8.34573 5.50897 4
    endloop
  endfacet
  facet normal 0.846721 -0.532036 -2.18602e-18
    outer loop
      vertex -8.34573 5.50897 0
      vertex -8.58449 5.12899 4
      vertex -8.58449 5.12899 0
    endloop
  endfacet
  facet normal 0.943888 -0.330265 3.41573e-18
    outer loop
      vertex -9.51056 3.09017 4
      vertex -9.36235 3.51375 0
      vertex -9.36235 3.51375 4
    endloop
  endfacet
  facet normal 0.943888 -0.330265 3.41573e-18
    outer loop
      vertex -9.36235 3.51375 0
      vertex -9.51056 3.09017 4
      vertex -9.51056 3.09017 0
    endloop
  endfacet
  facet normal 0.928115 -0.372293 -2.412e-18
    outer loop
      vertex -9.36235 3.51375 4
      vertex -9.19528 3.93025 0
      vertex -9.19528 3.93025 4
    endloop
  endfacet
  facet normal 0.928115 -0.372293 -2.412e-18
    outer loop
      vertex -9.19528 3.93025 0
      vertex -9.36235 3.51375 4
      vertex -9.36235 3.51375 0
    endloop
  endfacet
  facet normal 0.957747 -0.287614 1.34017e-18
    outer loop
      vertex -9.63963 2.66037 4
      vertex -9.51056 3.09017 0
      vertex -9.51056 3.09017 4
    endloop
  endfacet
  facet normal 0.957747 -0.287614 1.34017e-18
    outer loop
      vertex -9.51056 3.09017 0
      vertex -9.63963 2.66037 4
      vertex -9.63963 2.66037 0
    endloop
  endfacet
  facet normal 0.979674 -0.200597 -1.50997e-18
    outer loop
      vertex -9.8393 1.78557 4
      vertex -9.74928 2.22521 0
      vertex -9.74928 2.22521 4
    endloop
  endfacet
  facet normal 0.979674 -0.200597 -1.50997e-18
    outer loop
      vertex -9.74928 2.22521 0
      vertex -9.8393 1.78557 4
      vertex -9.8393 1.78557 0
    endloop
  endfacet
  facet normal 0.993713 -0.111953 6.0235e-19
    outer loop
      vertex -9.95974 0.896393 4
      vertex -9.9095 1.34233 0
      vertex -9.9095 1.34233 4
    endloop
  endfacet
  facet normal 0.993713 -0.111953 6.0235e-19
    outer loop
      vertex -9.9095 1.34233 0
      vertex -9.95974 0.896393 4
      vertex -9.95974 0.896393 0
    endloop
  endfacet
  facet normal 0.569483 -0.822003 0
    outer loop
      vertex -5.87785 8.09017 0
      vertex -5.50897 8.34573 4
      vertex -5.87785 8.09017 4
    endloop
  endfacet
  facet normal 0.569483 -0.822003 0
    outer loop
      vertex -5.50897 8.34573 4
      vertex -5.87785 8.09017 0
      vertex -5.50897 8.34573 0
    endloop
  endfacet
  facet normal 0.413558 -0.910478 0
    outer loop
      vertex -4.33884 9.00969 0
      vertex -3.93025 9.19528 4
      vertex -4.33884 9.00969 4
    endloop
  endfacet
  facet normal 0.413558 -0.910478 0
    outer loop
      vertex -3.93025 9.19528 4
      vertex -4.33884 9.00969 0
      vertex -3.93025 9.19528 0
    endloop
  endfacet
  facet normal 0.372293 -0.928115 0
    outer loop
      vertex -3.93025 9.19528 0
      vertex -3.51375 9.36235 4
      vertex -3.93025 9.19528 4
    endloop
  endfacet
  facet normal 0.372293 -0.928115 0
    outer loop
      vertex -3.51375 9.36235 4
      vertex -3.93025 9.19528 0
      vertex -3.51375 9.36235 0
    endloop
  endfacet
  facet normal 0.454002 -0.891001 0
    outer loop
      vertex -4.73869 8.80595 0
      vertex -4.33884 9.00969 4
      vertex -4.73869 8.80595 4
    endloop
  endfacet
  facet normal 0.454002 -0.891001 0
    outer loop
      vertex -4.33884 9.00969 4
      vertex -4.73869 8.80595 0
      vertex -4.33884 9.00969 0
    endloop
  endfacet
  facet normal 0.532036 -0.846721 0
    outer loop
      vertex -5.50897 8.34573 0
      vertex -5.12899 8.58449 4
      vertex -5.50897 8.34573 4
    endloop
  endfacet
  facet normal 0.532036 -0.846721 0
    outer loop
      vertex -5.12899 8.58449 4
      vertex -5.50897 8.34573 0
      vertex -5.12899 8.58449 0
    endloop
  endfacet
  facet normal 0.605792 -0.795623 0
    outer loop
      vertex -6.2349 7.81831 0
      vertex -5.87785 8.09017 4
      vertex -6.2349 7.81831 4
    endloop
  endfacet
  facet normal 0.605792 -0.795623 0
    outer loop
      vertex -5.87785 8.09017 4
      vertex -6.2349 7.81831 0
      vertex -5.87785 8.09017 0
    endloop
  endfacet
  facet normal 0.244339 -0.96969 0
    outer loop
      vertex -2.66037 9.63963 0
      vertex -2.22521 9.74928 4
      vertex -2.66037 9.63963 4
    endloop
  endfacet
  facet normal 0.244339 -0.96969 0
    outer loop
      vertex -2.22521 9.74928 4
      vertex -2.66037 9.63963 0
      vertex -2.22521 9.74928 0
    endloop
  endfacet
  facet normal 0.200597 -0.979674 0
    outer loop
      vertex -2.22521 9.74928 0
      vertex -1.78557 9.8393 4
      vertex -2.22521 9.74928 4
    endloop
  endfacet
  facet normal 0.200597 -0.979674 0
    outer loop
      vertex -1.78557 9.8393 4
      vertex -2.22521 9.74928 0
      vertex -1.78557 9.8393 0
    endloop
  endfacet
  facet normal 0.287614 -0.957747 0
    outer loop
      vertex -3.09017 9.51056 0
      vertex -2.66037 9.63963 4
      vertex -3.09017 9.51056 4
    endloop
  endfacet
  facet normal 0.287614 -0.957747 0
    outer loop
      vertex -2.66037 9.63963 4
      vertex -3.09017 9.51056 0
      vertex -2.66037 9.63963 0
    endloop
  endfacet
  facet normal 0.111953 -0.993713 0
    outer loop
      vertex -1.34233 9.9095 0
      vertex -0.896393 9.95974 4
      vertex -1.34233 9.9095 4
    endloop
  endfacet
  facet normal 0.111953 -0.993713 0
    outer loop
      vertex -0.896393 9.95974 4
      vertex -1.34233 9.9095 0
      vertex -0.896393 9.95974 0
    endloop
  endfacet
  facet normal 0.0224396 -0.999748 0
    outer loop
      vertex -0.448647 9.98993 0
      vertex 0 10 4
      vertex -0.448647 9.98993 4
    endloop
  endfacet
  facet normal 0.0224396 -0.999748 0
    outer loop
      vertex 0 10 4
      vertex -0.448647 9.98993 0
      vertex 0 10 0
    endloop
  endfacet
  facet normal -0.999748 0.0224396 -9.95082e-21
    outer loop
      vertex 9.98993 -0.448647 0
      vertex 10 0 4
      vertex 10 0 0
    endloop
  endfacet
  facet normal -0.999748 0.0224396 -9.95082e-21
    outer loop
      vertex 10 0 4
      vertex 9.98993 -0.448647 0
      vertex 9.98993 -0.448647 4
    endloop
  endfacet
  facet normal -0.156429 0.987689 0
    outer loop
      vertex 1.78557 -9.8393 0
      vertex 1.34233 -9.9095 4
      vertex 1.78557 -9.8393 4
    endloop
  endfacet
  facet normal -0.156429 0.987689 0
    outer loop
      vertex 1.34233 -9.9095 4
      vertex 1.78557 -9.8393 0
      vertex 1.34233 -9.9095 0
    endloop
  endfacet
  facet normal -0.330265 0.943888 0
    outer loop
      vertex 3.51375 -9.36235 0
      vertex 3.09017 -9.51056 4
      vertex 3.51375 -9.36235 4
    endloop
  endfacet
  facet normal -0.330265 0.943888 0
    outer loop
      vertex 3.09017 -9.51056 4
      vertex 3.51375 -9.36235 0
      vertex 3.09017 -9.51056 0
    endloop
  endfacet
  facet normal -0.244339 0.96969 0
    outer loop
      vertex 2.66037 -9.63963 0
      vertex 2.22521 -9.74928 4
      vertex 2.66037 -9.63963 4
    endloop
  endfacet
  facet normal -0.244339 0.96969 0
    outer loop
      vertex 2.22521 -9.74928 4
      vertex 2.66037 -9.63963 0
      vertex 2.22521 -9.74928 0
    endloop
  endfacet
  facet normal -0.605792 0.795623 0
    outer loop
      vertex 6.2349 -7.81831 0
      vertex 5.87785 -8.09017 4
      vertex 6.2349 -7.81831 4
    endloop
  endfacet
  facet normal -0.605792 0.795623 0
    outer loop
      vertex 5.87785 -8.09017 4
      vertex 6.2349 -7.81831 0
      vertex 5.87785 -8.09017 0
    endloop
  endfacet
  facet normal -0.674662 0.738126 0
    outer loop
      vertex 6.91063 -7.22795 0
      vertex 6.57939 -7.53071 4
      vertex 6.91063 -7.22795 4
    endloop
  endfacet
  facet normal -0.674662 0.738126 0
    outer loop
      vertex 6.57939 -7.53071 4
      vertex 6.91063 -7.22795 0
      vertex 6.57939 -7.53071 0
    endloop
  endfacet
  facet normal -0.493502 0.869745 0
    outer loop
      vertex 5.12899 -8.58449 0
      vertex 4.73869 -8.80595 4
      vertex 5.12899 -8.58449 4
    endloop
  endfacet
  facet normal -0.493502 0.869745 0
    outer loop
      vertex 4.73869 -8.80595 4
      vertex 5.12899 -8.58449 0
      vertex 4.73869 -8.80595 0
    endloop
  endfacet
  facet normal -0.413558 0.910478 0
    outer loop
      vertex 4.33884 -9.00969 0
      vertex 3.93025 -9.19528 4
      vertex 4.33884 -9.00969 4
    endloop
  endfacet
  facet normal -0.413558 0.910478 0
    outer loop
      vertex 3.93025 -9.19528 4
      vertex 4.33884 -9.00969 0
      vertex 3.93025 -9.19528 0
    endloop
  endfacet
  facet normal -0.822003 0.569483 -3.41227e-19
    outer loop
      vertex 8.09017 -5.87785 0
      vertex 8.34573 -5.50897 4
      vertex 8.34573 -5.50897 0
    endloop
  endfacet
  facet normal -0.822003 0.569483 -3.41227e-19
    outer loop
      vertex 8.34573 -5.50897 4
      vertex 8.09017 -5.87785 0
      vertex 8.09017 -5.87785 4
    endloop
  endfacet
  facet normal -0.910478 0.413558 -1.81652e-18
    outer loop
      vertex 9.00969 -4.33884 0
      vertex 9.19528 -3.93025 4
      vertex 9.19528 -3.93025 0
    endloop
  endfacet
  facet normal -0.910478 0.413558 -1.81652e-18
    outer loop
      vertex 9.19528 -3.93025 4
      vertex 9.00969 -4.33884 0
      vertex 9.00969 -4.33884 4
    endloop
  endfacet
  facet normal -0.869745 0.493502 7.79855e-19
    outer loop
      vertex 8.58449 -5.12899 0
      vertex 8.80595 -4.73869 4
      vertex 8.80595 -4.73869 0
    endloop
  endfacet
  facet normal -0.869745 0.493502 7.79855e-19
    outer loop
      vertex 8.80595 -4.73869 4
      vertex 8.58449 -5.12899 0
      vertex 8.58449 -5.12899 4
    endloop
  endfacet
  facet normal 0.707107 0.707107 -3.71701e-18
    outer loop
      vertex -6.91063 -7.22795 4
      vertex -7.22795 -6.91063 0
      vertex -7.22795 -6.91063 4
    endloop
  endfacet
  facet normal 0.707107 0.707107 -3.71701e-18
    outer loop
      vertex -7.22795 -6.91063 0
      vertex -6.91063 -7.22795 4
      vertex -6.91063 -7.22795 0
    endloop
  endfacet
  facet normal 0.640875 0.767646 -0
    outer loop
      vertex -6.2349 -7.81831 0
      vertex -6.57939 -7.53071 4
      vertex -6.2349 -7.81831 4
    endloop
  endfacet
  facet normal 0.640875 0.767646 0
    outer loop
      vertex -6.57939 -7.53071 4
      vertex -6.2349 -7.81831 0
      vertex -6.57939 -7.53071 0
    endloop
  endfacet
  facet normal 0.454002 0.891001 -0
    outer loop
      vertex -4.33884 -9.00969 0
      vertex -4.73869 -8.80595 4
      vertex -4.33884 -9.00969 4
    endloop
  endfacet
  facet normal 0.454002 0.891001 0
    outer loop
      vertex -4.73869 -8.80595 4
      vertex -4.33884 -9.00969 0
      vertex -4.73869 -8.80595 0
    endloop
  endfacet
  facet normal 0.372293 0.928115 -0
    outer loop
      vertex -3.51375 -9.36235 0
      vertex -3.93025 -9.19528 4
      vertex -3.51375 -9.36235 4
    endloop
  endfacet
  facet normal 0.372293 0.928115 0
    outer loop
      vertex -3.93025 -9.19528 4
      vertex -3.51375 -9.36235 0
      vertex -3.93025 -9.19528 0
    endloop
  endfacet
  facet normal 0.287614 0.957747 -0
    outer loop
      vertex -2.66037 -9.63963 0
      vertex -3.09017 -9.51056 4
      vertex -2.66037 -9.63963 4
    endloop
  endfacet
  facet normal 0.287614 0.957747 0
    outer loop
      vertex -3.09017 -9.51056 4
      vertex -2.66037 -9.63963 0
      vertex -3.09017 -9.51056 0
    endloop
  endfacet
  facet normal 0.200597 0.979674 -0
    outer loop
      vertex -1.78557 -9.8393 0
      vertex -2.22521 -9.74928 4
      vertex -1.78557 -9.8393 4
    endloop
  endfacet
  facet normal 0.200597 0.979674 0
    outer loop
      vertex -2.22521 -9.74928 4
      vertex -1.78557 -9.8393 0
      vertex -2.22521 -9.74928 0
    endloop
  endfacet
  facet normal 0.111953 0.993713 -0
    outer loop
      vertex -0.896393 -9.95974 0
      vertex -1.34233 -9.9095 4
      vertex -0.896393 -9.95974 4
    endloop
  endfacet
  facet normal 0.111953 0.993713 0
    outer loop
      vertex -1.34233 -9.9095 4
      vertex -0.896393 -9.95974 0
      vertex -1.34233 -9.9095 0
    endloop
  endfacet
  facet normal 0.928115 0.372293 2.412e-18
    outer loop
      vertex -9.19528 -3.93025 4
      vertex -9.36235 -3.51375 0
      vertex -9.36235 -3.51375 4
    endloop
  endfacet
  facet normal 0.928115 0.372293 2.412e-18
    outer loop
      vertex -9.36235 -3.51375 0
      vertex -9.19528 -3.93025 4
      vertex -9.19528 -3.93025 0
    endloop
  endfacet
  facet normal 0.891001 0.454002 1.86504e-19
    outer loop
      vertex -8.80595 -4.73869 4
      vertex -9.00969 -4.33884 0
      vertex -9.00969 -4.33884 4
    endloop
  endfacet
  facet normal 0.891001 0.454002 1.86504e-19
    outer loop
      vertex -9.00969 -4.33884 0
      vertex -8.80595 -4.73869 4
      vertex -8.80595 -4.73869 0
    endloop
  endfacet
  facet normal 0.846721 0.532036 2.18602e-18
    outer loop
      vertex -8.34573 -5.50897 4
      vertex -8.58449 -5.12899 0
      vertex -8.58449 -5.12899 4
    endloop
  endfacet
  facet normal 0.846721 0.532036 2.18602e-18
    outer loop
      vertex -8.58449 -5.12899 0
      vertex -8.34573 -5.50897 4
      vertex -8.34573 -5.50897 0
    endloop
  endfacet
  facet normal 0.795623 0.605792 -3.37865e-18
    outer loop
      vertex -7.81831 -6.2349 4
      vertex -8.09017 -5.87785 0
      vertex -8.09017 -5.87785 4
    endloop
  endfacet
  facet normal 0.795623 0.605792 -3.37865e-18
    outer loop
      vertex -8.09017 -5.87785 0
      vertex -7.81831 -6.2349 4
      vertex -7.81831 -6.2349 0
    endloop
  endfacet
  facet normal 0.979674 0.200597 1.50997e-18
    outer loop
      vertex -9.74928 -2.22521 4
      vertex -9.8393 -1.78557 0
      vertex -9.8393 -1.78557 4
    endloop
  endfacet
  facet normal 0.979674 0.200597 1.50997e-18
    outer loop
      vertex -9.8393 -1.78557 0
      vertex -9.74928 -2.22521 4
      vertex -9.74928 -2.22521 0
    endloop
  endfacet
  facet normal 0.957747 0.287614 -1.34017e-18
    outer loop
      vertex -9.51056 -3.09017 4
      vertex -9.63963 -2.66037 0
      vertex -9.63963 -2.66037 4
    endloop
  endfacet
  facet normal 0.957747 0.287614 -1.34017e-18
    outer loop
      vertex -9.63963 -2.66037 0
      vertex -9.51056 -3.09017 4
      vertex -9.51056 -3.09017 0
    endloop
  endfacet
  facet normal 0.993713 0.111953 -6.0235e-19
    outer loop
      vertex -9.9095 -1.34233 4
      vertex -9.95974 -0.896393 0
      vertex -9.95974 -0.896393 4
    endloop
  endfacet
  facet normal 0.993713 0.111953 -6.0235e-19
    outer loop
      vertex -9.95974 -0.896393 0
      vertex -9.9095 -1.34233 4
      vertex -9.9095 -1.34233 0
    endloop
  endfacet
  facet normal 0.999748 0.0224396 9.95082e-21
    outer loop
      vertex -9.98993 -0.448647 4
      vertex -10 0 0
      vertex -10 0 4
    endloop
  endfacet
  facet normal 0.999748 0.0224396 9.95082e-21
    outer loop
      vertex -10 0 0
      vertex -9.98993 -0.448647 4
      vertex -9.98993 -0.448647 0
    endloop
  endfacet
  facet normal -0.846721 -0.532036 2.18602e-18
    outer loop
      vertex 8.58449 5.12899 0
      vertex 8.34573 5.50897 4
      vertex 8.34573 5.50897 0
    endloop
  endfacet
  facet normal -0.846721 -0.532036 2.18602e-18
    outer loop
      vertex 8.34573 5.50897 4
      vertex 8.58449 5.12899 0
      vertex 8.58449 5.12899 4
    endloop
  endfacet
  facet normal -0.674662 -0.738126 0
    outer loop
      vertex 6.57939 7.53071 0
      vertex 6.91063 7.22795 4
      vertex 6.57939 7.53071 4
    endloop
  endfacet
  facet normal -0.674662 -0.738126 -0
    outer loop
      vertex 6.91063 7.22795 4
      vertex 6.57939 7.53071 0
      vertex 6.91063 7.22795 0
    endloop
  endfacet
  facet normal 0.822003 -0.569483 -3.41227e-19
    outer loop
      vertex -8.34573 5.50897 4
      vertex -8.09017 5.87785 0
      vertex -8.09017 5.87785 4
    endloop
  endfacet
  facet normal 0.822003 -0.569483 -3.41227e-19
    outer loop
      vertex -8.09017 5.87785 0
      vertex -8.34573 5.50897 4
      vertex -8.34573 5.50897 0
    endloop
  endfacet
  facet normal 0.997735 -0.0672739 -2.0291e-19
    outer loop
      vertex -9.98993 0.448647 4
      vertex -9.95974 0.896393 0
      vertex -9.95974 0.896393 4
    endloop
  endfacet
  facet normal 0.997735 -0.0672739 -2.0291e-19
    outer loop
      vertex -9.95974 0.896393 0
      vertex -9.98993 0.448647 4
      vertex -9.98993 0.448647 0
    endloop
  endfacet
  facet normal 0.640875 -0.767646 0
    outer loop
      vertex -6.57939 7.53071 0
      vertex -6.2349 7.81831 4
      vertex -6.57939 7.53071 4
    endloop
  endfacet
  facet normal 0.640875 -0.767646 0
    outer loop
      vertex -6.2349 7.81831 4
      vertex -6.57939 7.53071 0
      vertex -6.2349 7.81831 0
    endloop
  endfacet
  facet normal -0.0224396 0.999748 0
    outer loop
      vertex 0.448647 -9.98993 0
      vertex 0 -10 4
      vertex 0.448647 -9.98993 4
    endloop
  endfacet
  facet normal -0.0224396 0.999748 0
    outer loop
      vertex 0 -10 4
      vertex 0.448647 -9.98993 0
      vertex 0 -10 0
    endloop
  endfacet
  facet normal -0.111953 0.993713 0
    outer loop
      vertex 1.34233 -9.9095 0
      vertex 0.896393 -9.95974 4
      vertex 1.34233 -9.9095 4
    endloop
  endfacet
  facet normal -0.111953 0.993713 0
    outer loop
      vertex 0.896393 -9.95974 4
      vertex 1.34233 -9.9095 0
      vertex 0.896393 -9.95974 0
    endloop
  endfacet
  facet normal -0.200597 0.979674 0
    outer loop
      vertex 2.22521 -9.74928 0
      vertex 1.78557 -9.8393 4
      vertex 2.22521 -9.74928 4
    endloop
  endfacet
  facet normal -0.200597 0.979674 0
    outer loop
      vertex 1.78557 -9.8393 4
      vertex 2.22521 -9.74928 0
      vertex 1.78557 -9.8393 0
    endloop
  endfacet
  facet normal -0.372293 0.928115 0
    outer loop
      vertex 3.93025 -9.19528 0
      vertex 3.51375 -9.36235 4
      vertex 3.93025 -9.19528 4
    endloop
  endfacet
  facet normal -0.372293 0.928115 0
    outer loop
      vertex 3.51375 -9.36235 4
      vertex 3.93025 -9.19528 0
      vertex 3.51375 -9.36235 0
    endloop
  endfacet
  facet normal -0.287614 0.957747 0
    outer loop
      vertex 3.09017 -9.51056 0
      vertex 2.66037 -9.63963 4
      vertex 3.09017 -9.51056 4
    endloop
  endfacet
  facet normal -0.287614 0.957747 0
    outer loop
      vertex 2.66037 -9.63963 4
      vertex 3.09017 -9.51056 0
      vertex 2.66037 -9.63963 0
    endloop
  endfacet
  facet normal -0.640875 0.767646 0
    outer loop
      vertex 6.57939 -7.53071 0
      vertex 6.2349 -7.81831 4
      vertex 6.57939 -7.53071 4
    endloop
  endfacet
  facet normal -0.640875 0.767646 0
    outer loop
      vertex 6.2349 -7.81831 4
      vertex 6.57939 -7.53071 0
      vertex 6.2349 -7.81831 0
    endloop
  endfacet
  facet normal -0.707107 0.707107 3.71701e-18
    outer loop
      vertex 6.91063 -7.22795 0
      vertex 7.22795 -6.91063 4
      vertex 7.22795 -6.91063 0
    endloop
  endfacet
  facet normal -0.707107 0.707107 3.71701e-18
    outer loop
      vertex 7.22795 -6.91063 4
      vertex 6.91063 -7.22795 0
      vertex 6.91063 -7.22795 4
    endloop
  endfacet
  facet normal -0.532036 0.846721 0
    outer loop
      vertex 5.50897 -8.34573 0
      vertex 5.12899 -8.58449 4
      vertex 5.50897 -8.34573 4
    endloop
  endfacet
  facet normal -0.532036 0.846721 0
    outer loop
      vertex 5.12899 -8.58449 4
      vertex 5.50897 -8.34573 0
      vertex 5.12899 -8.58449 0
    endloop
  endfacet
  facet normal -0.454002 0.891001 0
    outer loop
      vertex 4.73869 -8.80595 0
      vertex 4.33884 -9.00969 4
      vertex 4.73869 -8.80595 4
    endloop
  endfacet
  facet normal -0.454002 0.891001 0
    outer loop
      vertex 4.33884 -9.00969 4
      vertex 4.73869 -8.80595 0
      vertex 4.33884 -9.00969 0
    endloop
  endfacet
  facet normal -0.738126 0.674662 -1.90922e-18
    outer loop
      vertex 7.22795 -6.91063 0
      vertex 7.53071 -6.57939 4
      vertex 7.53071 -6.57939 0
    endloop
  endfacet
  facet normal -0.738126 0.674662 -1.90922e-18
    outer loop
      vertex 7.53071 -6.57939 4
      vertex 7.22795 -6.91063 0
      vertex 7.22795 -6.91063 4
    endloop
  endfacet
  facet normal -0.795623 0.605792 3.37865e-18
    outer loop
      vertex 7.81831 -6.2349 0
      vertex 8.09017 -5.87785 4
      vertex 8.09017 -5.87785 0
    endloop
  endfacet
  facet normal -0.795623 0.605792 3.37865e-18
    outer loop
      vertex 8.09017 -5.87785 4
      vertex 7.81831 -6.2349 0
      vertex 7.81831 -6.2349 4
    endloop
  endfacet
  facet normal -0.846721 0.532036 -2.18602e-18
    outer loop
      vertex 8.34573 -5.50897 0
      vertex 8.58449 -5.12899 4
      vertex 8.58449 -5.12899 0
    endloop
  endfacet
  facet normal -0.846721 0.532036 -2.18602e-18
    outer loop
      vertex 8.58449 -5.12899 4
      vertex 8.34573 -5.50897 0
      vertex 8.34573 -5.50897 4
    endloop
  endfacet
  facet normal -0.928115 0.372293 -2.412e-18
    outer loop
      vertex 9.19528 -3.93025 0
      vertex 9.36235 -3.51375 4
      vertex 9.36235 -3.51375 0
    endloop
  endfacet
  facet normal -0.928115 0.372293 -2.412e-18
    outer loop
      vertex 9.36235 -3.51375 4
      vertex 9.19528 -3.93025 0
      vertex 9.19528 -3.93025 4
    endloop
  endfacet
  facet normal -0.891001 0.454002 -1.86504e-19
    outer loop
      vertex 8.80595 -4.73869 0
      vertex 9.00969 -4.33884 4
      vertex 9.00969 -4.33884 0
    endloop
  endfacet
  facet normal -0.891001 0.454002 -1.86504e-19
    outer loop
      vertex 9.00969 -4.33884 4
      vertex 8.80595 -4.73869 0
      vertex 8.80595 -4.73869 4
    endloop
  endfacet
  facet normal -0.943888 0.330265 3.41573e-18
    outer loop
      vertex 9.36235 -3.51375 0
      vertex 9.51056 -3.09017 4
      vertex 9.51056 -3.09017 0
    endloop
  endfacet
  facet normal -0.943888 0.330265 3.41573e-18
    outer loop
      vertex 9.51056 -3.09017 4
      vertex 9.36235 -3.51375 0
      vertex 9.36235 -3.51375 4
    endloop
  endfacet
  facet normal 0.674662 0.738126 -0
    outer loop
      vertex -6.57939 -7.53071 0
      vertex -6.91063 -7.22795 4
      vertex -6.57939 -7.53071 4
    endloop
  endfacet
  facet normal 0.674662 0.738126 0
    outer loop
      vertex -6.91063 -7.22795 4
      vertex -6.57939 -7.53071 0
      vertex -6.91063 -7.22795 0
    endloop
  endfacet
  facet normal 0.605792 0.795623 -0
    outer loop
      vertex -5.87785 -8.09017 0
      vertex -6.2349 -7.81831 4
      vertex -5.87785 -8.09017 4
    endloop
  endfacet
  facet normal 0.605792 0.795623 0
    outer loop
      vertex -6.2349 -7.81831 4
      vertex -5.87785 -8.09017 0
      vertex -6.2349 -7.81831 0
    endloop
  endfacet
  facet normal 0.413558 0.910478 -0
    outer loop
      vertex -3.93025 -9.19528 0
      vertex -4.33884 -9.00969 4
      vertex -3.93025 -9.19528 4
    endloop
  endfacet
  facet normal 0.413558 0.910478 0
    outer loop
      vertex -4.33884 -9.00969 4
      vertex -3.93025 -9.19528 0
      vertex -4.33884 -9.00969 0
    endloop
  endfacet
  facet normal 0.493502 0.869745 -0
    outer loop
      vertex -4.73869 -8.80595 0
      vertex -5.12899 -8.58449 4
      vertex -4.73869 -8.80595 4
    endloop
  endfacet
  facet normal 0.493502 0.869745 0
    outer loop
      vertex -5.12899 -8.58449 4
      vertex -4.73869 -8.80595 0
      vertex -5.12899 -8.58449 0
    endloop
  endfacet
  facet normal 0.569483 0.822003 -0
    outer loop
      vertex -5.50897 -8.34573 0
      vertex -5.87785 -8.09017 4
      vertex -5.50897 -8.34573 4
    endloop
  endfacet
  facet normal 0.569483 0.822003 0
    outer loop
      vertex -5.87785 -8.09017 4
      vertex -5.50897 -8.34573 0
      vertex -5.87785 -8.09017 0
    endloop
  endfacet
  facet normal 0.330265 0.943888 -0
    outer loop
      vertex -3.09017 -9.51056 0
      vertex -3.51375 -9.36235 4
      vertex -3.09017 -9.51056 4
    endloop
  endfacet
  facet normal 0.330265 0.943888 0
    outer loop
      vertex -3.51375 -9.36235 4
      vertex -3.09017 -9.51056 0
      vertex -3.51375 -9.36235 0
    endloop
  endfacet
  facet normal 0.244339 0.96969 -0
    outer loop
      vertex -2.22521 -9.74928 0
      vertex -2.66037 -9.63963 4
      vertex -2.22521 -9.74928 4
    endloop
  endfacet
  facet normal 0.244339 0.96969 0
    outer loop
      vertex -2.66037 -9.63963 4
      vertex -2.22521 -9.74928 0
      vertex -2.66037 -9.63963 0
    endloop
  endfacet
  facet normal 0.156429 0.987689 -0
    outer loop
      vertex -1.34233 -9.9095 0
      vertex -1.78557 -9.8393 4
      vertex -1.34233 -9.9095 4
    endloop
  endfacet
  facet normal 0.156429 0.987689 0
    outer loop
      vertex -1.78557 -9.8393 4
      vertex -1.34233 -9.9095 0
      vertex -1.78557 -9.8393 0
    endloop
  endfacet
  facet normal 0.0672739 0.997735 -0
    outer loop
      vertex -0.448647 -9.98993 0
      vertex -0.896393 -9.95974 4
      vertex -0.448647 -9.98993 4
    endloop
  endfacet
  facet normal 0.0672739 0.997735 0
    outer loop
      vertex -0.896393 -9.95974 4
      vertex -0.448647 -9.98993 0
      vertex -0.896393 -9.95974 0
    endloop
  endfacet
  facet normal 0.910478 0.413558 1.81652e-18
    outer loop
      vertex -9.00969 -4.33884 4
      vertex -9.19528 -3.93025 0
      vertex -9.19528 -3.93025 4
    endloop
  endfacet
  facet normal 0.910478 0.413558 1.81652e-18
    outer loop
      vertex -9.19528 -3.93025 0
      vertex -9.00969 -4.33884 4
      vertex -9.00969 -4.33884 0
    endloop
  endfacet
  facet normal 0.869745 0.493502 -7.79855e-19
    outer loop
      vertex -8.58449 -5.12899 4
      vertex -8.80595 -4.73869 0
      vertex -8.80595 -4.73869 4
    endloop
  endfacet
  facet normal 0.869745 0.493502 -7.79855e-19
    outer loop
      vertex -8.80595 -4.73869 0
      vertex -8.58449 -5.12899 4
      vertex -8.58449 -5.12899 0
    endloop
  endfacet
  facet normal 0.822003 0.569483 3.41227e-19
    outer loop
      vertex -8.09017 -5.87785 4
      vertex -8.34573 -5.50897 0
      vertex -8.34573 -5.50897 4
    endloop
  endfacet
  facet normal 0.822003 0.569483 3.41227e-19
    outer loop
      vertex -8.34573 -5.50897 0
      vertex -8.09017 -5.87785 4
      vertex -8.09017 -5.87785 0
    endloop
  endfacet
  facet normal 0.767646 0.640875 -3.29029e-18
    outer loop
      vertex -7.53071 -6.57939 4
      vertex -7.81831 -6.2349 0
      vertex -7.81831 -6.2349 4
    endloop
  endfacet
  facet normal 0.767646 0.640875 -3.29029e-18
    outer loop
      vertex -7.81831 -6.2349 0
      vertex -7.53071 -6.57939 4
      vertex -7.53071 -6.57939 0
    endloop
  endfacet
  facet normal 0.96969 0.244339 -3.6419e-19
    outer loop
      vertex -9.63963 -2.66037 4
      vertex -9.74928 -2.22521 0
      vertex -9.74928 -2.22521 4
    endloop
  endfacet
  facet normal 0.96969 0.244339 -3.6419e-19
    outer loop
      vertex -9.74928 -2.22521 0
      vertex -9.63963 -2.66037 4
      vertex -9.63963 -2.66037 0
    endloop
  endfacet
  facet normal 0.943888 0.330265 -3.41573e-18
    outer loop
      vertex -9.36235 -3.51375 4
      vertex -9.51056 -3.09017 0
      vertex -9.51056 -3.09017 4
    endloop
  endfacet
  facet normal 0.943888 0.330265 -3.41573e-18
    outer loop
      vertex -9.51056 -3.09017 0
      vertex -9.36235 -3.51375 4
      vertex -9.36235 -3.51375 0
    endloop
  endfacet
  facet normal 0.987689 0.156429 -4.41946e-19
    outer loop
      vertex -9.8393 -1.78557 4
      vertex -9.9095 -1.34233 0
      vertex -9.9095 -1.34233 4
    endloop
  endfacet
  facet normal 0.987689 0.156429 -4.41946e-19
    outer loop
      vertex -9.9095 -1.34233 0
      vertex -9.8393 -1.78557 4
      vertex -9.8393 -1.78557 0
    endloop
  endfacet
  facet normal 0.997735 0.0672739 2.0291e-19
    outer loop
      vertex -9.95974 -0.896393 4
      vertex -9.98993 -0.448647 0
      vertex -9.98993 -0.448647 4
    endloop
  endfacet
  facet normal 0.997735 0.0672739 2.0291e-19
    outer loop
      vertex -9.98993 -0.448647 0
      vertex -9.95974 -0.896393 4
      vertex -9.95974 -0.896393 0
    endloop
  endfacet
  facet normal -0.96969 0.244339 3.6419e-19
    outer loop
      vertex 9.63963 -2.66037 0
      vertex 9.74928 -2.22521 4
      vertex 9.74928 -2.22521 0
    endloop
  endfacet
  facet normal -0.96969 0.244339 3.6419e-19
    outer loop
      vertex 9.74928 -2.22521 4
      vertex 9.63963 -2.66037 0
      vertex 9.63963 -2.66037 4
    endloop
  endfacet
  facet normal -0.979674 0.200597 -1.50997e-18
    outer loop
      vertex 9.74928 -2.22521 0
      vertex 9.8393 -1.78557 4
      vertex 9.8393 -1.78557 0
    endloop
  endfacet
  facet normal -0.979674 0.200597 -1.50997e-18
    outer loop
      vertex 9.8393 -1.78557 4
      vertex 9.74928 -2.22521 0
      vertex 9.74928 -2.22521 4
    endloop
  endfacet
  facet normal -0.0672739 0.997735 0
    outer loop
      vertex 0.896393 -9.95974 0
      vertex 0.448647 -9.98993 4
      vertex 0.896393 -9.95974 4
    endloop
  endfacet
  facet normal -0.0672739 0.997735 0
    outer loop
      vertex 0.448647 -9.98993 4
      vertex 0.896393 -9.95974 0
      vertex 0.448647 -9.98993 0
    endloop
  endfacet
  facet normal -0.569483 0.822003 0
    outer loop
      vertex 5.87785 -8.09017 0
      vertex 5.50897 -8.34573 4
      vertex 5.87785 -8.09017 4
    endloop
  endfacet
  facet normal -0.569483 0.822003 0
    outer loop
      vertex 5.50897 -8.34573 4
      vertex 5.87785 -8.09017 0
      vertex 5.50897 -8.34573 0
    endloop
  endfacet
  facet normal -0.767646 0.640875 3.29029e-18
    outer loop
      vertex 7.53071 -6.57939 0
      vertex 7.81831 -6.2349 4
      vertex 7.81831 -6.2349 0
    endloop
  endfacet
  facet normal -0.767646 0.640875 3.29029e-18
    outer loop
      vertex 7.81831 -6.2349 4
      vertex 7.53071 -6.57939 0
      vertex 7.53071 -6.57939 4
    endloop
  endfacet
  facet normal 0.532036 0.846721 -0
    outer loop
      vertex -5.12899 -8.58449 0
      vertex -5.50897 -8.34573 4
      vertex -5.12899 -8.58449 4
    endloop
  endfacet
  facet normal 0.532036 0.846721 0
    outer loop
      vertex -5.50897 -8.34573 4
      vertex -5.12899 -8.58449 0
      vertex -5.50897 -8.34573 0
    endloop
  endfacet
  facet normal 0.0224396 0.999748 -0
    outer loop
      vertex 0 -10 0
      vertex -0.448647 -9.98993 4
      vertex 0 -10 4
    endloop
  endfacet
  facet normal 0.0224396 0.999748 0
    outer loop
      vertex -0.448647 -9.98993 4
      vertex 0 -10 0
      vertex -0.448647 -9.98993 0
    endloop
  endfacet
  facet normal 0.738126 0.674662 1.90922e-18
    outer loop
      vertex -7.22795 -6.91063 4
      vertex -7.53071 -6.57939 0
      vertex -7.53071 -6.57939 4
    endloop
  endfacet
  facet normal 0.738126 0.674662 1.90922e-18
    outer loop
      vertex -7.53071 -6.57939 0
      vertex -7.22795 -6.91063 4
      vertex -7.22795 -6.91063 0
    endloop
  endfacet
  facet normal -0.997735 0.0672739 -2.0291e-19
    outer loop
      vertex 9.95974 -0.896393 0
      vertex 9.98993 -0.448647 4
      vertex 9.98993 -0.448647 0
    endloop
  endfacet
  facet normal -0.997735 0.0672739 -2.0291e-19
    outer loop
      vertex 9.98993 -0.448647 4
      vertex 9.95974 -0.896393 0
      vertex 9.95974 -0.896393 4
    endloop
  endfacet
  facet normal -0.957747 0.287614 1.34017e-18
    outer loop
      vertex 9.51056 -3.09017 0
      vertex 9.63963 -2.66037 4
      vertex 9.63963 -2.66037 0
    endloop
  endfacet
  facet normal -0.957747 0.287614 1.34017e-18
    outer loop
      vertex 9.63963 -2.66037 4
      vertex 9.51056 -3.09017 0
      vertex 9.51056 -3.09017 4
    endloop
  endfacet
  facet normal -0.987689 0.156429 4.41946e-19
    outer loop
      vertex 9.8393 -1.78557 0
      vertex 9.9095 -1.34233 4
      vertex 9.9095 -1.34233 0
    endloop
  endfacet
  facet normal -0.987689 0.156429 4.41946e-19
    outer loop
      vertex 9.9095 -1.34233 4
      vertex 9.8393 -1.78557 0
      vertex 9.8393 -1.78557 4
    endloop
  endfacet
  facet normal 0.139958 0.613186 0.777441
    outer loop
      vertex 9.32304 11.6907 2
      vertex -2.71677 11.903 4
      vertex 7.61224 9.54544 4
    endloop
  endfacet
  facet normal 0.566668 0.272894 0.777442
    outer loop
      vertex 9.32304 11.6907 2
      vertex 7.61224 9.54544 4
      vertex 12.2091 0 4
    endloop
  endfacet
  facet normal 0 0 1
    outer loop
      vertex 12.2091 0 4
      vertex 9.98993 0.448647 4
      vertex 10 0 4
    endloop
  endfacet
  facet normal 0 0 1
    outer loop
      vertex 12.2091 0 4
      vertex 9.95974 0.896393 4
      vertex 9.98993 0.448647 4
    endloop
  endfacet
  facet normal 0 0 1
    outer loop
      vertex 12.2091 0 4
      vertex 9.9095 1.34233 4
      vertex 9.95974 0.896393 4
    endloop
  endfacet
  facet normal 0 0 1
    outer loop
      vertex 12.2091 0 4
      vertex 9.8393 1.78557 4
      vertex 9.9095 1.34233 4
    endloop
  endfacet
  facet normal 0 0 1
    outer loop
      vertex 12.2091 0 4
      vertex 9.74928 2.22521 4
      vertex 9.8393 1.78557 4
    endloop
  endfacet
  facet normal 0 0 1
    outer loop
      vertex 12.2091 0 4
      vertex 9.63963 2.66037 4
      vertex 9.74928 2.22521 4
    endloop
  endfacet
  facet normal 0 0 1
    outer loop
      vertex 12.2091 0 4
      vertex 9.51056 3.09017 4
      vertex 9.63963 2.66037 4
    endloop
  endfacet
  facet normal 0 0 1
    outer loop
      vertex 12.2091 0 4
      vertex 9.36235 3.51375 4
      vertex 9.51056 3.09017 4
    endloop
  endfacet
  facet normal 0 0 1
    outer loop
      vertex 12.2091 0 4
      vertex 9.19528 3.93025 4
      vertex 9.36235 3.51375 4
    endloop
  endfacet
  facet normal 0 0 1
    outer loop
      vertex 12.2091 0 4
      vertex 9.00969 4.33884 4
      vertex 9.19528 3.93025 4
    endloop
  endfacet
  facet normal 0 0 1
    outer loop
      vertex 7.61224 9.54544 4
      vertex 9.00969 4.33884 4
      vertex 12.2091 0 4
    endloop
  endfacet
  facet normal 0 0 1
    outer loop
      vertex 9.00969 4.33884 4
      vertex 7.61224 9.54544 4
      vertex 8.80595 4.73869 4
    endloop
  endfacet
  facet normal 0 0 1
    outer loop
      vertex 8.80595 4.73869 4
      vertex 7.61224 9.54544 4
      vertex 8.58449 5.12899 4
    endloop
  endfacet
  facet normal 0 0 1
    outer loop
      vertex 8.58449 5.12899 4
      vertex 7.61224 9.54544 4
      vertex 8.34573 5.50897 4
    endloop
  endfacet
  facet normal 0 0 1
    outer loop
      vertex 8.34573 5.50897 4
      vertex 7.61224 9.54544 4
      vertex 8.09017 5.87785 4
    endloop
  endfacet
  facet normal 0 0 1
    outer loop
      vertex 7.61224 9.54544 4
      vertex 7.81831 6.2349 4
      vertex 8.09017 5.87785 4
    endloop
  endfacet
  facet normal 0 0 1
    outer loop
      vertex 7.61224 9.54544 4
      vertex 7.53071 6.57939 4
      vertex 7.81831 6.2349 4
    endloop
  endfacet
  facet normal 0 0 1
    outer loop
      vertex 7.61224 9.54544 4
      vertex 7.22795 6.91063 4
      vertex 7.53071 6.57939 4
    endloop
  endfacet
  facet normal 0 0 1
    outer loop
      vertex 7.61224 9.54544 4
      vertex 6.91063 7.22795 4
      vertex 7.22795 6.91063 4
    endloop
  endfacet
  facet normal 0 0 1
    outer loop
      vertex 7.61224 9.54544 4
      vertex 6.57939 7.53071 4
      vertex 6.91063 7.22795 4
    endloop
  endfacet
  facet normal 0 0 1
    outer loop
      vertex 7.61224 9.54544 4
      vertex 6.2349 7.81831 4
      vertex 6.57939 7.53071 4
    endloop
  endfacet
  facet normal 0 0 1
    outer loop
      vertex 7.61224 9.54544 4
      vertex 5.87785 8.09017 4
      vertex 6.2349 7.81831 4
    endloop
  endfacet
  facet normal 0 0 1
    outer loop
      vertex 7.61224 9.54544 4
      vertex 5.50897 8.34573 4
      vertex 5.87785 8.09017 4
    endloop
  endfacet
  facet normal 0 0 1
    outer loop
      vertex 7.61224 9.54544 4
      vertex 5.12899 8.58449 4
      vertex 5.50897 8.34573 4
    endloop
  endfacet
  facet normal 0 0 1
    outer loop
      vertex 7.61224 9.54544 4
      vertex 4.73869 8.80595 4
      vertex 5.12899 8.58449 4
    endloop
  endfacet
  facet normal 0 0 1
    outer loop
      vertex 7.61224 9.54544 4
      vertex 4.33884 9.00969 4
      vertex 4.73869 8.80595 4
    endloop
  endfacet
  facet normal 0 0 1
    outer loop
      vertex 7.61224 9.54544 4
      vertex 3.93025 9.19528 4
      vertex 4.33884 9.00969 4
    endloop
  endfacet
  facet normal 0 0 1
    outer loop
      vertex 7.61224 9.54544 4
      vertex 3.51375 9.36235 4
      vertex 3.93025 9.19528 4
    endloop
  endfacet
  facet normal 0 0 1
    outer loop
      vertex 7.61224 9.54544 4
      vertex 3.09017 9.51056 4
      vertex 3.51375 9.36235 4
    endloop
  endfacet
  facet normal 0 0 1
    outer loop
      vertex 7.61224 9.54544 4
      vertex 2.66037 9.63963 4
      vertex 3.09017 9.51056 4
    endloop
  endfacet
  facet normal 0 0 1
    outer loop
      vertex 7.61224 9.54544 4
      vertex 2.22521 9.74928 4
      vertex 2.66037 9.63963 4
    endloop
  endfacet
  facet normal 0 0 1
    outer loop
      vertex -2.71677 11.903 4
      vertex 2.22521 9.74928 4
      vertex 7.61224 9.54544 4
    endloop
  endfacet
  facet normal 0 0 1
    outer loop
      vertex 2.22521 9.74928 4
      vertex -2.71677 11.903 4
      vertex 1.78557 9.8393 4
    endloop
  endfacet
  facet normal 0 0 1
    outer loop
      vertex 1.78557 9.8393 4
      vertex -2.71677 11.903 4
      vertex 1.34233 9.9095 4
    endloop
  endfacet
  facet normal 0 0 1
    outer loop
      vertex 1.34233 9.9095 4
      vertex -2.71677 11.903 4
      vertex 0.896393 9.95974 4
    endloop
  endfacet
  facet normal 0 0 1
    outer loop
      vertex 0.896393 9.95974 4
      vertex -2.71677 11.903 4
      vertex 0.448647 9.98993 4
    endloop
  endfacet
  facet normal 0 0 1
    outer loop
      vertex -2.71677 11.903 4
      vertex 0 10 4
      vertex 0.448647 9.98993 4
    endloop
  endfacet
  facet normal 0 0 1
    outer loop
      vertex -2.71677 11.903 4
      vertex -0.448647 9.98993 4
      vertex 0 10 4
    endloop
  endfacet
  facet normal 0 0 1
    outer loop
      vertex -2.71677 11.903 4
      vertex -0.896393 9.95974 4
      vertex -0.448647 9.98993 4
    endloop
  endfacet
  facet normal 0 0 1
    outer loop
      vertex -2.71677 11.903 4
      vertex -1.34233 9.9095 4
      vertex -0.896393 9.95974 4
    endloop
  endfacet
  facet normal 0 0 1
    outer loop
      vertex -2.71677 11.903 4
      vertex -1.78557 9.8393 4
      vertex -1.34233 9.9095 4
    endloop
  endfacet
  facet normal 0 0 1
    outer loop
      vertex -2.71677 11.903 4
      vertex -2.22521 9.74928 4
      vertex -1.78557 9.8393 4
    endloop
  endfacet
  facet normal 0 0 1
    outer loop
      vertex -2.71677 11.903 4
      vertex -2.66037 9.63963 4
      vertex -2.22521 9.74928 4
    endloop
  endfacet
  facet normal 0 0 1
    outer loop
      vertex -2.71677 11.903 4
      vertex -3.09017 9.51056 4
      vertex -2.66037 9.63963 4
    endloop
  endfacet
  facet normal 0 0 1
    outer loop
      vertex -2.71677 11.903 4
      vertex -3.51375 9.36235 4
      vertex -3.09017 9.51056 4
    endloop
  endfacet
  facet normal 0 0 1
    outer loop
      vertex -2.71677 11.903 4
      vertex -3.93025 9.19528 4
      vertex -3.51375 9.36235 4
    endloop
  endfacet
  facet normal 0 0 1
    outer loop
      vertex -2.71677 11.903 4
      vertex -4.33884 9.00969 4
      vertex -3.93025 9.19528 4
    endloop
  endfacet
  facet normal 0 0 1
    outer loop
      vertex -2.71677 11.903 4
      vertex -4.73869 8.80595 4
      vertex -4.33884 9.00969 4
    endloop
  endfacet
  facet normal 0 0 1
    outer loop
      vertex -2.71677 11.903 4
      vertex -5.12899 8.58449 4
      vertex -4.73869 8.80595 4
    endloop
  endfacet
  facet normal 0 0 1
    outer loop
      vertex -2.71677 11.903 4
      vertex -5.50897 8.34573 4
      vertex -5.12899 8.58449 4
    endloop
  endfacet
  facet normal 0 0 1
    outer loop
      vertex -2.71677 11.903 4
      vertex -5.87785 8.09017 4
      vertex -5.50897 8.34573 4
    endloop
  endfacet
  facet normal 0 0 1
    outer loop
      vertex -2.71677 11.903 4
      vertex -6.2349 7.81831 4
      vertex -5.87785 8.09017 4
    endloop
  endfacet
  facet normal 0 0 1
    outer loop
      vertex -11 5.29732 4
      vertex -6.2349 7.81831 4
      vertex -2.71677 11.903 4
    endloop
  endfacet
  facet normal 0 0 1
    outer loop
      vertex -6.2349 7.81831 4
      vertex -11 5.29732 4
      vertex -6.57939 7.53071 4
    endloop
  endfacet
  facet normal 0 0 1
    outer loop
      vertex -6.57939 7.53071 4
      vertex -11 5.29732 4
      vertex -6.91063 7.22795 4
    endloop
  endfacet
  facet normal 0 0 1
    outer loop
      vertex -6.91063 7.22795 4
      vertex -11 5.29732 4
      vertex -7.22795 6.91063 4
    endloop
  endfacet
  facet normal 0 0 1
    outer loop
      vertex -9.98993 0.448647 4
      vertex -11 5.29732 4
      vertex -10 0 4
    endloop
  endfacet
  facet normal 0 0 1
    outer loop
      vertex -9.95974 0.896393 4
      vertex -11 5.29732 4
      vertex -9.98993 0.448647 4
    endloop
  endfacet
  facet normal 0 0 1
    outer loop
      vertex -9.9095 1.34233 4
      vertex -11 5.29732 4
      vertex -9.95974 0.896393 4
    endloop
  endfacet
  facet normal 0 0 1
    outer loop
      vertex -9.8393 1.78557 4
      vertex -11 5.29732 4
      vertex -9.9095 1.34233 4
    endloop
  endfacet
  facet normal 0 0 1
    outer loop
      vertex -9.74928 2.22521 4
      vertex -11 5.29732 4
      vertex -9.8393 1.78557 4
    endloop
  endfacet
  facet normal 0 0 1
    outer loop
      vertex -9.63963 2.66037 4
      vertex -11 5.29732 4
      vertex -9.74928 2.22521 4
    endloop
  endfacet
  facet normal 0 0 1
    outer loop
      vertex -9.51056 3.09017 4
      vertex -11 5.29732 4
      vertex -9.63963 2.66037 4
    endloop
  endfacet
  facet normal 0 0 1
    outer loop
      vertex -9.36235 3.51375 4
      vertex -11 5.29732 4
      vertex -9.51056 3.09017 4
    endloop
  endfacet
  facet normal 0 0 1
    outer loop
      vertex -9.19528 3.93025 4
      vertex -11 5.29732 4
      vertex -9.36235 3.51375 4
    endloop
  endfacet
  facet normal 0 0 1
    outer loop
      vertex -9.00969 4.33884 4
      vertex -11 5.29732 4
      vertex -9.19528 3.93025 4
    endloop
  endfacet
  facet normal 0 0 1
    outer loop
      vertex -8.80595 4.73869 4
      vertex -11 5.29732 4
      vertex -9.00969 4.33884 4
    endloop
  endfacet
  facet normal 0 0 1
    outer loop
      vertex -8.58449 5.12899 4
      vertex -11 5.29732 4
      vertex -8.80595 4.73869 4
    endloop
  endfacet
  facet normal 0 0 1
    outer loop
      vertex -8.34573 5.50897 4
      vertex -11 5.29732 4
      vertex -8.58449 5.12899 4
    endloop
  endfacet
  facet normal 0 0 1
    outer loop
      vertex -8.09017 5.87785 4
      vertex -11 5.29732 4
      vertex -8.34573 5.50897 4
    endloop
  endfacet
  facet normal 0 0 1
    outer loop
      vertex -7.81831 6.2349 4
      vertex -11 5.29732 4
      vertex -8.09017 5.87785 4
    endloop
  endfacet
  facet normal 0 0 1
    outer loop
      vertex -7.53071 6.57939 4
      vertex -11 5.29732 4
      vertex -7.81831 6.2349 4
    endloop
  endfacet
  facet normal 0 0 1
    outer loop
      vertex -7.22795 6.91063 4
      vertex -11 5.29732 4
      vertex -7.53071 6.57939 4
    endloop
  endfacet
  facet normal 0 0 1
    outer loop
      vertex 9.98993 -0.448647 4
      vertex 12.2091 0 4
      vertex 10 0 4
    endloop
  endfacet
  facet normal 0 0 1
    outer loop
      vertex 9.95974 -0.896393 4
      vertex 12.2091 0 4
      vertex 9.98993 -0.448647 4
    endloop
  endfacet
  facet normal 0 0 1
    outer loop
      vertex 9.9095 -1.34233 4
      vertex 12.2091 0 4
      vertex 9.95974 -0.896393 4
    endloop
  endfacet
  facet normal 0 0 1
    outer loop
      vertex 9.8393 -1.78557 4
      vertex 12.2091 0 4
      vertex 9.9095 -1.34233 4
    endloop
  endfacet
  facet normal 0 0 1
    outer loop
      vertex 9.74928 -2.22521 4
      vertex 12.2091 0 4
      vertex 9.8393 -1.78557 4
    endloop
  endfacet
  facet normal 0 0 1
    outer loop
      vertex 9.63963 -2.66037 4
      vertex 12.2091 0 4
      vertex 9.74928 -2.22521 4
    endloop
  endfacet
  facet normal 0 0 1
    outer loop
      vertex 9.51056 -3.09017 4
      vertex 12.2091 0 4
      vertex 9.63963 -2.66037 4
    endloop
  endfacet
  facet normal 0 0 1
    outer loop
      vertex 9.36235 -3.51375 4
      vertex 12.2091 0 4
      vertex 9.51056 -3.09017 4
    endloop
  endfacet
  facet normal 0 0 1
    outer loop
      vertex 9.19528 -3.93025 4
      vertex 12.2091 0 4
      vertex 9.36235 -3.51375 4
    endloop
  endfacet
  facet normal 0 0 1
    outer loop
      vertex 9.00969 -4.33884 4
      vertex 12.2091 0 4
      vertex 9.19528 -3.93025 4
    endloop
  endfacet
  facet normal 0 0 1
    outer loop
      vertex 7.61224 -9.54544 4
      vertex 9.00969 -4.33884 4
      vertex 8.80595 -4.73869 4
    endloop
  endfacet
  facet normal 0 0 1
    outer loop
      vertex 7.61224 -9.54544 4
      vertex 8.80595 -4.73869 4
      vertex 8.58449 -5.12899 4
    endloop
  endfacet
  facet normal 0 0 1
    outer loop
      vertex 7.61224 -9.54544 4
      vertex 8.58449 -5.12899 4
      vertex 8.34573 -5.50897 4
    endloop
  endfacet
  facet normal 0 0 1
    outer loop
      vertex 7.61224 -9.54544 4
      vertex 8.34573 -5.50897 4
      vertex 8.09017 -5.87785 4
    endloop
  endfacet
  facet normal -0 0 1
    outer loop
      vertex 9.00969 -4.33884 4
      vertex 7.61224 -9.54544 4
      vertex 12.2091 0 4
    endloop
  endfacet
  facet normal -0 0 1
    outer loop
      vertex 7.81831 -6.2349 4
      vertex 7.61224 -9.54544 4
      vertex 8.09017 -5.87785 4
    endloop
  endfacet
  facet normal -0 0 1
    outer loop
      vertex 7.53071 -6.57939 4
      vertex 7.61224 -9.54544 4
      vertex 7.81831 -6.2349 4
    endloop
  endfacet
  facet normal -0 0 1
    outer loop
      vertex 7.22795 -6.91063 4
      vertex 7.61224 -9.54544 4
      vertex 7.53071 -6.57939 4
    endloop
  endfacet
  facet normal -0 0 1
    outer loop
      vertex 6.91063 -7.22795 4
      vertex 7.61224 -9.54544 4
      vertex 7.22795 -6.91063 4
    endloop
  endfacet
  facet normal -0 0 1
    outer loop
      vertex 6.57939 -7.53071 4
      vertex 7.61224 -9.54544 4
      vertex 6.91063 -7.22795 4
    endloop
  endfacet
  facet normal -0 0 1
    outer loop
      vertex 6.2349 -7.81831 4
      vertex 7.61224 -9.54544 4
      vertex 6.57939 -7.53071 4
    endloop
  endfacet
  facet normal -0 0 1
    outer loop
      vertex 5.87785 -8.09017 4
      vertex 7.61224 -9.54544 4
      vertex 6.2349 -7.81831 4
    endloop
  endfacet
  facet normal -0 0 1
    outer loop
      vertex 5.50897 -8.34573 4
      vertex 7.61224 -9.54544 4
      vertex 5.87785 -8.09017 4
    endloop
  endfacet
  facet normal -0 0 1
    outer loop
      vertex 5.12899 -8.58449 4
      vertex 7.61224 -9.54544 4
      vertex 5.50897 -8.34573 4
    endloop
  endfacet
  facet normal -0 0 1
    outer loop
      vertex 4.73869 -8.80595 4
      vertex 7.61224 -9.54544 4
      vertex 5.12899 -8.58449 4
    endloop
  endfacet
  facet normal -0 0 1
    outer loop
      vertex 4.33884 -9.00969 4
      vertex 7.61224 -9.54544 4
      vertex 4.73869 -8.80595 4
    endloop
  endfacet
  facet normal -0 0 1
    outer loop
      vertex 3.93025 -9.19528 4
      vertex 7.61224 -9.54544 4
      vertex 4.33884 -9.00969 4
    endloop
  endfacet
  facet normal -0 0 1
    outer loop
      vertex 3.51375 -9.36235 4
      vertex 7.61224 -9.54544 4
      vertex 3.93025 -9.19528 4
    endloop
  endfacet
  facet normal -0 0 1
    outer loop
      vertex 3.09017 -9.51056 4
      vertex 7.61224 -9.54544 4
      vertex 3.51375 -9.36235 4
    endloop
  endfacet
  facet normal 0 0 1
    outer loop
      vertex 2.66037 -9.63963 4
      vertex 7.61224 -9.54544 4
      vertex 3.09017 -9.51056 4
    endloop
  endfacet
  facet normal 0 0 1
    outer loop
      vertex 2.22521 -9.74928 4
      vertex 7.61224 -9.54544 4
      vertex 2.66037 -9.63963 4
    endloop
  endfacet
  facet normal 0 0 1
    outer loop
      vertex -2.71677 -11.903 4
      vertex 2.22521 -9.74928 4
      vertex 1.78557 -9.8393 4
    endloop
  endfacet
  facet normal 0 0 1
    outer loop
      vertex -2.71677 -11.903 4
      vertex 1.78557 -9.8393 4
      vertex 1.34233 -9.9095 4
    endloop
  endfacet
  facet normal 0 0 1
    outer loop
      vertex -2.71677 -11.903 4
      vertex 1.34233 -9.9095 4
      vertex 0.896393 -9.95974 4
    endloop
  endfacet
  facet normal 0 0 1
    outer loop
      vertex -2.71677 -11.903 4
      vertex 0.896393 -9.95974 4
      vertex 0.448647 -9.98993 4
    endloop
  endfacet
  facet normal -0 0 1
    outer loop
      vertex 2.22521 -9.74928 4
      vertex -2.71677 -11.903 4
      vertex 7.61224 -9.54544 4
    endloop
  endfacet
  facet normal -0 0 1
    outer loop
      vertex 0 -10 4
      vertex -2.71677 -11.903 4
      vertex 0.448647 -9.98993 4
    endloop
  endfacet
  facet normal 0 0 1
    outer loop
      vertex -0.448647 -9.98993 4
      vertex -2.71677 -11.903 4
      vertex 0 -10 4
    endloop
  endfacet
  facet normal 0 0 1
    outer loop
      vertex -0.896393 -9.95974 4
      vertex -2.71677 -11.903 4
      vertex -0.448647 -9.98993 4
    endloop
  endfacet
  facet normal 0 0 1
    outer loop
      vertex -1.34233 -9.9095 4
      vertex -2.71677 -11.903 4
      vertex -0.896393 -9.95974 4
    endloop
  endfacet
  facet normal 0 0 1
    outer loop
      vertex -1.78557 -9.8393 4
      vertex -2.71677 -11.903 4
      vertex -1.34233 -9.9095 4
    endloop
  endfacet
  facet normal 0 0 1
    outer loop
      vertex -2.22521 -9.74928 4
      vertex -2.71677 -11.903 4
      vertex -1.78557 -9.8393 4
    endloop
  endfacet
  facet normal 0 0 1
    outer loop
      vertex -2.66037 -9.63963 4
      vertex -2.71677 -11.903 4
      vertex -2.22521 -9.74928 4
    endloop
  endfacet
  facet normal 0 0 1
    outer loop
      vertex -3.09017 -9.51056 4
      vertex -2.71677 -11.903 4
      vertex -2.66037 -9.63963 4
    endloop
  endfacet
  facet normal 0 0 1
    outer loop
      vertex -3.51375 -9.36235 4
      vertex -2.71677 -11.903 4
      vertex -3.09017 -9.51056 4
    endloop
  endfacet
  facet normal 0 0 1
    outer loop
      vertex -3.93025 -9.19528 4
      vertex -2.71677 -11.903 4
      vertex -3.51375 -9.36235 4
    endloop
  endfacet
  facet normal 0 0 1
    outer loop
      vertex -4.33884 -9.00969 4
      vertex -2.71677 -11.903 4
      vertex -3.93025 -9.19528 4
    endloop
  endfacet
  facet normal 0 0 1
    outer loop
      vertex -4.73869 -8.80595 4
      vertex -2.71677 -11.903 4
      vertex -4.33884 -9.00969 4
    endloop
  endfacet
  facet normal 0 0 1
    outer loop
      vertex -5.12899 -8.58449 4
      vertex -2.71677 -11.903 4
      vertex -4.73869 -8.80595 4
    endloop
  endfacet
  facet normal 0 0 1
    outer loop
      vertex -5.50897 -8.34573 4
      vertex -2.71677 -11.903 4
      vertex -5.12899 -8.58449 4
    endloop
  endfacet
  facet normal 0 0 1
    outer loop
      vertex -5.87785 -8.09017 4
      vertex -2.71677 -11.903 4
      vertex -5.50897 -8.34573 4
    endloop
  endfacet
  facet normal 0 0 1
    outer loop
      vertex -6.2349 -7.81831 4
      vertex -2.71677 -11.903 4
      vertex -5.87785 -8.09017 4
    endloop
  endfacet
  facet normal 0 0 1
    outer loop
      vertex -11 -5.29732 4
      vertex -6.2349 -7.81831 4
      vertex -6.57939 -7.53071 4
    endloop
  endfacet
  facet normal 0 0 1
    outer loop
      vertex -11 -5.29732 4
      vertex -6.57939 -7.53071 4
      vertex -6.91063 -7.22795 4
    endloop
  endfacet
  facet normal 0 0 1
    outer loop
      vertex -11 -5.29732 4
      vertex -6.91063 -7.22795 4
      vertex -7.22795 -6.91063 4
    endloop
  endfacet
  facet normal 0 0 1
    outer loop
      vertex -11 -5.29732 4
      vertex -7.22795 -6.91063 4
      vertex -7.53071 -6.57939 4
    endloop
  endfacet
  facet normal 0 0 1
    outer loop
      vertex -11 -5.29732 4
      vertex -10 0 4
      vertex -11 5.29732 4
    endloop
  endfacet
  facet normal 0 0 1
    outer loop
      vertex -10 0 4
      vertex -11 -5.29732 4
      vertex -9.98993 -0.448647 4
    endloop
  endfacet
  facet normal 0 0 1
    outer loop
      vertex -9.98993 -0.448647 4
      vertex -11 -5.29732 4
      vertex -9.95974 -0.896393 4
    endloop
  endfacet
  facet normal 0 0 1
    outer loop
      vertex -9.95974 -0.896393 4
      vertex -11 -5.29732 4
      vertex -9.9095 -1.34233 4
    endloop
  endfacet
  facet normal 0 0 1
    outer loop
      vertex -6.2349 -7.81831 4
      vertex -11 -5.29732 4
      vertex -2.71677 -11.903 4
    endloop
  endfacet
  facet normal 0 0 1
    outer loop
      vertex -7.81831 -6.2349 4
      vertex -11 -5.29732 4
      vertex -7.53071 -6.57939 4
    endloop
  endfacet
  facet normal 0 0 1
    outer loop
      vertex -8.09017 -5.87785 4
      vertex -11 -5.29732 4
      vertex -7.81831 -6.2349 4
    endloop
  endfacet
  facet normal 0 0 1
    outer loop
      vertex -8.34573 -5.50897 4
      vertex -11 -5.29732 4
      vertex -8.09017 -5.87785 4
    endloop
  endfacet
  facet normal 0 0 1
    outer loop
      vertex -8.58449 -5.12899 4
      vertex -11 -5.29732 4
      vertex -8.34573 -5.50897 4
    endloop
  endfacet
  facet normal 0 0 1
    outer loop
      vertex -8.80595 -4.73869 4
      vertex -11 -5.29732 4
      vertex -8.58449 -5.12899 4
    endloop
  endfacet
  facet normal 0 0 1
    outer loop
      vertex -9.00969 -4.33884 4
      vertex -11 -5.29732 4
      vertex -8.80595 -4.73869 4
    endloop
  endfacet
  facet normal 0 0 1
    outer loop
      vertex -9.19528 -3.93025 4
      vertex -11 -5.29732 4
      vertex -9.00969 -4.33884 4
    endloop
  endfacet
  facet normal 0 0 1
    outer loop
      vertex -9.36235 -3.51375 4
      vertex -11 -5.29732 4
      vertex -9.19528 -3.93025 4
    endloop
  endfacet
  facet normal 0 0 1
    outer loop
      vertex -9.51056 -3.09017 4
      vertex -11 -5.29732 4
      vertex -9.36235 -3.51375 4
    endloop
  endfacet
  facet normal 0 0 1
    outer loop
      vertex -9.63963 -2.66037 4
      vertex -11 -5.29732 4
      vertex -9.51056 -3.09017 4
    endloop
  endfacet
  facet normal 0 0 1
    outer loop
      vertex -9.74928 -2.22521 4
      vertex -11 -5.29732 4
      vertex -9.63963 -2.66037 4
    endloop
  endfacet
  facet normal 0 0 1
    outer loop
      vertex -9.8393 -1.78557 4
      vertex -11 -5.29732 4
      vertex -9.74928 -2.22521 4
    endloop
  endfacet
  facet normal 0 0 1
    outer loop
      vertex -9.9095 -1.34233 4
      vertex -11 -5.29732 4
      vertex -9.8393 -1.78557 4
    endloop
  endfacet
  facet normal 0.566669 -0.272894 0.777441
    outer loop
      vertex 12.2091 0 4
      vertex 9.32304 -11.6907 2
      vertex 14.953 0 2
    endloop
  endfacet
  facet normal 0.566668 -0.272894 0.777442
    outer loop
      vertex 12.2091 0 4
      vertex 7.61224 -9.54544 4
      vertex 9.32304 -11.6907 2
    endloop
  endfacet
  facet normal 0.566669 0.272894 0.777441
    outer loop
      vertex 14.953 0 2
      vertex 9.32304 11.6907 2
      vertex 12.2091 0 4
    endloop
  endfacet
  facet normal -0.392145 -0.491734 0.777445
    outer loop
      vertex -11 -5.29732 4
      vertex -13.4722 -6.48786 2
      vertex -3.32736 -14.5781 2
    endloop
  endfacet
  facet normal -0.392148 -0.491736 0.777442
    outer loop
      vertex -2.71677 -11.903 4
      vertex -11 -5.29732 4
      vertex -3.32736 -14.5781 2
    endloop
  endfacet
  facet normal -0.62895 0 0.777445
    outer loop
      vertex -13.4722 6.48786 2
      vertex -11 -5.29732 4
      vertex -11 5.29732 4
    endloop
  endfacet
  facet normal -0.62895 0 0.777445
    outer loop
      vertex -11 -5.29732 4
      vertex -13.4722 6.48786 2
      vertex -13.4722 -6.48786 2
    endloop
  endfacet
  facet normal 0.139957 0.613187 0.77744
    outer loop
      vertex 9.32304 11.6907 2
      vertex -3.32736 14.5781 2
      vertex -2.71677 11.903 4
    endloop
  endfacet
  facet normal 0.139957 -0.613187 0.77744
    outer loop
      vertex -2.71677 -11.903 4
      vertex -3.32736 -14.5781 2
      vertex 9.32304 -11.6907 2
    endloop
  endfacet
  facet normal 0.139958 -0.613186 0.777441
    outer loop
      vertex 7.61224 -9.54544 4
      vertex -2.71677 -11.903 4
      vertex 9.32304 -11.6907 2
    endloop
  endfacet
  facet normal -0.392148 0.491736 0.777442
    outer loop
      vertex -3.32736 14.5781 2
      vertex -11 5.29732 4
      vertex -2.71677 11.903 4
    endloop
  endfacet
  facet normal -0.392145 0.491734 0.777445
    outer loop
      vertex -3.32736 14.5781 2
      vertex -13.4722 6.48786 2
      vertex -11 5.29732 4
    endloop
  endfacet
endsolid OpenSCAD_Model
